digraph "QCPAxisRect"
{
  edge [fontname="Helvetica",fontsize="10",labelfontname="Helvetica",labelfontsize="10"];
  node [fontname="Helvetica",fontsize="10",shape=record];
  Node1 [label="QCPAxisRect",height=0.2,width=0.4,color="black", fillcolor="grey75", style="filled", fontcolor="black"];
  Node2 -> Node1 [dir="back",color="midnightblue",fontsize="10",style="solid",fontname="Helvetica"];
  Node2 [label="QCPLayoutElement",height=0.2,width=0.4,color="black", fillcolor="white", style="filled",URL="$classQCPLayoutElement.html",tooltip="The abstract base class for all objects that form the layout system. "];
  Node3 -> Node2 [dir="back",color="midnightblue",fontsize="10",style="solid",fontname="Helvetica"];
  Node3 [label="QCPLayerable",height=0.2,width=0.4,color="black", fillcolor="white", style="filled",URL="$classQCPLayerable.html",tooltip="Base class for all drawable objects. "];
  Node4 -> Node3 [dir="back",color="midnightblue",fontsize="10",style="solid",fontname="Helvetica"];
  Node4 [label="QObject",height=0.2,width=0.4,color="grey75", fillcolor="white", style="filled"];
  Node5 -> Node3 [dir="back",color="darkorchid3",fontsize="10",style="dashed",label=" mLayer" ,fontname="Helvetica"];
  Node5 [label="QCPLayer",height=0.2,width=0.4,color="black", fillcolor="white", style="filled",URL="$classQCPLayer.html",tooltip="A layer that may contain objects, to control the rendering order. "];
  Node4 -> Node5 [dir="back",color="midnightblue",fontsize="10",style="solid",fontname="Helvetica"];
  Node6 -> Node5 [dir="back",color="darkorchid3",fontsize="10",style="dashed",label=" mParentPlot" ,fontname="Helvetica"];
  Node6 [label="QCustomPlot",height=0.2,width=0.4,color="black", fillcolor="white", style="filled",URL="$classQCustomPlot.html",tooltip="The central class of the library. This is the QWidget which displays the plot and interacts with the ..."];
  Node7 -> Node6 [dir="back",color="midnightblue",fontsize="10",style="solid",fontname="Helvetica"];
  Node7 [label="QWidget",height=0.2,width=0.4,color="grey75", fillcolor="white", style="filled"];
  Node5 -> Node6 [dir="back",color="darkorchid3",fontsize="10",style="dashed",label=" mCurrentLayer" ,fontname="Helvetica"];
  Node8 -> Node6 [dir="back",color="darkorchid3",fontsize="10",style="dashed",label=" mPlotLayout" ,fontname="Helvetica"];
  Node8 [label="QCPLayoutGrid",height=0.2,width=0.4,color="black", fillcolor="white", style="filled",URL="$classQCPLayoutGrid.html",tooltip="A layout that arranges child elements in a grid. "];
  Node9 -> Node8 [dir="back",color="midnightblue",fontsize="10",style="solid",fontname="Helvetica"];
  Node9 [label="QCPLayout",height=0.2,width=0.4,color="black", fillcolor="white", style="filled",URL="$classQCPLayout.html",tooltip="The abstract base class for layouts. "];
  Node2 -> Node9 [dir="back",color="midnightblue",fontsize="10",style="solid",fontname="Helvetica"];
  Node10 -> Node6 [dir="back",color="darkorchid3",fontsize="10",style="dashed",label=" mSelectionRect" ,fontname="Helvetica"];
  Node10 [label="QCPSelectionRect",height=0.2,width=0.4,color="black", fillcolor="white", style="filled",URL="$classQCPSelectionRect.html",tooltip="Provides rect/rubber-band data selection and range zoom interaction. "];
  Node3 -> Node10 [dir="back",color="midnightblue",fontsize="10",style="solid",fontname="Helvetica"];
  Node11 -> Node6 [dir="back",color="darkorchid3",fontsize="10",style="dashed",label=" yAxis2\nxAxis2\nxAxis\nyAxis" ,fontname="Helvetica"];
  Node11 [label="QCPAxis",height=0.2,width=0.4,color="black", fillcolor="white", style="filled",URL="$classQCPAxis.html",tooltip="Manages a single axis inside a QCustomPlot. "];
  Node3 -> Node11 [dir="back",color="midnightblue",fontsize="10",style="solid",fontname="Helvetica"];
  Node12 -> Node11 [dir="back",color="darkorchid3",fontsize="10",style="dashed",label=" mRange" ,fontname="Helvetica"];
  Node12 [label="QCPRange",height=0.2,width=0.4,color="black", fillcolor="white", style="filled",URL="$classQCPRange.html",tooltip="Represents the range an axis is encompassing. "];
  Node13 -> Node11 [dir="back",color="darkorchid3",fontsize="10",style="dashed",label=" mAxisPainter" ,fontname="Helvetica"];
  Node13 [label="QCPAxisPainterPrivate",height=0.2,width=0.4,color="black", fillcolor="white", style="filled",URL="$classQCPAxisPainterPrivate.html"];
  Node14 -> Node13 [dir="back",color="darkorchid3",fontsize="10",style="dashed",label=" lowerEnding\nupperEnding" ,fontname="Helvetica"];
  Node14 [label="QCPLineEnding",height=0.2,width=0.4,color="black", fillcolor="white", style="filled",URL="$classQCPLineEnding.html",tooltip="Handles the different ending decorations for line-like items. "];
  Node6 -> Node13 [dir="back",color="darkorchid3",fontsize="10",style="dashed",label=" mParentPlot" ,fontname="Helvetica"];
  Node15 -> Node11 [dir="back",color="darkorchid3",fontsize="10",style="dashed",label=" mGrid" ,fontname="Helvetica"];
  Node15 [label="QCPGrid",height=0.2,width=0.4,color="black", fillcolor="white", style="filled",URL="$classQCPGrid.html",tooltip="Responsible for drawing the grid of a QCPAxis. "];
  Node3 -> Node15 [dir="back",color="midnightblue",fontsize="10",style="solid",fontname="Helvetica"];
  Node11 -> Node15 [dir="back",color="darkorchid3",fontsize="10",style="dashed",label=" mParentAxis" ,fontname="Helvetica"];
  Node1 -> Node11 [dir="back",color="darkorchid3",fontsize="10",style="dashed",label=" mAxisRect" ,fontname="Helvetica"];
  Node16 -> Node6 [dir="back",color="darkorchid3",fontsize="10",style="dashed",label=" legend" ,fontname="Helvetica"];
  Node16 [label="QCPLegend",height=0.2,width=0.4,color="black", fillcolor="white", style="filled",URL="$classQCPLegend.html",tooltip="Manages a legend inside a QCustomPlot. "];
  Node8 -> Node16 [dir="back",color="midnightblue",fontsize="10",style="solid",fontname="Helvetica"];
  Node6 -> Node3 [dir="back",color="darkorchid3",fontsize="10",style="dashed",label=" mParentPlot" ,fontname="Helvetica"];
  Node9 -> Node2 [dir="back",color="darkorchid3",fontsize="10",style="dashed",label=" mParentLayout" ,fontname="Helvetica"];
  Node17 -> Node1 [dir="back",color="darkorchid3",fontsize="10",style="dashed",label=" mInsetLayout" ,fontname="Helvetica"];
  Node17 [label="QCPLayoutInset",height=0.2,width=0.4,color="black", fillcolor="white", style="filled",URL="$classQCPLayoutInset.html",tooltip="A layout that places child elements aligned to the border or arbitrarily positioned. "];
  Node9 -> Node17 [dir="back",color="midnightblue",fontsize="10",style="solid",fontname="Helvetica"];
}
