digraph "QCPLayout"
{
  edge [fontname="Helvetica",fontsize="10",labelfontname="Helvetica",labelfontsize="10"];
  node [fontname="Helvetica",fontsize="10",shape=record];
  Node1 [label="QCPLayout",height=0.2,width=0.4,color="black", fillcolor="grey75", style="filled", fontcolor="black"];
  Node2 -> Node1 [dir="back",color="midnightblue",fontsize="10",style="solid",fontname="Helvetica"];
  Node2 [label="QCPLayoutElement",height=0.2,width=0.4,color="black", fillcolor="white", style="filled",URL="$classQCPLayoutElement.html",tooltip="The abstract base class for all objects that form the layout system. "];
  Node3 -> Node2 [dir="back",color="midnightblue",fontsize="10",style="solid",fontname="Helvetica"];
  Node3 [label="QCPLayerable",height=0.2,width=0.4,color="black", fillcolor="white", style="filled",URL="$classQCPLayerable.html",tooltip="Base class for all drawable objects. "];
  Node4 -> Node3 [dir="back",color="midnightblue",fontsize="10",style="solid",fontname="Helvetica"];
  Node4 [label="QObject",height=0.2,width=0.4,color="grey75", fillcolor="white", style="filled"];
  Node1 -> Node5 [dir="back",color="midnightblue",fontsize="10",style="solid",fontname="Helvetica"];
  Node5 [label="QCPLayoutGrid",height=0.2,width=0.4,color="black", fillcolor="white", style="filled",URL="$classQCPLayoutGrid.html",tooltip="A layout that arranges child elements in a grid. "];
  Node5 -> Node6 [dir="back",color="midnightblue",fontsize="10",style="solid",fontname="Helvetica"];
  Node6 [label="QCPLegend",height=0.2,width=0.4,color="black", fillcolor="white", style="filled",URL="$classQCPLegend.html",tooltip="Manages a legend inside a QCustomPlot. "];
  Node1 -> Node7 [dir="back",color="midnightblue",fontsize="10",style="solid",fontname="Helvetica"];
  Node7 [label="QCPLayoutInset",height=0.2,width=0.4,color="black", fillcolor="white", style="filled",URL="$classQCPLayoutInset.html",tooltip="A layout that places child elements aligned to the border or arbitrarily positioned. "];
}
