%!PS-Adobe-3.0
%%Creator: PCBNEW
%%CreationDate: Sat Apr 22 16:14:43 2017
%%Title: /home/maly/Studia/ismm/Elektronika/Master/master-F.Cu.ps
%%Pages: 1
%%PageOrder: Ascend
%%BoundingBox: 0 0 596 842
%%DocumentMedia: A4 595 842 0 () ()
%%Orientation: Landscape
%%EndComments
%%BeginProlog
/line { newpath moveto lineto stroke } bind def
/cir0 { newpath 0 360 arc stroke } bind def
/cir1 { newpath 0 360 arc gsave fill grestore stroke } bind def
/cir2 { newpath 0 360 arc gsave fill grestore stroke } bind def
/arc0 { newpath arc stroke } bind def
/arc1 { newpath 4 index 4 index moveto arc closepath gsave fill
    grestore stroke } bind def
/arc2 { newpath 4 index 4 index moveto arc closepath gsave fill
    grestore stroke } bind def
/poly0 { stroke } bind def
/poly1 { closepath gsave fill grestore stroke } bind def
/poly2 { closepath gsave fill grestore stroke } bind def
/rect0 { rectstroke } bind def
/rect1 { rectfill } bind def
/rect2 { rectfill } bind def
/linemode0 { 0 setlinecap 0 setlinejoin 0 setlinewidth } bind def
/linemode1 { 1 setlinecap 1 setlinejoin } bind def
/dashedline { [200] 100 setdash } bind def
/solidline { [] 0 setdash } bind def
/phantomshow { moveto
    /KicadFont findfont 0.000001 scalefont setfont
    show } bind def
/textshow { gsave
    findfont exch scalefont setfont concat 1 scale 0 0 moveto show
    } bind def
/reencodefont {
  findfont dup length dict begin
  { 1 index /FID ne
    { def }
    { pop pop } ifelse
  } forall
  /Encoding ISOLatin1Encoding def
  currentdict
  end } bind def
/KicadFont /Helvetica reencodefont definefont pop
/KicadFont-Bold /Helvetica-Bold reencodefont definefont pop
/KicadFont-Oblique /Helvetica-Oblique reencodefont definefont pop
/KicadFont-BoldOblique /Helvetica-BoldOblique reencodefont definefont pop
%%EndProlog
%%Page: 1 1
%%BeginPageSetup
gsave
0.0072 0.0072 scale
linemode1
82680 0 translate 90 rotate
39.3701 setlinewidth
%%EndPageSetup
0 0 0 setrgbcolor
0 0 0 setrgbcolor
0 setlinewidth
newpath
58511.1 40214 moveto
58511.1 40894 lineto
57711.1 40894 lineto
57711.1 40214 lineto
58511.1 40214 lineto
poly1
0 0 0 setrgbcolor
680 setlinewidth
newpath
58171.1 39554 moveto
58051.1 39554 lineto
stroke
0 0 0 setrgbcolor
newpath
58171.1 38554 moveto
58051.1 38554 lineto
stroke
0 0 0 setrgbcolor
0 setlinewidth
newpath
58554 41735.1 moveto
58554 42227.2 lineto
57963.5 42227.2 lineto
57963.5 41735.1 lineto
58554 41735.1 lineto
poly1
0 0 0 setrgbcolor
newpath
57569.8 41735.1 moveto
57569.8 42227.2 lineto
56979.2 42227.2 lineto
56979.2 41735.1 lineto
57569.8 41735.1 lineto
poly1
0 0 0 setrgbcolor
newpath
62963.5 46380.8 moveto
63455.6 46380.8 lineto
63455.6 46971.3 lineto
62963.5 46971.3 lineto
62963.5 46380.8 lineto
poly1
0 0 0 setrgbcolor
newpath
62963.5 47365 moveto
63455.6 47365 lineto
63455.6 47955.6 lineto
62963.5 47955.6 lineto
62963.5 47365 lineto
poly1
0 0 0 setrgbcolor
newpath
62914.3 37886.7 moveto
62422.1 37886.7 lineto
62422.1 37296.1 lineto
62914.3 37296.1 lineto
62914.3 37886.7 lineto
poly1
0 0 0 setrgbcolor
newpath
62914.3 36902.4 moveto
62422.1 36902.4 lineto
62422.1 36311.9 lineto
62914.3 36311.9 lineto
62914.3 36902.4 lineto
poly1
0 0 0 setrgbcolor
newpath
63248.9 36311.9 moveto
63741 36311.9 lineto
63741 36902.4 lineto
63248.9 36902.4 lineto
63248.9 36311.9 lineto
poly1
0 0 0 setrgbcolor
newpath
63248.9 37296.1 moveto
63741 37296.1 lineto
63741 37886.7 lineto
63248.9 37886.7 lineto
63248.9 37296.1 lineto
poly1
0 0 0 setrgbcolor
newpath
64725.3 43211.5 moveto
65217.4 43211.5 lineto
65217.4 43802 lineto
64725.3 43802 lineto
64725.3 43211.5 lineto
poly1
0 0 0 setrgbcolor
newpath
64725.3 44195.7 moveto
65217.4 44195.7 lineto
65217.4 44786.3 lineto
64725.3 44786.3 lineto
64725.3 44195.7 lineto
poly1
0 0 0 setrgbcolor
newpath
64523.5 39047.1 moveto
64523.5 39927.1 lineto
63643.5 39927.1 lineto
63643.5 39047.1 lineto
64523.5 39047.1 lineto
poly1
0 0 0 setrgbcolor
newpath
61044.2 48624.9 moveto
61044.2 49136.7 lineto
60453.6 49136.7 lineto
60453.6 48624.9 lineto
61044.2 48624.9 lineto
poly1
0 0 0 setrgbcolor
newpath
59981.2 48624.9 moveto
59981.2 49136.7 lineto
59390.6 49136.7 lineto
59390.6 48624.9 lineto
59981.2 48624.9 lineto
poly1
0 0 0 setrgbcolor
newpath
61044.2 47640.6 moveto
61044.2 48152.4 lineto
60453.6 48152.4 lineto
60453.6 47640.6 lineto
61044.2 47640.6 lineto
poly1
0 0 0 setrgbcolor
newpath
59981.2 47640.6 moveto
59981.2 48152.4 lineto
59390.6 48152.4 lineto
59390.6 47640.6 lineto
59981.2 47640.6 lineto
poly1
0 0 0 setrgbcolor
newpath
58343.4 49254.8 moveto
57831.6 49254.8 lineto
57831.6 48664.3 lineto
58343.4 48664.3 lineto
58343.4 49254.8 lineto
poly1
0 0 0 setrgbcolor
newpath
58343.4 48191.8 moveto
57831.6 48191.8 lineto
57831.6 47601.3 lineto
58343.4 47601.3 lineto
58343.4 48191.8 lineto
poly1
0 0 0 setrgbcolor
newpath
59489.1 39471.3 moveto
59489.1 38959.5 lineto
60079.6 38959.5 lineto
60079.6 39471.3 lineto
59489.1 39471.3 lineto
poly1
0 0 0 setrgbcolor
newpath
60552 39471.3 moveto
60552 38959.5 lineto
61142.6 38959.5 lineto
61142.6 39471.3 lineto
60552 39471.3 lineto
poly1
0 0 0 setrgbcolor
newpath
60079.6 36971.3 moveto
60591.4 36971.3 lineto
60591.4 37561.9 lineto
60079.6 37561.9 lineto
60079.6 36971.3 lineto
poly1
0 0 0 setrgbcolor
newpath
60079.6 38034.3 moveto
60591.4 38034.3 lineto
60591.4 38624.9 lineto
60079.6 38624.9 lineto
60079.6 38034.3 lineto
poly1
0 0 0 setrgbcolor
newpath
59193.8 36971.3 moveto
59705.6 36971.3 lineto
59705.6 37561.9 lineto
59193.8 37561.9 lineto
59193.8 36971.3 lineto
poly1
0 0 0 setrgbcolor
newpath
59193.8 38034.3 moveto
59705.6 38034.3 lineto
59705.6 38624.9 lineto
59193.8 38624.9 lineto
59193.8 38034.3 lineto
poly1
0 0 0 setrgbcolor
newpath
59370.9 44166.2 moveto
59193.8 44166.2 lineto
59193.8 43595.4 lineto
59370.9 43595.4 lineto
59370.9 44166.2 lineto
poly1
0 0 0 setrgbcolor
newpath
59626.9 44166.2 moveto
59449.7 44166.2 lineto
59449.7 43595.4 lineto
59626.9 43595.4 lineto
59626.9 44166.2 lineto
poly1
0 0 0 setrgbcolor
newpath
59882.8 44166.2 moveto
59705.6 44166.2 lineto
59705.6 43595.4 lineto
59882.8 43595.4 lineto
59882.8 44166.2 lineto
poly1
0 0 0 setrgbcolor
newpath
60138.7 44166.2 moveto
59961.5 44166.2 lineto
59961.5 43595.4 lineto
60138.7 43595.4 lineto
60138.7 44166.2 lineto
poly1
0 0 0 setrgbcolor
newpath
60394.6 44166.2 moveto
60217.4 44166.2 lineto
60217.4 43595.4 lineto
60394.6 43595.4 lineto
60394.6 44166.2 lineto
poly1
0 0 0 setrgbcolor
newpath
60650.5 44166.2 moveto
60473.3 44166.2 lineto
60473.3 43595.4 lineto
60650.5 43595.4 lineto
60650.5 44166.2 lineto
poly1
0 0 0 setrgbcolor
newpath
60906.4 44166.2 moveto
60729.2 44166.2 lineto
60729.2 43595.4 lineto
60906.4 43595.4 lineto
60906.4 44166.2 lineto
poly1
0 0 0 setrgbcolor
newpath
61162.3 44166.2 moveto
60985.1 44166.2 lineto
60985.1 43595.4 lineto
61162.3 43595.4 lineto
61162.3 44166.2 lineto
poly1
0 0 0 setrgbcolor
newpath
61418.2 44166.2 moveto
61241 44166.2 lineto
61241 43595.4 lineto
61418.2 43595.4 lineto
61418.2 44166.2 lineto
poly1
0 0 0 setrgbcolor
newpath
61674.1 44166.2 moveto
61496.9 44166.2 lineto
61496.9 43595.4 lineto
61674.1 43595.4 lineto
61674.1 44166.2 lineto
poly1
0 0 0 setrgbcolor
newpath
61674.1 41843.4 moveto
61496.9 41843.4 lineto
61496.9 41272.5 lineto
61674.1 41272.5 lineto
61674.1 41843.4 lineto
poly1
0 0 0 setrgbcolor
newpath
61418.2 41843.4 moveto
61241 41843.4 lineto
61241 41272.5 lineto
61418.2 41272.5 lineto
61418.2 41843.4 lineto
poly1
0 0 0 setrgbcolor
newpath
61162.3 41843.4 moveto
60985.1 41843.4 lineto
60985.1 41272.5 lineto
61162.3 41272.5 lineto
61162.3 41843.4 lineto
poly1
0 0 0 setrgbcolor
newpath
60906.4 41843.4 moveto
60729.2 41843.4 lineto
60729.2 41272.5 lineto
60906.4 41272.5 lineto
60906.4 41843.4 lineto
poly1
0 0 0 setrgbcolor
newpath
60650.5 41843.4 moveto
60473.3 41843.4 lineto
60473.3 41272.5 lineto
60650.5 41272.5 lineto
60650.5 41843.4 lineto
poly1
0 0 0 setrgbcolor
newpath
60394.6 41843.4 moveto
60217.4 41843.4 lineto
60217.4 41272.5 lineto
60394.6 41272.5 lineto
60394.6 41843.4 lineto
poly1
0 0 0 setrgbcolor
newpath
60138.7 41843.4 moveto
59961.5 41843.4 lineto
59961.5 41272.5 lineto
60138.7 41272.5 lineto
60138.7 41843.4 lineto
poly1
0 0 0 setrgbcolor
newpath
59882.8 41843.4 moveto
59705.6 41843.4 lineto
59705.6 41272.5 lineto
59882.8 41272.5 lineto
59882.8 41843.4 lineto
poly1
0 0 0 setrgbcolor
newpath
59626.9 41843.4 moveto
59449.7 41843.4 lineto
59449.7 41272.5 lineto
59626.9 41272.5 lineto
59626.9 41843.4 lineto
poly1
0 0 0 setrgbcolor
newpath
59370.9 41843.4 moveto
59193.8 41843.4 lineto
59193.8 41272.5 lineto
59370.9 41272.5 lineto
59370.9 41843.4 lineto
poly1
0 0 0 setrgbcolor
newpath
61394.5 39266.9 moveto
61394.5 38951.9 lineto
61709.5 38951.9 lineto
61709.5 39266.9 lineto
61394.5 39266.9 lineto
poly1
0 0 0 setrgbcolor
newpath
62142.6 39266.9 moveto
62142.6 38951.9 lineto
62457.6 38951.9 lineto
62457.6 39266.9 lineto
62142.6 39266.9 lineto
poly1
0 0 0 setrgbcolor
newpath
61768.6 38479.9 moveto
61768.6 38164.9 lineto
62083.6 38164.9 lineto
62083.6 38479.9 lineto
61768.6 38479.9 lineto
poly1
0 0 0 setrgbcolor
newpath
57032.3 47845.3 moveto
57347.3 47845.3 lineto
57347.3 48160.3 lineto
57032.3 48160.3 lineto
57032.3 47845.3 lineto
poly1
0 0 0 setrgbcolor
newpath
57032.3 48475.3 moveto
57347.3 48475.3 lineto
57347.3 48790.3 lineto
57032.3 48790.3 lineto
57032.3 48475.3 lineto
poly1
0 0 0 setrgbcolor
newpath
63485.1 41164.3 moveto
63485.1 40731.2 lineto
64075.7 40731.2 lineto
64075.7 41164.3 lineto
63485.1 41164.3 lineto
poly1
0 0 0 setrgbcolor
433.071 setlinewidth
newpath
63701.7 41447.7 moveto
63859.1 41447.7 lineto
stroke
0 0 0 setrgbcolor
newpath
63701.7 41947.7 moveto
63859.1 41947.7 lineto
stroke
0 0 0 setrgbcolor
newpath
63701.7 42447.7 moveto
63859.1 42447.7 lineto
stroke
0 0 0 setrgbcolor
newpath
63701.7 42947.7 moveto
63859.1 42947.7 lineto
stroke
0 0 0 setrgbcolor
newpath
63701.7 43447.7 moveto
63859.1 43447.7 lineto
stroke
0 0 0 setrgbcolor
newpath
63701.7 43947.7 moveto
63859.1 43947.7 lineto
stroke
0 0 0 setrgbcolor
newpath
63701.7 44447.7 moveto
63859.1 44447.7 lineto
stroke
0 0 0 setrgbcolor
0 setlinewidth
newpath
61668.7 46256.4 moveto
62348.7 46256.4 lineto
62348.7 47056.4 lineto
61668.7 47056.4 lineto
61668.7 46256.4 lineto
poly1
0 0 0 setrgbcolor
680 setlinewidth
newpath
61008.7 46596.4 moveto
61008.7 46716.4 lineto
stroke
0 0 0 setrgbcolor
newpath
60008.7 46596.4 moveto
60008.7 46716.4 lineto
stroke
0 0 0 setrgbcolor
newpath
59008.7 46596.4 moveto
59008.7 46716.4 lineto
stroke
0 0 0 setrgbcolor
0 setlinewidth
newpath
55099.3 40987.1 moveto
55099.3 40042.2 lineto
55689.8 40042.2 lineto
55689.8 40987.1 lineto
55099.3 40987.1 lineto
poly1
0 0 0 setrgbcolor
newpath
55099.3 42916.2 moveto
55099.3 42483.1 lineto
55335.5 42483.1 lineto
55335.5 42916.2 lineto
55099.3 42916.2 lineto
poly1
0 0 0 setrgbcolor
newpath
55453.6 42916.2 moveto
55453.6 42483.1 lineto
55689.8 42483.1 lineto
55689.8 42916.2 lineto
55453.6 42916.2 lineto
poly1
0 0 0 setrgbcolor
newpath
54124.9 41735.1 moveto
54617 41735.1 lineto
54617 42325.7 lineto
54124.9 42325.7 lineto
54124.9 41735.1 lineto
poly1
0 0 0 setrgbcolor
newpath
54124.9 42719.4 moveto
54617 42719.4 lineto
54617 43309.9 lineto
54124.9 43309.9 lineto
54124.9 42719.4 lineto
poly1
0 0 0 setrgbcolor
newpath
56546.1 42916.2 moveto
56054 42916.2 lineto
56054 42325.7 lineto
56546.1 42325.7 lineto
56546.1 42916.2 lineto
poly1
0 0 0 setrgbcolor
newpath
56546.1 41932 moveto
56054 41932 lineto
56054 41341.4 lineto
56546.1 41341.4 lineto
56546.1 41932 lineto
poly1
0 0 0 setrgbcolor
newpath
55483.1 43701.7 moveto
55483.1 43465.4 lineto
56093.4 43465.4 lineto
56093.4 43701.7 lineto
55483.1 43701.7 lineto
poly1
0 0 0 setrgbcolor
newpath
55483.1 44201.7 moveto
55483.1 43965.4 lineto
56093.4 43965.4 lineto
56093.4 44201.7 lineto
55483.1 44201.7 lineto
poly1
0 0 0 setrgbcolor
newpath
55483.1 44701.7 moveto
55483.1 44465.4 lineto
56093.4 44465.4 lineto
56093.4 44701.7 lineto
55483.1 44701.7 lineto
poly1
0 0 0 setrgbcolor
newpath
55483.1 45201.7 moveto
55483.1 44965.4 lineto
56093.4 44965.4 lineto
56093.4 45201.7 lineto
55483.1 45201.7 lineto
poly1
0 0 0 setrgbcolor
newpath
57609.1 45201.7 moveto
57609.1 44965.4 lineto
58219.4 44965.4 lineto
58219.4 45201.7 lineto
57609.1 45201.7 lineto
poly1
0 0 0 setrgbcolor
newpath
57609.1 44701.7 moveto
57609.1 44465.4 lineto
58219.4 44465.4 lineto
58219.4 44701.7 lineto
57609.1 44701.7 lineto
poly1
0 0 0 setrgbcolor
newpath
57609.1 44201.7 moveto
57609.1 43965.4 lineto
58219.4 43965.4 lineto
58219.4 44201.7 lineto
57609.1 44201.7 lineto
poly1
0 0 0 setrgbcolor
newpath
57609.1 43701.7 moveto
57609.1 43465.4 lineto
58219.4 43465.4 lineto
58219.4 43701.7 lineto
57609.1 43701.7 lineto
poly1
0 0 0 setrgbcolor
53150.5 39428 450.787 cir1
39.3701 setlinewidth
0 0 0 setrgbcolor
0 setlinewidth
53150.5 47345.4 450.787 cir1
39.3701 setlinewidth
0 0 0 setrgbcolor
0 setlinewidth
newpath
56164.4 46370.8 moveto
56526.3 46008.9 lineto
56943.9 46426.5 lineto
56582 46788.4 lineto
56164.4 46370.8 lineto
poly1
0 0 0 setrgbcolor
newpath
56916.1 47122.5 moveto
57278 46760.6 lineto
57695.6 47178.2 lineto
57333.7 47540.1 lineto
56916.1 47122.5 lineto
poly1
0 0 0 setrgbcolor
newpath
68918.5 42817.2 moveto
69469.5 42817.2 lineto
69469.5 43644.2 lineto
68918.5 43644.2 lineto
68918.5 42817.2 lineto
poly1
0 0 0 setrgbcolor
newpath
67146.5 42817.2 moveto
67697.5 42817.2 lineto
67697.5 43644.2 lineto
67146.5 43644.2 lineto
67146.5 42817.2 lineto
poly1
0 0 0 setrgbcolor
newpath
67146.5 46125.2 moveto
67697.5 46125.2 lineto
67697.5 46952.2 lineto
67146.5 46952.2 lineto
67146.5 46125.2 lineto
poly1
0 0 0 setrgbcolor
newpath
68918.5 46125.2 moveto
69469.5 46125.2 lineto
69469.5 46952.2 lineto
68918.5 46952.2 lineto
68918.5 46125.2 lineto
poly1
0 0 0 setrgbcolor
newpath
68918.5 37305.4 moveto
69469.5 37305.4 lineto
69469.5 38132.4 lineto
68918.5 38132.4 lineto
68918.5 37305.4 lineto
poly1
0 0 0 setrgbcolor
newpath
67146.5 37305.4 moveto
67697.5 37305.4 lineto
67697.5 38132.4 lineto
67146.5 38132.4 lineto
67146.5 37305.4 lineto
poly1
0 0 0 setrgbcolor
newpath
67146.5 40613.4 moveto
67697.5 40613.4 lineto
67697.5 41440.4 lineto
67146.5 41440.4 lineto
67146.5 40613.4 lineto
poly1
0 0 0 setrgbcolor
newpath
68918.5 40613.4 moveto
69469.5 40613.4 lineto
69469.5 41440.4 lineto
68918.5 41440.4 lineto
68918.5 40613.4 lineto
poly1
0 0 0 setrgbcolor
newpath
60355.2 35465.4 moveto
60512.7 35465.4 lineto
60512.7 36115 lineto
60355.2 36115 lineto
60355.2 35465.4 lineto
poly1
0 0 0 setrgbcolor
newpath
60099.3 35465.4 moveto
60256.8 35465.4 lineto
60256.8 36115 lineto
60099.3 36115 lineto
60099.3 35465.4 lineto
poly1
0 0 0 setrgbcolor
newpath
59843.7 35465.4 moveto
60001.2 35465.4 lineto
60001.2 36115 lineto
59843.7 36115 lineto
59843.7 35465.4 lineto
poly1
0 0 0 setrgbcolor
newpath
59587.5 35465.4 moveto
59745 35465.4 lineto
59745 36115 lineto
59587.5 36115 lineto
59587.5 35465.4 lineto
poly1
0 0 0 setrgbcolor
newpath
59331.6 35465.4 moveto
59489.1 35465.4 lineto
59489.1 36115 lineto
59331.6 36115 lineto
59331.6 35465.4 lineto
poly1
0 0 0 setrgbcolor
433.071 setlinewidth
newpath
60876.9 35760.7 moveto
60876.9 35918.2 lineto
stroke
0 0 0 setrgbcolor
newpath
58967.4 35760.7 moveto
58967.4 35918.2 lineto
stroke
0 0 0 setrgbcolor
472.441 setlinewidth
newpath
60995 34559.9 moveto
60995 34756.8 lineto
stroke
0 0 0 setrgbcolor
newpath
58849.3 34559.9 moveto
58849.3 34756.8 lineto
stroke
0 0 0 setrgbcolor
0 setlinewidth
newpath
60020.6 34067.8 moveto
60581.6 34067.8 lineto
60581.6 35052 lineto
60020.6 35052 lineto
60020.6 34067.8 lineto
poly1
0 0 0 setrgbcolor
newpath
59262.7 34067.8 moveto
59823.7 34067.8 lineto
59823.7 35052 lineto
59262.7 35052 lineto
59262.7 34067.8 lineto
poly1
0 0 0 setrgbcolor
58189.8 45672.1 275.591 cir1
39.3701 setlinewidth
0 0 0 setrgbcolor
0 setlinewidth
60394.6 45672.1 275.591 cir1
39.3701 setlinewidth
0 0 0 setrgbcolor
0 setlinewidth
62796.1 38388.7 275.591 cir1
39.3701 setlinewidth
0 0 0 setrgbcolor
0 setlinewidth
62894.6 45967.4 275.591 cir1
39.3701 setlinewidth
0 0 0 setrgbcolor
0 setlinewidth
62205.6 45967.4 275.591 cir1
39.3701 setlinewidth
0 0 0 setrgbcolor
0 setlinewidth
62796.1 44589.4 275.591 cir1
39.3701 setlinewidth
0 0 0 setrgbcolor
0 setlinewidth
62993 42443.8 275.591 cir1
39.3701 setlinewidth
0 0 0 setrgbcolor
0 setlinewidth
62894.6 40947.7 275.591 cir1
39.3701 setlinewidth
0 0 0 setrgbcolor
157.48 setlinewidth
newpath
60995 34658.3 moveto
58849.3 34658.3 lineto
stroke
0 0 0 setrgbcolor
newpath
60301.1 34559.9 moveto
60301.1 35278.4 lineto
stroke
0 0 0 setrgbcolor
newpath
60237.1 35199.7 moveto
60237.1 35278.4 lineto
stroke
0 0 0 setrgbcolor
newpath
60237.1 35214.4 moveto
60237.1 35199.7 lineto
stroke
0 0 0 setrgbcolor
newpath
60301.1 35278.4 moveto
60237.1 35214.4 lineto
stroke
0 0 0 setrgbcolor
newpath
59528.4 35278.4 moveto
59528.4 34574.7 lineto
stroke
0 0 0 setrgbcolor
newpath
59528.4 34574.7 moveto
59543.2 34559.9 lineto
stroke
0 0 0 setrgbcolor
newpath
59410.3 35790.2 moveto
59410.3 36341.4 lineto
stroke
0 0 0 setrgbcolor
newpath
59410.3 36341.4 moveto
59292.2 36459.5 lineto
stroke
0 0 0 setrgbcolor
newpath
59666.2 35790.2 moveto
59666.2 36085.5 lineto
stroke
0 0 0 setrgbcolor
newpath
59666.2 36085.5 moveto
59292.2 36459.5 lineto
stroke
0 0 0 setrgbcolor
newpath
58967.4 36390.6 moveto
58967.4 35839.4 lineto
stroke
0 0 0 setrgbcolor
newpath
59292.2 36459.5 moveto
58898.5 36459.5 lineto
stroke
0 0 0 setrgbcolor
newpath
58898.5 36459.5 moveto
58967.4 36390.6 lineto
stroke
0 0 0 setrgbcolor
newpath
58849.3 34658.3 moveto
58849.3 35071.7 lineto
stroke
0 0 0 setrgbcolor
newpath
58849.3 35071.7 moveto
59056 35278.4 lineto
stroke
0 0 0 setrgbcolor
newpath
59056 35278.4 moveto
59528.4 35278.4 lineto
stroke
0 0 0 setrgbcolor
newpath
60995 35150.5 moveto
60995 34658.3 lineto
stroke
0 0 0 setrgbcolor
newpath
60867 35278.4 moveto
60995 35150.5 lineto
stroke
0 0 0 setrgbcolor
newpath
59528.4 35278.4 moveto
60237.1 35278.4 lineto
stroke
0 0 0 setrgbcolor
newpath
60237.1 35278.4 moveto
60867 35278.4 lineto
stroke
0 0 0 setrgbcolor
98.4252 setlinewidth
newpath
59666.2 35790.2 moveto
59666.2 34683 lineto
stroke
0 0 0 setrgbcolor
newpath
59666.2 34683 moveto
59543.2 34559.9 lineto
stroke
0 0 0 setrgbcolor
newpath
59410.3 35790.2 moveto
59410.3 34692.8 lineto
stroke
0 0 0 setrgbcolor
newpath
59410.3 34692.8 moveto
59543.2 34559.9 lineto
stroke
0 0 0 setrgbcolor
newpath
59666.2 35790.2 moveto
59410.3 35790.2 lineto
stroke
0 0 0 setrgbcolor
newpath
61008.7 46656.4 moveto
61008.7 46286.3 lineto
stroke
0 0 0 setrgbcolor
newpath
61008.7 46286.3 moveto
60394.6 45672.1 lineto
stroke
0 0 0 setrgbcolor
157.48 setlinewidth
newpath
60561.9 41558 moveto
60561.9 40985.1 lineto
stroke
0 0 0 setrgbcolor
newpath
61449.7 40097.3 moveto
61449.7 39211.8 lineto
stroke
0 0 0 setrgbcolor
newpath
60561.9 40985.1 moveto
61449.7 40097.3 lineto
stroke
0 0 0 setrgbcolor
newpath
61449.7 39211.8 moveto
61552 39109.4 lineto
stroke
0 0 0 setrgbcolor
newpath
61552 39109.4 moveto
61552 38790.2 lineto
stroke
0 0 0 setrgbcolor
newpath
62300.1 38687.9 moveto
62319.8 38668.2 lineto
stroke
0 0 0 setrgbcolor
newpath
61654.4 38687.9 moveto
62300.1 38687.9 lineto
stroke
0 0 0 setrgbcolor
newpath
61552 38790.2 moveto
61654.4 38687.9 lineto
stroke
0 0 0 setrgbcolor
newpath
61008.7 46656.4 moveto
61008.7 46266.6 lineto
stroke
0 0 0 setrgbcolor
newpath
60561.9 41558 moveto
60561.9 41115 lineto
stroke
0 0 0 setrgbcolor
newpath
60561.9 41115 moveto
60571.7 41105.2 lineto
stroke
0 0 0 setrgbcolor
236.22 setlinewidth
newpath
55788.3 44583.5 moveto
54632.8 44583.5 lineto
stroke
0 0 0 setrgbcolor
newpath
53150.5 46065.8 moveto
53150.5 47640.6 lineto
stroke
0 0 0 setrgbcolor
newpath
54632.8 44583.5 moveto
53150.5 46065.8 lineto
stroke
0 0 0 setrgbcolor
216.535 setlinewidth
newpath
62687.9 46065.8 moveto
62796.1 46065.8 lineto
stroke
0 0 0 setrgbcolor
newpath
62894.6 38487.1 moveto
62894.6 38514.9 lineto
stroke
0 0 0 setrgbcolor
newpath
62908.5 38501 moveto
62894.6 38487.1 lineto
stroke
0 0 0 setrgbcolor
newpath
62796.1 38388.7 moveto
62908.5 38501 lineto
stroke
0 0 0 setrgbcolor
newpath
62796.1 46065.8 moveto
62894.6 45967.4 lineto
stroke
0 0 0 setrgbcolor
newpath
63780.4 43947.7 moveto
63437.9 43947.7 lineto
stroke
0 0 0 setrgbcolor
newpath
62107.2 46065.8 moveto
62028.4 46065.8 lineto
stroke
0 0 0 setrgbcolor
newpath
62205.6 45967.4 moveto
62107.2 46065.8 lineto
stroke
0 0 0 setrgbcolor
newpath
63437.9 43947.7 moveto
62796.1 44589.4 lineto
stroke
0 0 0 setrgbcolor
236.22 setlinewidth
newpath
57914.3 43583.5 moveto
58152.4 43583.5 lineto
stroke
0 0 0 setrgbcolor
newpath
58152.4 43583.5 moveto
58268.6 43467.4 lineto
stroke
0 0 0 setrgbcolor
newpath
58268.6 43467.4 moveto
58268.6 43191.8 lineto
stroke
0 0 0 setrgbcolor
newpath
58268.6 43191.8 moveto
58829.6 42630.8 lineto
stroke
0 0 0 setrgbcolor
newpath
58829.6 42630.8 moveto
58829.6 42552 lineto
stroke
0 0 0 setrgbcolor
newpath
58829.6 42552 moveto
58258.7 41981.2 lineto
stroke
0 0 0 setrgbcolor
newpath
60748.9 47896.5 moveto
60748.9 49223.3 lineto
stroke
0 0 0 setrgbcolor
newpath
60748.9 49223.3 moveto
60363.1 49609.1 lineto
stroke
0 0 0 setrgbcolor
newpath
58737.1 49609.1 moveto
58087.5 48959.5 lineto
stroke
0 0 0 setrgbcolor
newpath
60363.1 49609.1 moveto
58737.1 49609.1 lineto
stroke
0 0 0 setrgbcolor
newpath
62687.9 46065.8 moveto
62028.4 46065.8 lineto
stroke
0 0 0 setrgbcolor
newpath
62028.4 46065.8 moveto
62008.7 46046.1 lineto
stroke
0 0 0 setrgbcolor
newpath
60748.9 47896.5 moveto
61654.4 47896.5 lineto
stroke
0 0 0 setrgbcolor
newpath
61654.4 47896.5 moveto
62008.7 47542.2 lineto
stroke
0 0 0 setrgbcolor
newpath
62008.7 47542.2 moveto
62008.7 46656.4 lineto
stroke
0 0 0 setrgbcolor
newpath
63209.5 46676.1 moveto
62028.4 46676.1 lineto
stroke
0 0 0 setrgbcolor
newpath
62028.4 46676.1 moveto
62008.7 46656.4 lineto
stroke
0 0 0 setrgbcolor
newpath
63495 37591.4 moveto
63495 37914.6 lineto
stroke
0 0 0 setrgbcolor
newpath
63495 37914.6 moveto
62894.6 38514.9 lineto
stroke
0 0 0 setrgbcolor
newpath
62894.6 38514.9 moveto
62300.1 39109.4 lineto
stroke
0 0 0 setrgbcolor
157.48 setlinewidth
newpath
59016.6 42630.8 moveto
58829.6 42630.8 lineto
stroke
0 0 0 setrgbcolor
newpath
58268.6 43467.4 moveto
58152.4 43583.5 lineto
stroke
0 0 0 setrgbcolor
newpath
58268.6 43191.8 moveto
58268.6 43467.4 lineto
stroke
0 0 0 setrgbcolor
newpath
58829.6 42630.8 moveto
58268.6 43191.8 lineto
stroke
0 0 0 setrgbcolor
newpath
60748.9 48880.8 moveto
60748.9 49223.3 lineto
stroke
0 0 0 setrgbcolor
newpath
58741 49613.1 moveto
58087.5 48959.5 lineto
stroke
0 0 0 setrgbcolor
newpath
60748.9 49223.3 moveto
60359.1 49613.1 lineto
stroke
0 0 0 setrgbcolor
newpath
60359.1 49613.1 moveto
58741 49613.1 lineto
stroke
0 0 0 setrgbcolor
newpath
64971.3 43506.8 moveto
64794.2 43506.8 lineto
stroke
0 0 0 setrgbcolor
newpath
64794.2 43506.8 moveto
64353.2 43947.7 lineto
stroke
0 0 0 setrgbcolor
newpath
64353.2 43947.7 moveto
63780.4 43947.7 lineto
stroke
0 0 0 setrgbcolor
newpath
58258.7 41981.2 moveto
58258.7 42050.1 lineto
stroke
0 0 0 setrgbcolor
newpath
58258.7 42050.1 moveto
58839.4 42630.8 lineto
stroke
0 0 0 setrgbcolor
newpath
58839.4 42630.8 moveto
59016.6 42630.8 lineto
stroke
0 0 0 setrgbcolor
newpath
59016.6 42630.8 moveto
60306 42630.8 lineto
stroke
0 0 0 setrgbcolor
newpath
63495 37591.4 moveto
63495 38024.5 lineto
stroke
0 0 0 setrgbcolor
newpath
63495 38024.5 moveto
62815.8 38703.6 lineto
stroke
0 0 0 setrgbcolor
newpath
62410 39109.4 moveto
62815.8 38703.6 lineto
stroke
0 0 0 setrgbcolor
newpath
62668.2 46046.1 moveto
62254.8 46046.1 lineto
stroke
0 0 0 setrgbcolor
newpath
62254.8 46046.1 moveto
62008.7 46046.1 lineto
stroke
0 0 0 setrgbcolor
newpath
62687.9 46065.8 moveto
62668.2 46046.1 lineto
stroke
0 0 0 setrgbcolor
newpath
62300.1 39109.4 moveto
62410 39109.4 lineto
stroke
0 0 0 setrgbcolor
newpath
62008.7 46656.4 moveto
63189.8 46656.4 lineto
stroke
0 0 0 setrgbcolor
newpath
63189.8 46656.4 moveto
63209.5 46676.1 lineto
stroke
0 0 0 setrgbcolor
newpath
60306 43880.8 moveto
60306 44815.8 lineto
stroke
0 0 0 setrgbcolor
newpath
61752.8 45790.2 moveto
62008.7 46046.1 lineto
stroke
0 0 0 setrgbcolor
newpath
61280.4 45790.2 moveto
61752.8 45790.2 lineto
stroke
0 0 0 setrgbcolor
newpath
60306 44815.8 moveto
61280.4 45790.2 lineto
stroke
0 0 0 setrgbcolor
newpath
62008.7 46046.1 moveto
62008.7 46656.4 lineto
stroke
0 0 0 setrgbcolor
newpath
60748.9 48880.8 moveto
60748.9 47896.5 lineto
stroke
0 0 0 setrgbcolor
newpath
60748.9 47896.5 moveto
60768.6 47916.2 lineto
stroke
0 0 0 setrgbcolor
newpath
60768.6 47916.2 moveto
61634.7 47916.2 lineto
stroke
0 0 0 setrgbcolor
newpath
61634.7 47916.2 moveto
62008.7 47542.2 lineto
stroke
0 0 0 setrgbcolor
newpath
62008.7 47542.2 moveto
62008.7 46656.4 lineto
stroke
0 0 0 setrgbcolor
newpath
60306 43880.8 moveto
60306 42630.8 lineto
stroke
0 0 0 setrgbcolor
newpath
60306 42630.8 moveto
60306 41558 lineto
stroke
0 0 0 setrgbcolor
236.22 setlinewidth
newpath
61611.1 36983.1 moveto
60867 36983.1 lineto
stroke
0 0 0 setrgbcolor
newpath
60867 36983.1 moveto
61024.5 36983.1 lineto
stroke
0 0 0 setrgbcolor
157.48 setlinewidth
newpath
60867 38821.7 moveto
60867 36825.7 lineto
stroke
0 0 0 setrgbcolor
newpath
61024.5 36983.1 moveto
61611.1 36983.1 lineto
stroke
0 0 0 setrgbcolor
newpath
60418.5 35744 moveto
60418.5 36377.2 lineto
stroke
0 0 0 setrgbcolor
newpath
60418.5 36377.2 moveto
60867 36825.7 lineto
stroke
0 0 0 setrgbcolor
newpath
60867 36825.7 moveto
61024.5 36983.1 lineto
stroke
0 0 0 setrgbcolor
236.22 setlinewidth
newpath
61926.1 37298.1 moveto
61611.1 36983.1 lineto
stroke
0 0 0 setrgbcolor
157.48 setlinewidth
newpath
60847.3 38841.4 moveto
60867 38821.7 lineto
stroke
0 0 0 setrgbcolor
newpath
61611.1 36983.1 moveto
61926.1 37298.1 lineto
stroke
0 0 0 setrgbcolor
236.22 setlinewidth
newpath
60867 36983.1 moveto
60867 39195.7 lineto
stroke
0 0 0 setrgbcolor
newpath
60867 39195.7 moveto
60847.3 39215.4 lineto
stroke
0 0 0 setrgbcolor
newpath
62668.2 37591.4 moveto
61932 37591.4 lineto
stroke
0 0 0 setrgbcolor
newpath
61932 37591.4 moveto
61926.1 37585.5 lineto
stroke
0 0 0 setrgbcolor
newpath
61926.1 37585.5 moveto
61926.1 37298.1 lineto
stroke
0 0 0 setrgbcolor
newpath
61926.1 38322.4 moveto
61926.1 37597.3 lineto
stroke
0 0 0 setrgbcolor
newpath
61926.1 37597.3 moveto
61932 37591.4 lineto
stroke
0 0 0 setrgbcolor
157.48 setlinewidth
newpath
60847.3 39215.4 moveto
60847.3 38841.4 lineto
stroke
0 0 0 setrgbcolor
newpath
62668.2 37591.4 moveto
62028.4 37591.4 lineto
stroke
0 0 0 setrgbcolor
newpath
62028.4 37591.4 moveto
61926.1 37693.8 lineto
stroke
0 0 0 setrgbcolor
newpath
61926.1 37298.1 moveto
61926.1 37693.8 lineto
stroke
0 0 0 setrgbcolor
newpath
61926.1 37693.8 moveto
61926.1 38322.4 lineto
stroke
0 0 0 setrgbcolor
98.4252 setlinewidth
newpath
57189.8 48002.8 moveto
57189.8 47530.4 lineto
stroke
0 0 0 setrgbcolor
newpath
57189.8 47530.4 moveto
57305.8 47414.4 lineto
stroke
0 0 0 setrgbcolor
newpath
57305.8 47414.4 moveto
57305.8 47150.3 lineto
stroke
0 0 0 setrgbcolor
newpath
57855.2 46853.2 moveto
57855.2 46865 lineto
stroke
0 0 0 setrgbcolor
newpath
57855.2 46865 moveto
57189.8 47530.4 lineto
stroke
0 0 0 setrgbcolor
157.48 setlinewidth
newpath
57189.8 47530.4 moveto
57189.8 48002.8 lineto
stroke
0 0 0 setrgbcolor
newpath
59282.4 43880.8 moveto
59282.4 45437.9 lineto
stroke
0 0 0 setrgbcolor
newpath
59282.4 45437.9 moveto
57189.8 47530.4 lineto
stroke
0 0 0 setrgbcolor
236.22 setlinewidth
newpath
57189.8 48632.8 moveto
57351.2 48632.8 lineto
stroke
0 0 0 setrgbcolor
newpath
57351.2 48632.8 moveto
58087.5 47896.5 lineto
stroke
0 0 0 setrgbcolor
157.48 setlinewidth
newpath
57351.2 48632.8 moveto
58087.5 47896.5 lineto
stroke
0 0 0 setrgbcolor
newpath
59538.3 41558 moveto
59538.3 40327.6 lineto
stroke
0 0 0 setrgbcolor
newpath
59134.7 39215.4 moveto
58473.3 38554 lineto
stroke
0 0 0 setrgbcolor
newpath
59134.7 39924.1 moveto
59134.7 39215.4 lineto
stroke
0 0 0 setrgbcolor
newpath
59538.3 40327.6 moveto
59134.7 39924.1 lineto
stroke
0 0 0 setrgbcolor
newpath
58473.3 38554 moveto
58111.1 38554 lineto
stroke
0 0 0 setrgbcolor
newpath
60817.8 41558 moveto
60817.8 41166.2 lineto
stroke
0 0 0 setrgbcolor
newpath
63516.6 40054 moveto
64083.5 39487.1 lineto
stroke
0 0 0 setrgbcolor
newpath
62248.9 40054 moveto
63516.6 40054 lineto
stroke
0 0 0 setrgbcolor
newpath
61367 40935.9 moveto
62248.9 40054 lineto
stroke
0 0 0 setrgbcolor
newpath
61048.1 40935.9 moveto
61367 40935.9 lineto
stroke
0 0 0 setrgbcolor
newpath
60817.8 41166.2 moveto
61048.1 40935.9 lineto
stroke
0 0 0 setrgbcolor
newpath
59794.2 43880.8 moveto
59794.2 43221.3 lineto
stroke
0 0 0 setrgbcolor
newpath
58412.3 44583.5 moveto
57914.3 44583.5 lineto
stroke
0 0 0 setrgbcolor
newpath
58583.5 44412.3 moveto
58412.3 44583.5 lineto
stroke
0 0 0 setrgbcolor
newpath
58583.5 43349.3 moveto
58583.5 44412.3 lineto
stroke
0 0 0 setrgbcolor
newpath
58859.1 43073.7 moveto
58583.5 43349.3 lineto
stroke
0 0 0 setrgbcolor
newpath
59646.5 43073.7 moveto
58859.1 43073.7 lineto
stroke
0 0 0 setrgbcolor
newpath
59794.2 43221.3 moveto
59646.5 43073.7 lineto
stroke
0 0 0 setrgbcolor
newpath
59685.9 47896.5 moveto
59685.9 46979.2 lineto
stroke
0 0 0 setrgbcolor
newpath
59685.9 46979.2 moveto
60008.7 46656.4 lineto
stroke
0 0 0 setrgbcolor
newpath
59794.2 43880.8 moveto
59794.2 45819.8 lineto
stroke
0 0 0 setrgbcolor
newpath
60008.7 46034.3 moveto
60008.7 46656.4 lineto
stroke
0 0 0 setrgbcolor
newpath
59794.2 45819.8 moveto
60008.7 46034.3 lineto
stroke
0 0 0 setrgbcolor
newpath
59538.3 43880.8 moveto
59538.3 43437.9 lineto
stroke
0 0 0 setrgbcolor
newpath
58502.8 45083.5 moveto
57914.3 45083.5 lineto
stroke
0 0 0 setrgbcolor
newpath
58859.1 44727.2 moveto
58502.8 45083.5 lineto
stroke
0 0 0 setrgbcolor
newpath
58859.1 43546.1 moveto
58859.1 44727.2 lineto
stroke
0 0 0 setrgbcolor
newpath
59056 43349.3 moveto
58859.1 43546.1 lineto
stroke
0 0 0 setrgbcolor
newpath
59449.7 43349.3 moveto
59056 43349.3 lineto
stroke
0 0 0 setrgbcolor
newpath
59538.3 43437.9 moveto
59449.7 43349.3 lineto
stroke
0 0 0 setrgbcolor
newpath
59008.7 46656.4 moveto
59008.7 48715.4 lineto
stroke
0 0 0 setrgbcolor
newpath
59174.1 48880.8 moveto
59685.9 48880.8 lineto
stroke
0 0 0 setrgbcolor
newpath
59008.7 48715.4 moveto
59174.1 48880.8 lineto
stroke
0 0 0 setrgbcolor
newpath
59538.3 43880.8 moveto
59538.3 45780.4 lineto
stroke
0 0 0 setrgbcolor
newpath
59538.3 45780.4 moveto
59008.7 46309.9 lineto
stroke
0 0 0 setrgbcolor
newpath
59008.7 46309.9 moveto
59008.7 46656.4 lineto
stroke
0 0 0 setrgbcolor
newpath
60162.6 35744 moveto
60162.6 36542.6 lineto
stroke
0 0 0 setrgbcolor
newpath
60335.5 36715.4 moveto
60335.5 37266.6 lineto
stroke
0 0 0 setrgbcolor
newpath
60162.6 36542.6 moveto
60335.5 36715.4 lineto
stroke
0 0 0 setrgbcolor
newpath
59906.7 35744 moveto
59906.7 36238.7 lineto
stroke
0 0 0 setrgbcolor
newpath
59449.7 36695.7 moveto
59449.7 37266.6 lineto
stroke
0 0 0 setrgbcolor
newpath
59906.7 36238.7 moveto
59449.7 36695.7 lineto
stroke
0 0 0 setrgbcolor
236.22 setlinewidth
newpath
67520.6 40711.5 moveto
67520.6 38034.3 lineto
stroke
0 0 0 setrgbcolor
newpath
67520.6 40711.5 moveto
67520.6 41833.5 lineto
stroke
0 0 0 setrgbcolor
newpath
67520.6 41833.5 moveto
66733.1 42620.9 lineto
stroke
0 0 0 setrgbcolor
newpath
66733.1 42620.9 moveto
66733.1 45081.6 lineto
stroke
0 0 0 setrgbcolor
newpath
66733.1 45081.6 moveto
66063.9 45750.9 lineto
stroke
0 0 0 setrgbcolor
newpath
66063.9 45750.9 moveto
64351.3 45750.9 lineto
stroke
0 0 0 setrgbcolor
newpath
64351.3 45750.9 moveto
63780.4 45180 lineto
stroke
0 0 0 setrgbcolor
157.48 setlinewidth
newpath
60817.8 43880.8 moveto
60817.8 44382.8 lineto
stroke
0 0 0 setrgbcolor
newpath
60817.8 44382.8 moveto
61615 45180 lineto
stroke
0 0 0 setrgbcolor
newpath
61615 45180 moveto
63780.4 45180 lineto
stroke
0 0 0 setrgbcolor
newpath
63780.4 45180 moveto
64370.9 45770.6 lineto
stroke
0 0 0 setrgbcolor
newpath
64370.9 45770.6 moveto
66044.2 45770.6 lineto
stroke
0 0 0 setrgbcolor
newpath
66044.2 45770.6 moveto
66733.1 45081.6 lineto
stroke
0 0 0 setrgbcolor
newpath
66733.1 42620.9 moveto
67520.6 41833.5 lineto
stroke
0 0 0 setrgbcolor
236.22 setlinewidth
newpath
67520.6 46223.3 moveto
67520.6 43546.1 lineto
stroke
0 0 0 setrgbcolor
newpath
63465.4 45475.3 moveto
63485.1 45475.3 lineto
stroke
0 0 0 setrgbcolor
newpath
63485.1 45475.3 moveto
64233.1 46223.3 lineto
stroke
0 0 0 setrgbcolor
newpath
64233.1 46223.3 moveto
67520.6 46223.3 lineto
stroke
0 0 0 setrgbcolor
157.48 setlinewidth
newpath
60561.9 43880.8 moveto
60561.9 44619 lineto
stroke
0 0 0 setrgbcolor
newpath
60561.9 44619 moveto
61418.2 45475.3 lineto
stroke
0 0 0 setrgbcolor
newpath
61418.2 45475.3 moveto
63465.4 45475.3 lineto
stroke
0 0 0 setrgbcolor
newpath
63485.1 45475.3 moveto
64233.1 46223.3 lineto
stroke
0 0 0 setrgbcolor
newpath
64233.1 46223.3 moveto
67520.6 46223.3 lineto
stroke
0 0 0 setrgbcolor
newpath
60335.5 38329.6 moveto
60335.5 40534.3 lineto
stroke
0 0 0 setrgbcolor
newpath
60050.1 40819.8 moveto
60050.1 41558 lineto
stroke
0 0 0 setrgbcolor
newpath
60335.5 40534.3 moveto
60050.1 40819.8 lineto
stroke
0 0 0 setrgbcolor
newpath
60162.6 38058.3 moveto
60237.1 38132.8 lineto
stroke
0 0 0 setrgbcolor
newpath
60323.7 38046.1 moveto
60237.1 38132.8 lineto
stroke
0 0 0 setrgbcolor
newpath
59784.3 39215.4 moveto
59784.3 39156.4 lineto
stroke
0 0 0 setrgbcolor
newpath
59784.3 39156.4 moveto
59449.7 38821.7 lineto
stroke
0 0 0 setrgbcolor
newpath
59449.7 38821.7 moveto
59449.7 38329.6 lineto
stroke
0 0 0 setrgbcolor
newpath
59794.2 41558 moveto
59794.2 39225.3 lineto
stroke
0 0 0 setrgbcolor
newpath
59794.2 39225.3 moveto
59784.3 39215.4 lineto
stroke
0 0 0 setrgbcolor
216.535 setlinewidth
newpath
63780.4 40947.7 moveto
62894.6 40947.7 lineto
stroke
0 0 0 setrgbcolor
157.48 setlinewidth
newpath
61073.7 43418.2 moveto
61073.7 43880.8 lineto
stroke
0 0 0 setrgbcolor
newpath
61182 43309.9 moveto
61073.7 43418.2 lineto
stroke
0 0 0 setrgbcolor
newpath
61969.4 43309.9 moveto
61182 43309.9 lineto
stroke
0 0 0 setrgbcolor
newpath
62835.5 42443.8 moveto
61969.4 43309.9 lineto
stroke
0 0 0 setrgbcolor
216.535 setlinewidth
newpath
62993 42443.8 moveto
62835.5 42443.8 lineto
stroke
0 0 0 setrgbcolor
157.48 setlinewidth
newpath
61329.6 41558 moveto
61329.6 42040.2 lineto
stroke
0 0 0 setrgbcolor
newpath
62689.8 41447.7 moveto
63780.4 41447.7 lineto
stroke
0 0 0 setrgbcolor
newpath
62008.7 42128.8 moveto
62689.8 41447.7 lineto
stroke
0 0 0 setrgbcolor
newpath
61418.2 42128.8 moveto
62008.7 42128.8 lineto
stroke
0 0 0 setrgbcolor
newpath
61329.6 42040.2 moveto
61418.2 42128.8 lineto
stroke
0 0 0 setrgbcolor
newpath
63780.4 41947.7 moveto
62780.4 41947.7 lineto
stroke
0 0 0 setrgbcolor
newpath
61073.7 42374.9 moveto
61073.7 41558 lineto
stroke
0 0 0 setrgbcolor
newpath
61221.3 42522.5 moveto
61073.7 42374.9 lineto
stroke
0 0 0 setrgbcolor
newpath
62205.6 42522.5 moveto
61221.3 42522.5 lineto
stroke
0 0 0 setrgbcolor
newpath
62780.4 41947.7 moveto
62205.6 42522.5 lineto
stroke
0 0 0 setrgbcolor
newpath
63780.4 42447.7 moveto
64052 42447.7 lineto
stroke
0 0 0 setrgbcolor
newpath
61585.5 41174.1 moveto
61585.5 41558 lineto
stroke
0 0 0 setrgbcolor
newpath
62402.4 40357.2 moveto
61585.5 41174.1 lineto
stroke
0 0 0 setrgbcolor
newpath
64174.1 40357.2 moveto
62402.4 40357.2 lineto
stroke
0 0 0 setrgbcolor
newpath
64370.9 40554 moveto
64174.1 40357.2 lineto
stroke
0 0 0 setrgbcolor
newpath
64370.9 42128.8 moveto
64370.9 40554 lineto
stroke
0 0 0 setrgbcolor
newpath
64052 42447.7 moveto
64370.9 42128.8 lineto
stroke
0 0 0 setrgbcolor
newpath
63780.4 42947.7 moveto
62961.5 42947.7 lineto
stroke
0 0 0 setrgbcolor
newpath
62028.4 43880.8 moveto
61585.5 43880.8 lineto
stroke
0 0 0 setrgbcolor
newpath
62961.5 42947.7 moveto
62028.4 43880.8 lineto
stroke
0 0 0 setrgbcolor
newpath
63780.4 43447.7 moveto
63052 43447.7 lineto
stroke
0 0 0 setrgbcolor
newpath
61329.6 44402.4 moveto
61329.6 43880.8 lineto
stroke
0 0 0 setrgbcolor
newpath
61418.2 44491 moveto
61329.6 44402.4 lineto
stroke
0 0 0 setrgbcolor
newpath
62008.7 44491 moveto
61418.2 44491 lineto
stroke
0 0 0 setrgbcolor
newpath
63052 43447.7 moveto
62008.7 44491 lineto
stroke
0 0 0 setrgbcolor
newpath
59282.4 41558 moveto
59282.4 40544.2 lineto
stroke
0 0 0 setrgbcolor
newpath
58685.9 39554 moveto
58111.1 39554 lineto
stroke
0 0 0 setrgbcolor
newpath
58819.8 39687.9 moveto
58685.9 39554 lineto
stroke
0 0 0 setrgbcolor
newpath
58819.8 40081.6 moveto
58819.8 39687.9 lineto
stroke
0 0 0 setrgbcolor
newpath
59282.4 40544.2 moveto
58819.8 40081.6 lineto
stroke
0 0 0 setrgbcolor
newpath
55217.4 42699.7 moveto
55217.4 42896.5 lineto
stroke
0 0 0 setrgbcolor
newpath
55217.4 42896.5 moveto
55099.3 43014.6 lineto
stroke
0 0 0 setrgbcolor
newpath
55099.3 43014.6 moveto
54370.9 43014.6 lineto
stroke
0 0 0 setrgbcolor
newpath
55788.3 44083.5 moveto
55420.2 44083.5 lineto
stroke
0 0 0 setrgbcolor
newpath
55217.4 43880.8 moveto
55217.4 42699.7 lineto
stroke
0 0 0 setrgbcolor
newpath
55420.2 44083.5 moveto
55217.4 43880.8 lineto
stroke
0 0 0 setrgbcolor
newpath
55571.7 42699.7 moveto
56221.3 42699.7 lineto
stroke
0 0 0 setrgbcolor
newpath
56221.3 42699.7 moveto
56300.1 42620.9 lineto
stroke
0 0 0 setrgbcolor
newpath
55788.3 43583.5 moveto
55707.6 43583.5 lineto
stroke
0 0 0 setrgbcolor
newpath
55707.6 43583.5 moveto
55571.7 43447.7 lineto
stroke
0 0 0 setrgbcolor
newpath
55571.7 43447.7 moveto
55571.7 42699.7 lineto
stroke
0 0 0 setrgbcolor
100 setlinewidth
newpath
48902.4 34140.6 moveto
58612.1 34140.6 lineto
58522.9 34193 lineto
58407.3 34345.9 lineto
58359 34531.3 lineto
58423.1 34608.3 lineto
58799.3 34608.3 lineto
58799.3 34600.5 lineto
58899.3 34600.5 lineto
58899.3 34608.3 lineto
58907.2 34608.3 lineto
58907.2 34708.3 lineto
58899.3 34708.3 lineto
58899.3 35177.5 lineto
58799.3 35177.5 lineto
58799.3 34708.3 lineto
58423.1 34708.3 lineto
58359 34785.4 lineto
58407.3 34970.8 lineto
58522.9 35123.7 lineto
58688.1 35220.7 lineto
58724.2 35226.6 lineto
58799.3 35177.5 lineto
58899.3 35177.5 lineto
58974.3 35226.6 lineto
59010.5 35220.7 lineto
59052.9 35195.8 lineto
59096.1 35239.1 lineto
50870.9 35239.1 lineto
50804.7 34906.1 lineto
50616.1 34623.8 lineto
50333.8 34435.2 lineto
50000.9 34369 lineto
49667.9 34435.2 lineto
49385.6 34623.8 lineto
49197 34906.1 lineto
49130.8 35239.1 lineto
49197 35572 lineto
49385.6 35854.3 lineto
49667.9 36042.9 lineto
50000.9 36109.1 lineto
50333.8 36042.9 lineto
50616.1 35854.3 lineto
50804.7 35572 lineto
50870.9 35239.1 lineto
59096.1 35239.1 lineto
59121.1 35264 lineto
59162.4 35281.1 lineto
59121.9 35321.6 lineto
59104.6 35312.3 lineto
59089.3 35310.4 lineto
59017.4 35359.8 lineto
59017.4 35789.4 lineto
58917.4 35789.4 lineto
58917.4 35359.8 lineto
58845.5 35310.4 lineto
58830.2 35312.3 lineto
58669 35398.9 lineto
58553.3 35540.6 lineto
58500.6 35715.9 lineto
58561.8 35789.4 lineto
58917.4 35789.4 lineto
59017.4 35789.4 lineto
59373 35789.4 lineto
59413.9 35740.2 lineto
59468.2 35740.2 lineto
59468.2 35840.2 lineto
59400 35840.2 lineto
59392.1 35848.1 lineto
59370.9 35848.1 lineto
59370.9 35840.2 lineto
59144.1 35840.2 lineto
59094.9 35889.4 lineto
59017.4 35889.4 lineto
59017.4 36319.1 lineto
58917.4 36319.1 lineto
58917.4 35889.4 lineto
58561.8 35889.4 lineto
58500.6 35963 lineto
58553.3 36138.2 lineto
58669 36280 lineto
58830.2 36366.6 lineto
58845.5 36368.5 lineto
58917.4 36319.1 lineto
59017.4 36319.1 lineto
59089.3 36368.5 lineto
59104.6 36366.6 lineto
59185.9 36322.9 lineto
59190 36327 lineto
59281.8 36365 lineto
59308.4 36365 lineto
59360.3 36313.2 lineto
59360.3 36320.2 lineto
59217.2 36463.3 lineto
59146 36569.9 lineto
59120.9 36695.7 lineto
59120.9 36730.1 lineto
59101.1 36733.9 lineto
59016 36788.6 lineto
58959 36872.2 lineto
58938.9 36971.3 lineto
58938.9 37561.9 lineto
58956.3 37654.5 lineto
59011.1 37739.6 lineto
59094.6 37796.7 lineto
59099.8 37797.7 lineto
59016 37851.6 lineto
58959 37935.2 lineto
58938.9 38034.3 lineto
58938.9 38554.7 lineto
58733 38348.8 lineto
58728.9 38328.2 lineto
58601 38136.8 lineto
58409.6 38008.9 lineto
58183.8 37964 lineto
58038.4 37964 lineto
57812.6 38008.9 lineto
57621.2 38136.8 lineto
57493.3 38328.2 lineto
57448.4 38554 lineto
57493.3 38779.8 lineto
57595.6 38933 lineto
53574.8 38933 lineto
53529 38822 lineto
53268.2 38723.3 lineto
52989.6 38731.9 lineto
52772 38822 lineto
52726.1 38933 lineto
53150.5 39357.3 lineto
53574.8 38933 lineto
57595.6 38933 lineto
57621.2 38971.2 lineto
57745.1 39054 lineto
57621.2 39136.8 lineto
57493.3 39328.2 lineto
57450 39545.8 lineto
53855.2 39545.8 lineto
53846.6 39267.1 lineto
53756.5 39049.5 lineto
53645.5 39003.7 lineto
53221.2 39428 lineto
53079.8 39428 lineto
52655.4 39003.7 lineto
52544.4 39049.5 lineto
52445.7 39310.3 lineto
52454.3 39588.9 lineto
52544.4 39806.5 lineto
52655.4 39852.4 lineto
53079.8 39428 lineto
53221.2 39428 lineto
53645.5 39852.4 lineto
53756.5 39806.5 lineto
53855.2 39545.8 lineto
57450 39545.8 lineto
57448.4 39554 lineto
57493.3 39779.8 lineto
57621.2 39971.2 lineto
57629.9 39977 lineto
57569.5 40002.1 lineto
57499.2 40072.4 lineto
57461.1 40164.3 lineto
57461.1 40402.1 lineto
55939.8 40402.1 lineto
55939.8 39992.5 lineto
55901.8 39900.6 lineto
55831.5 39830.3 lineto
55739.6 39792.2 lineto
55507.1 39792.2 lineto
55444.6 39854.7 lineto
55444.6 40464.6 lineto
55344.6 40464.6 lineto
55344.6 39854.7 lineto
55282.1 39792.2 lineto
55049.6 39792.2 lineto
54957.7 39830.3 lineto
54887.4 39900.6 lineto
54878 39923.1 lineto
53574.8 39923.1 lineto
53150.5 39498.7 lineto
52726.1 39923.1 lineto
52772 40034.1 lineto
53032.7 40132.8 lineto
53311.4 40124.2 lineto
53529 40034.1 lineto
53574.8 39923.1 lineto
54878 39923.1 lineto
54849.3 39992.5 lineto
54849.3 40402.1 lineto
54911.8 40464.6 lineto
55344.6 40464.6 lineto
55444.6 40464.6 lineto
55877.3 40464.6 lineto
55939.8 40402.1 lineto
57461.1 40402.1 lineto
57461.1 40441.5 lineto
57523.6 40504 lineto
58061.1 40504 lineto
58061.1 40496.1 lineto
58161.1 40496.1 lineto
58161.1 40504 lineto
58698.6 40504 lineto
58737.9 40464.7 lineto
58953.6 40680.3 lineto
58953.6 40943.7 lineto
58761.1 40943.7 lineto
58761.1 40666.5 lineto
58698.6 40604 lineto
58161.1 40604 lineto
58161.1 41081.5 lineto
58061.1 41081.5 lineto
58061.1 40604 lineto
57523.6 40604 lineto
57461.1 40666.5 lineto
57461.1 40943.7 lineto
57499.2 41035.6 lineto
57500.3 41036.8 lineto
55939.8 41036.8 lineto
55939.8 40627.1 lineto
55877.3 40564.6 lineto
55444.6 40564.6 lineto
55444.6 41174.6 lineto
55344.6 41174.6 lineto
55344.6 40564.6 lineto
54911.8 40564.6 lineto
54849.3 40627.1 lineto
54849.3 41036.8 lineto
54887.4 41128.7 lineto
54957.7 41199 lineto
55049.6 41237.1 lineto
55282.1 41237.1 lineto
55344.6 41174.6 lineto
55444.6 41174.6 lineto
55507.1 41237.1 lineto
55739.6 41237.1 lineto
55831.5 41199 lineto
55901.8 41128.7 lineto
55939.8 41036.8 lineto
57500.3 41036.8 lineto
57569.5 41106 lineto
57661.4 41144 lineto
57998.6 41144 lineto
58061.1 41081.5 lineto
58161.1 41081.5 lineto
58223.6 41144 lineto
58560.8 41144 lineto
58652.7 41106 lineto
58723 41035.6 lineto
58761.1 40943.7 lineto
58953.6 40943.7 lineto
58953.6 41199.7 lineto
58938.9 41272.5 lineto
58938.9 41843.4 lineto
58956.3 41936 lineto
59011.1 42021.1 lineto
59094.6 42078.2 lineto
59193.8 42098.3 lineto
59370.9 42098.3 lineto
59411.8 42090.6 lineto
59449.7 42098.3 lineto
59626.9 42098.3 lineto
59667.7 42090.6 lineto
59705.6 42098.3 lineto
59882.8 42098.3 lineto
59923.6 42090.6 lineto
59961.5 42098.3 lineto
59977.2 42098.3 lineto
59977.2 42302 lineto
59096.8 42302 lineto
59089.9 42291.8 lineto
58808.9 42010.8 lineto
58808.9 41735.1 lineto
58791.5 41642.5 lineto
58736.7 41557.4 lineto
58653.2 41500.3 lineto
58554 41480.2 lineto
57963.5 41480.2 lineto
57870.8 41497.7 lineto
57785.7 41552.4 lineto
57767.4 41579.2 lineto
57711.4 41523.2 lineto
57619.5 41485.1 lineto
57387 41485.1 lineto
57324.5 41547.6 lineto
57324.5 41931.2 lineto
57332.4 41931.2 lineto
57332.4 42031.2 lineto
57324.5 42031.2 lineto
57324.5 42414.7 lineto
57224.5 42414.7 lineto
57224.5 42031.2 lineto
57216.6 42031.2 lineto
57216.6 41931.2 lineto
57224.5 41931.2 lineto
57224.5 41547.6 lineto
57162 41485.1 lineto
56929.5 41485.1 lineto
56837.6 41523.2 lineto
56774.1 41586.7 lineto
56733.6 41586.7 lineto
56796.1 41524.2 lineto
56796.1 41291.7 lineto
56758.1 41199.8 lineto
56687.8 41129.5 lineto
56595.9 41091.4 lineto
56412.6 41091.4 lineto
56350.1 41153.9 lineto
56350.1 41586.7 lineto
56250.1 41586.7 lineto
56250.1 41153.9 lineto
56187.6 41091.4 lineto
56004.3 41091.4 lineto
55912.4 41129.5 lineto
55842.1 41199.8 lineto
55804 41291.7 lineto
55804 41524.2 lineto
55866.5 41586.7 lineto
56250.1 41586.7 lineto
56350.1 41586.7 lineto
56358 41586.7 lineto
56358 41686.7 lineto
56350.1 41686.7 lineto
56350.1 41694.6 lineto
56250.1 41694.6 lineto
56250.1 41686.7 lineto
55866.5 41686.7 lineto
55804 41749.2 lineto
55804 41917.9 lineto
54867 41917.9 lineto
54867 41685.4 lineto
54828.9 41593.5 lineto
54758.6 41523.2 lineto
54666.7 41485.1 lineto
54483.4 41485.1 lineto
54420.9 41547.6 lineto
54420.9 41980.4 lineto
54320.9 41980.4 lineto
54320.9 41547.6 lineto
54258.4 41485.1 lineto
54075.2 41485.1 lineto
53983.3 41523.2 lineto
53912.9 41593.5 lineto
53874.9 41685.4 lineto
53874.9 41917.9 lineto
53937.4 41980.4 lineto
54320.9 41980.4 lineto
54420.9 41980.4 lineto
54804.5 41980.4 lineto
54867 41917.9 lineto
55804 41917.9 lineto
55804 41981.7 lineto
55842.1 42073.6 lineto
55897.7 42129.2 lineto
55876.3 42143 lineto
55819.2 42226.5 lineto
55811.6 42263.8 lineto
55789 42248.3 lineto
55689.8 42228.3 lineto
55453.6 42228.3 lineto
55392.4 42239.8 lineto
55335.5 42228.3 lineto
55099.3 42228.3 lineto
55006.6 42245.7 lineto
54921.6 42300.4 lineto
54864.5 42384 lineto
54844.4 42483.1 lineto
54844.4 42611.1 lineto
54799.7 42541.6 lineto
54772.9 42523.3 lineto
54828.9 42467.3 lineto
54867 42375.4 lineto
54867 42142.9 lineto
54804.5 42080.4 lineto
54420.9 42080.4 lineto
54420.9 42088.3 lineto
54320.9 42088.3 lineto
54320.9 42080.4 lineto
53937.4 42080.4 lineto
53874.9 42142.9 lineto
53874.9 42375.4 lineto
53912.9 42467.3 lineto
53968.5 42522.9 lineto
53947.1 42536.7 lineto
53890.1 42620.2 lineto
53870 42719.4 lineto
53870 43309.9 lineto
53887.4 43402.6 lineto
53942.2 43487.7 lineto
54025.7 43544.7 lineto
54124.9 43564.8 lineto
54617 43564.8 lineto
54709.7 43547.4 lineto
54794.7 43492.6 lineto
54851.8 43409.1 lineto
54865.1 43343.4 lineto
54888.7 43343.4 lineto
54888.7 43880.8 lineto
54913.7 44006.6 lineto
54984.9 44113.2 lineto
55087.1 44215.4 lineto
54632.8 44215.4 lineto
54491.9 44243.5 lineto
54372.5 44323.2 lineto
52890.2 45805.5 lineto
52810.4 45925 lineto
52782.4 46065.8 lineto
52782.4 46739.2 lineto
52754 46750.9 lineto
52556.7 46947.9 lineto
52449.8 47205.3 lineto
52449.6 47484.1 lineto
52556 47741.8 lineto
52753 47939.1 lineto
53010.5 48046 lineto
53289.3 48046.3 lineto
53546.9 47939.8 lineto
53744.2 47742.8 lineto
53851.1 47485.4 lineto
53851.4 47206.6 lineto
53744.9 46948.9 lineto
53548 46751.6 lineto
53518.6 46739.4 lineto
53518.6 46218.3 lineto
54785.2 44951.7 lineto
55233.1 44951.7 lineto
55233.1 44971 lineto
55295.6 45033.5 lineto
55738.3 45033.5 lineto
55738.3 45025.7 lineto
55838.3 45025.7 lineto
55838.3 45033.5 lineto
56280.9 45033.5 lineto
56343.4 44971 lineto
56343.4 44915.7 lineto
56308 44830.3 lineto
56328.2 44800.8 lineto
56348.3 44701.7 lineto
56348.3 44465.4 lineto
56330.9 44372.8 lineto
56305.7 44333.7 lineto
56328.2 44300.8 lineto
56348.3 44201.7 lineto
56348.3 43965.4 lineto
56330.9 43872.8 lineto
56305.7 43833.7 lineto
56328.2 43800.8 lineto
56348.3 43701.7 lineto
56348.3 43465.4 lineto
56330.9 43372.8 lineto
56276.1 43287.7 lineto
56192.6 43230.6 lineto
56093.4 43210.5 lineto
55900.5 43210.5 lineto
55900.5 43113.9 lineto
55954.8 43151 lineto
56054 43171.1 lineto
56546.1 43171.1 lineto
56638.8 43153.7 lineto
56723.9 43098.9 lineto
56781 43015.4 lineto
56801 42916.2 lineto
56801 42402.6 lineto
56837.6 42439.2 lineto
56929.5 42477.2 lineto
57162 42477.2 lineto
57224.5 42414.7 lineto
57324.5 42414.7 lineto
57387 42477.2 lineto
57619.5 42477.2 lineto
57711.4 42439.2 lineto
57767 42383.6 lineto
57780.8 42405 lineto
57864.3 42462.1 lineto
57963.5 42482.1 lineto
58225.9 42482.1 lineto
58341.8 42598 lineto
58008.3 42931.5 lineto
57928.5 43050.9 lineto
57900.5 43191.8 lineto
57900.5 43210.5 lineto
57609.1 43210.5 lineto
57516.5 43228 lineto
57431.4 43282.7 lineto
57374.3 43366.3 lineto
57354.2 43465.4 lineto
57354.2 43701.7 lineto
57371.7 43794.3 lineto
57396.8 43833.4 lineto
57374.3 43866.3 lineto
57354.2 43965.4 lineto
57354.2 44201.7 lineto
57371.7 44294.3 lineto
57396.8 44333.4 lineto
57374.3 44366.3 lineto
57354.2 44465.4 lineto
57354.2 44701.7 lineto
57371.7 44794.3 lineto
57396.8 44833.4 lineto
57374.3 44866.3 lineto
57354.2 44965.4 lineto
57354.2 45201.7 lineto
57363.6 45251.4 lineto
56343.4 45251.4 lineto
56343.4 45196 lineto
56280.9 45133.5 lineto
55838.3 45133.5 lineto
55838.3 45389.2 lineto
55738.3 45389.2 lineto
55738.3 45133.5 lineto
55295.6 45133.5 lineto
55233.1 45196 lineto
55233.1 45251.4 lineto
55271.2 45343.3 lineto
55341.5 45413.6 lineto
55433.4 45451.7 lineto
55675.8 45451.7 lineto
55738.3 45389.2 lineto
55838.3 45389.2 lineto
55900.8 45451.7 lineto
56143.1 45451.7 lineto
56235 45413.6 lineto
56305.3 45343.3 lineto
56343.4 45251.4 lineto
57363.6 45251.4 lineto
57371.7 45294.3 lineto
57426.4 45379.4 lineto
57510 45436.5 lineto
57609.1 45456.6 lineto
58219.4 45456.6 lineto
58312 45439.1 lineto
58353.7 45412.3 lineto
58502.8 45412.3 lineto
58628.6 45387.3 lineto
58735.3 45316 lineto
58953.6 45097.7 lineto
58953.6 45301.7 lineto
58205.6 46049.8 lineto
56832.4 46049.8 lineto
56832.4 45961.4 lineto
56668 45797 lineto
56576.1 45758.9 lineto
56476.6 45758.9 lineto
56384.7 45797 lineto
56314.4 45867.3 lineto
56248.2 45933.5 lineto
56248.2 46021.9 lineto
56554.2 46328 lineto
56832.4 46049.8 lineto
58205.6 46049.8 lineto
57566.6 46688.7 lineto
57458.2 46580.3 lineto
57380.4 46527.1 lineto
57281.5 46505.7 lineto
57182.1 46524.4 lineto
57170.9 46531.8 lineto
57193.9 46476.2 lineto
57193.9 46376.8 lineto
57155.9 46284.9 lineto
56991.5 46120.5 lineto
56903.1 46120.5 lineto
56624.9 46398.7 lineto
56483.5 46398.7 lineto
56177.4 46092.6 lineto
56089.1 46092.6 lineto
56022.8 46158.9 lineto
55952.5 46229.2 lineto
55914.4 46321.1 lineto
55914.4 46420.6 lineto
55952.5 46512.4 lineto
56116.9 46676.8 lineto
56205.3 46676.8 lineto
56483.5 46398.7 lineto
56624.9 46398.7 lineto
56630.5 46404.2 lineto
56559.7 46474.9 lineto
56554.2 46469.4 lineto
56276 46747.6 lineto
56276 46835.9 lineto
56440.4 47000.3 lineto
56532.3 47038.4 lineto
56631.7 47038.4 lineto
56685.3 47016.2 lineto
56682.7 47020.1 lineto
56661.2 47119 lineto
56679.9 47218.4 lineto
56735.8 47302.7 lineto
56878.1 47445 lineto
56861.1 47530.4 lineto
56861.1 47658.4 lineto
56854.6 47662.6 lineto
56797.5 47746.1 lineto
56777.4 47845.3 lineto
56777.4 48160.3 lineto
56794.9 48252.9 lineto
56837 48318.4 lineto
56797.5 48376.1 lineto
56777.4 48475.3 lineto
56777.4 48790.3 lineto
56794.9 48882.9 lineto
56849.6 48968 lineto
56933.2 49025.1 lineto
57032.3 49045.2 lineto
57347.3 49045.2 lineto
57440 49027.8 lineto
57525.1 48973 lineto
57552.9 48932.2 lineto
57576.7 48916.4 lineto
57576.7 49254.8 lineto
57594.1 49347.4 lineto
57635.8 49412.3 lineto
50870.9 49412.3 lineto
50804.7 49079.3 lineto
50616.1 48797 lineto
50333.8 48608.4 lineto
50000.9 48542.2 lineto
49667.9 48608.4 lineto
49385.6 48797 lineto
49197 49079.3 lineto
49130.8 49412.3 lineto
49197 49745.2 lineto
49385.6 50027.5 lineto
49667.9 50216.1 lineto
50000.9 50282.4 lineto
50333.8 50216.1 lineto
50616.1 50027.5 lineto
50804.7 49745.2 lineto
50870.9 49412.3 lineto
57635.8 49412.3 lineto
57648.9 49432.5 lineto
57732.4 49489.6 lineto
57831.6 49509.7 lineto
58117.1 49509.7 lineto
58476.8 49869.4 lineto
58596.2 49949.2 lineto
58737.1 49977.2 lineto
60363.1 49977.2 lineto
60503.9 49949.2 lineto
60623.4 49869.4 lineto
61009.2 49483.6 lineto
61074.5 49385.9 lineto
61136.8 49374.2 lineto
61221.9 49319.4 lineto
61279 49235.9 lineto
61299.1 49136.7 lineto
61299.1 48624.9 lineto
61281.6 48532.2 lineto
61226.9 48447.1 lineto
61143.3 48390.1 lineto
61138.2 48389 lineto
61221.9 48335.2 lineto
61270.1 48264.6 lineto
61654.4 48264.6 lineto
61795.3 48236.6 lineto
61914.7 48156.8 lineto
62269 47802.5 lineto
62348.8 47683.1 lineto
62376.9 47542.2 lineto
62376.9 47306 lineto
62441.4 47293.8 lineto
62526.5 47239.1 lineto
62583.6 47155.5 lineto
62603.6 47056.4 lineto
62603.6 47044.2 lineto
62722.3 47044.2 lineto
62726 47064 lineto
62780.8 47149.1 lineto
62807.6 47167.4 lineto
62751.5 47223.4 lineto
62713.5 47315.3 lineto
62713.5 47547.8 lineto
62776 47610.3 lineto
63159.5 47610.3 lineto
63159.5 47602.4 lineto
63259.5 47602.4 lineto
63259.5 47610.3 lineto
63643.1 47610.3 lineto
63705.6 47547.8 lineto
63705.6 47315.3 lineto
63667.5 47223.4 lineto
63611.9 47167.8 lineto
63633.3 47154.1 lineto
63690.4 47070.5 lineto
63710.5 46971.3 lineto
63710.5 46380.8 lineto
63693.1 46288.1 lineto
63638.3 46203.1 lineto
63554.8 46146 lineto
63455.6 46125.9 lineto
63397.9 46125.9 lineto
63420.1 46072.4 lineto
63420.2 45930.9 lineto
63972.9 46483.6 lineto
64092.3 46563.4 lineto
64233.1 46591.4 lineto
66891.6 46591.4 lineto
66891.6 46952.2 lineto
66909 47044.9 lineto
66963.7 47130 lineto
67047.3 47187 lineto
67146.5 47207.1 lineto
67697.5 47207.1 lineto
67790.1 47189.7 lineto
67875.2 47134.9 lineto
67932.3 47051.4 lineto
67952.4 46952.2 lineto
67952.4 46125.2 lineto
67934.9 46032.6 lineto
67888.7 45960.7 lineto
67888.7 43807.2 lineto
67932.3 43743.4 lineto
67952.4 43644.2 lineto
67952.4 42817.2 lineto
67934.9 42724.6 lineto
67880.2 42639.5 lineto
67796.6 42582.4 lineto
67697.5 42562.3 lineto
67312.4 42562.3 lineto
67780.8 42093.8 lineto
67860.6 41974.4 lineto
67888.7 41833.5 lineto
67888.7 41603.4 lineto
67932.3 41539.6 lineto
67952.4 41440.4 lineto
67952.4 40613.4 lineto
67934.9 40520.8 lineto
67888.7 40448.9 lineto
67888.7 38295.4 lineto
67932.3 38231.6 lineto
67952.4 38132.4 lineto
67952.4 37305.4 lineto
67934.9 37212.8 lineto
67880.2 37127.7 lineto
67796.6 37070.6 lineto
67697.5 37050.5 lineto
67146.5 37050.5 lineto
67053.8 37067.9 lineto
66968.7 37122.7 lineto
66911.6 37206.2 lineto
66891.6 37305.4 lineto
66891.6 38132.4 lineto
66909 38225.1 lineto
66963.7 38310.1 lineto
67047.3 38367.2 lineto
67146.5 38387.3 lineto
67152.4 38387.3 lineto
67152.4 40358.5 lineto
67146.5 40358.5 lineto
67053.8 40375.9 lineto
66968.7 40430.7 lineto
66911.6 40514.2 lineto
66891.6 40613.4 lineto
66891.6 41440.4 lineto
66909 41533.1 lineto
66963.7 41618.1 lineto
67047.3 41675.2 lineto
67139.6 41693.9 lineto
66472.9 42360.7 lineto
66393.1 42480.1 lineto
66365 42620.9 lineto
66365 44836 lineto
65467.4 44836 lineto
65467.4 44603.5 lineto
65404.9 44541 lineto
65021.3 44541 lineto
65021.3 44973.8 lineto
64921.3 44973.8 lineto
64921.3 44541 lineto
64537.8 44541 lineto
64475.3 44603.5 lineto
64475.3 44836 lineto
64513.3 44927.9 lineto
64583.7 44998.2 lineto
64675.5 45036.3 lineto
64858.8 45036.3 lineto
64921.3 44973.8 lineto
65021.3 44973.8 lineto
65083.8 45036.3 lineto
65267.1 45036.3 lineto
65359 44998.2 lineto
65429.3 44927.9 lineto
65467.4 44836 lineto
66365 44836 lineto
66365 44929.1 lineto
65911.4 45382.8 lineto
64503.7 45382.8 lineto
64040.7 44919.7 lineto
63992.9 44887.8 lineto
64079.2 44861.8 lineto
64220.9 44746.1 lineto
64307.6 44584.9 lineto
64309.4 44569.7 lineto
64260.1 44497.7 lineto
63830.4 44497.7 lineto
63830.4 44505.6 lineto
63730.4 44505.6 lineto
63730.4 44497.7 lineto
63722.5 44497.7 lineto
63722.5 44414.3 lineto
63869.8 44414.3 lineto
63952.9 44397.7 lineto
64260.1 44397.7 lineto
64309.4 44325.8 lineto
64307.6 44310.5 lineto
64289.3 44276.5 lineto
64353.2 44276.5 lineto
64475.3 44252.2 lineto
64475.3 44378.5 lineto
64537.8 44441 lineto
64921.3 44441 lineto
64921.3 44433.1 lineto
65021.3 44433.1 lineto
65021.3 44441 lineto
65404.9 44441 lineto
65467.4 44378.5 lineto
65467.4 44146 lineto
65429.3 44054.1 lineto
65373.7 43998.5 lineto
65395.1 43984.8 lineto
65452.2 43901.2 lineto
65472.3 43802 lineto
65472.3 43211.5 lineto
65454.9 43118.9 lineto
65400.1 43033.8 lineto
65316.6 42976.7 lineto
65217.4 42956.6 lineto
64725.3 42956.6 lineto
64632.6 42974 lineto
64547.5 43028.8 lineto
64490.5 43112.3 lineto
64470.4 43211.5 lineto
64470.4 43365.7 lineto
64323.4 43512.6 lineto
64336.4 43447.7 lineto
64300.8 43269.2 lineto
64253.1 43197.7 lineto
64300.8 43126.3 lineto
64336.4 42947.7 lineto
64300.8 42769.2 lineto
64254.7 42700.1 lineto
64265.4 42692.9 lineto
64284.5 42680.2 lineto
64603.4 42361.3 lineto
64674.7 42254.6 lineto
64699.7 42128.8 lineto
64699.7 40554 lineto
64674.7 40428.2 lineto
64627.2 40357.2 lineto
64603.4 40321.6 lineto
64463.8 40182 lineto
64523.5 40182 lineto
64616.2 40164.6 lineto
64701.3 40109.8 lineto
64758.4 40026.3 lineto
64778.4 39927.1 lineto
64778.4 39047.1 lineto
64761 38954.4 lineto
64706.3 38869.4 lineto
64622.7 38812.3 lineto
64523.5 38792.2 lineto
63643.5 38792.2 lineto
63550.9 38809.6 lineto
63465.8 38864.4 lineto
63408.7 38947.9 lineto
63388.6 39047.1 lineto
63388.6 39717.1 lineto
63380.4 39725.3 lineto
62248.9 39725.3 lineto
62123.1 39750.3 lineto
62016.4 39821.6 lineto
61230.8 40607.2 lineto
61048.1 40607.2 lineto
60922.3 40632.2 lineto
60815.7 40703.5 lineto
60585.3 40933.8 lineto
60526 41022.5 lineto
60511.9 41022.5 lineto
60511.9 41050.1 lineto
60493.7 41037.7 lineto
60464.3 41031.7 lineto
60455.1 41022.5 lineto
60423.6 41022.5 lineto
60422 41023.2 lineto
60394.6 41017.6 lineto
60378.8 41017.6 lineto
60378.8 40955.9 lineto
60568 40766.8 lineto
60639.2 40660.1 lineto
60664.3 40534.3 lineto
60664.3 39726.2 lineto
61142.6 39726.2 lineto
61235.2 39708.8 lineto
61320.3 39654.1 lineto
61377.4 39570.5 lineto
61388.3 39516.9 lineto
61439.5 39516.9 lineto
61502 39454.4 lineto
61502 39159.4 lineto
61494.2 39159.4 lineto
61494.2 39059.4 lineto
61502 39059.4 lineto
61502 38764.4 lineto
61439.5 38701.9 lineto
61344.8 38701.9 lineto
61259.9 38737.1 lineto
61241.8 38724.7 lineto
61235.1 38723.4 lineto
61235.1 37351.3 lineto
61458.6 37351.3 lineto
61558 37450.6 lineto
61558 37585.5 lineto
61559.1 37591.4 lineto
61558 37597.3 lineto
61558 38030.3 lineto
61533.7 38065.8 lineto
61513.7 38164.9 lineto
61513.7 38479.9 lineto
61531.1 38572.6 lineto
61585.9 38657.7 lineto
61658.9 38707.6 lineto
61602 38764.4 lineto
61602 39059.4 lineto
61609.9 39059.4 lineto
61609.9 39159.4 lineto
61602 39159.4 lineto
61602 39454.4 lineto
61664.5 39516.9 lineto
61759.3 39516.9 lineto
61851.2 39478.9 lineto
61921.5 39408.5 lineto
61927.4 39394.2 lineto
61959.9 39444.7 lineto
62043.4 39501.7 lineto
62142.6 39521.8 lineto
62457.6 39521.8 lineto
62550.2 39504.4 lineto
62635.3 39449.6 lineto
62692.4 39366.1 lineto
62711.2 39273.1 lineto
63727.4 38256.9 lineto
63798.7 38150.3 lineto
63802.7 38130 lineto
63833.7 38124.2 lineto
63918.8 38069.4 lineto
63975.8 37985.9 lineto
63995.9 37886.7 lineto
63995.9 37296.1 lineto
63978.5 37203.5 lineto
63923.7 37118.4 lineto
63896.9 37100.1 lineto
63953 37044.1 lineto
63991 36952.2 lineto
63991 36719.7 lineto
63928.5 36657.2 lineto
63545 36657.2 lineto
63545 36665 lineto
63445 36665 lineto
63445 36657.2 lineto
62718.2 36657.2 lineto
62718.2 36665 lineto
62618.2 36665 lineto
62618.2 36657.2 lineto
62234.6 36657.2 lineto
62172.1 36719.7 lineto
62172.1 36952.2 lineto
62210.2 37044.1 lineto
62265.8 37099.7 lineto
62244.4 37113.4 lineto
62240.6 37119 lineto
62186.4 37037.8 lineto
61871.4 36722.9 lineto
61752 36643.1 lineto
61611.1 36615 lineto
61121.3 36615 lineto
60891 36384.7 lineto
60926.9 36384.7 lineto
60926.9 36319.1 lineto
60998.8 36368.5 lineto
61014.1 36366.6 lineto
61175.2 36280 lineto
61291 36138.2 lineto
61343.7 35963 lineto
61282.4 35889.4 lineto
60926.9 35889.4 lineto
60926.9 35897.3 lineto
60826.9 35897.3 lineto
60826.9 35889.4 lineto
60819 35889.4 lineto
60819 35789.4 lineto
60826.9 35789.4 lineto
60826.9 35359.8 lineto
60754.9 35310.4 lineto
60739.6 35312.3 lineto
60718.5 35323.6 lineto
60695.4 35287.7 lineto
60684.3 35280.1 lineto
60723.2 35264 lineto
60791.4 35195.8 lineto
60833.8 35220.7 lineto
60869.9 35226.6 lineto
60945 35177.5 lineto
60945 34708.3 lineto
60937.1 34708.3 lineto
60937.1 34608.3 lineto
60945 34608.3 lineto
60945 34600.5 lineto
61045 34600.5 lineto
61045 34608.3 lineto
61421.2 34608.3 lineto
61485.2 34531.3 lineto
61436.9 34345.9 lineto
61321.4 34193 lineto
61232.1 34140.6 lineto
71571.7 34140.6 lineto
71571.7 35239.1 lineto
71343.4 35239.1 lineto
71277.2 34906.1 lineto
71088.5 34623.8 lineto
70806.3 34435.2 lineto
70473.3 34369 lineto
70140.3 34435.2 lineto
69858.1 34623.8 lineto
69750.1 34785.4 lineto
61485.2 34785.4 lineto
61421.2 34708.3 lineto
61045 34708.3 lineto
61045 35177.5 lineto
61120 35226.6 lineto
61156.1 35220.7 lineto
61321.4 35123.7 lineto
61436.9 34970.8 lineto
61485.2 34785.4 lineto
69750.1 34785.4 lineto
69669.5 34906.1 lineto
69603.2 35239.1 lineto
69669.5 35572 lineto
69765.6 35715.9 lineto
61343.7 35715.9 lineto
61291 35540.6 lineto
61175.2 35398.9 lineto
61014.1 35312.3 lineto
60998.8 35310.4 lineto
60926.9 35359.8 lineto
60926.9 35789.4 lineto
61282.4 35789.4 lineto
61343.7 35715.9 lineto
69765.6 35715.9 lineto
69858.1 35854.3 lineto
70140.3 36042.9 lineto
70473.3 36109.1 lineto
70806.3 36042.9 lineto
71088.5 35854.3 lineto
71277.2 35572 lineto
71343.4 35239.1 lineto
71571.7 35239.1 lineto
71571.7 36494.7 lineto
63991 36494.7 lineto
63991 36262.2 lineto
63953 36170.3 lineto
63882.6 36099.9 lineto
63790.8 36061.9 lineto
63607.5 36061.9 lineto
63545 36124.4 lineto
63545 36557.2 lineto
63445 36557.2 lineto
63445 36124.4 lineto
63382.5 36061.9 lineto
63199.2 36061.9 lineto
63107.3 36099.9 lineto
63081.6 36125.7 lineto
63055.9 36099.9 lineto
62964 36061.9 lineto
62780.7 36061.9 lineto
62718.2 36124.4 lineto
62718.2 36557.2 lineto
62618.2 36557.2 lineto
62618.2 36124.4 lineto
62555.7 36061.9 lineto
62372.4 36061.9 lineto
62280.5 36099.9 lineto
62210.2 36170.3 lineto
62172.1 36262.2 lineto
62172.1 36494.7 lineto
62234.6 36557.2 lineto
62618.2 36557.2 lineto
62718.2 36557.2 lineto
63445 36557.2 lineto
63545 36557.2 lineto
63928.5 36557.2 lineto
63991 36494.7 lineto
71571.7 36494.7 lineto
71571.7 37606.4 lineto
69719.5 37606.4 lineto
69719.5 37255.7 lineto
69681.4 37163.8 lineto
69611.1 37093.5 lineto
69519.2 37055.4 lineto
69306.5 37055.4 lineto
69244 37117.9 lineto
69244 37668.9 lineto
69144 37668.9 lineto
69144 37117.9 lineto
69081.5 37055.4 lineto
68868.7 37055.4 lineto
68776.8 37093.5 lineto
68706.5 37163.8 lineto
68668.5 37255.7 lineto
68668.5 37606.4 lineto
68731 37668.9 lineto
69144 37668.9 lineto
69244 37668.9 lineto
69657 37668.9 lineto
69719.5 37606.4 lineto
71571.7 37606.4 lineto
71571.7 38182.1 lineto
69719.5 38182.1 lineto
69719.5 37831.4 lineto
69657 37768.9 lineto
69244 37768.9 lineto
69244 38319.9 lineto
69144 38319.9 lineto
69144 37768.9 lineto
68731 37768.9 lineto
68668.5 37831.4 lineto
68668.5 38182.1 lineto
68706.5 38274 lineto
68776.8 38344.4 lineto
68868.7 38382.4 lineto
69081.5 38382.4 lineto
69144 38319.9 lineto
69244 38319.9 lineto
69306.5 38382.4 lineto
69519.2 38382.4 lineto
69611.1 38344.4 lineto
69681.4 38274 lineto
69719.5 38182.1 lineto
71571.7 38182.1 lineto
71571.7 40914.4 lineto
69719.5 40914.4 lineto
69719.5 40563.7 lineto
69681.4 40471.8 lineto
69611.1 40401.5 lineto
69519.2 40363.4 lineto
69306.5 40363.4 lineto
69244 40425.9 lineto
69244 40976.9 lineto
69144 40976.9 lineto
69144 40425.9 lineto
69081.5 40363.4 lineto
68868.7 40363.4 lineto
68776.8 40401.5 lineto
68706.5 40471.8 lineto
68668.5 40563.7 lineto
68668.5 40914.4 lineto
68731 40976.9 lineto
69144 40976.9 lineto
69244 40976.9 lineto
69657 40976.9 lineto
69719.5 40914.4 lineto
71571.7 40914.4 lineto
71571.7 41490.1 lineto
69719.5 41490.1 lineto
69719.5 41139.4 lineto
69657 41076.9 lineto
69244 41076.9 lineto
69244 41627.9 lineto
69144 41627.9 lineto
69144 41076.9 lineto
68731 41076.9 lineto
68668.5 41139.4 lineto
68668.5 41490.1 lineto
68706.5 41582 lineto
68776.8 41652.4 lineto
68868.7 41690.4 lineto
69081.5 41690.4 lineto
69144 41627.9 lineto
69244 41627.9 lineto
69306.5 41690.4 lineto
69519.2 41690.4 lineto
69611.1 41652.4 lineto
69681.4 41582 lineto
69719.5 41490.1 lineto
71571.7 41490.1 lineto
71571.7 43118.2 lineto
69719.5 43118.2 lineto
69719.5 42767.5 lineto
69681.4 42675.6 lineto
69611.1 42605.3 lineto
69519.2 42567.2 lineto
69306.5 42567.2 lineto
69244 42629.7 lineto
69244 43180.7 lineto
69144 43180.7 lineto
69144 42629.7 lineto
69081.5 42567.2 lineto
68868.7 42567.2 lineto
68776.8 42605.3 lineto
68706.5 42675.6 lineto
68668.5 42767.5 lineto
68668.5 43118.2 lineto
68731 43180.7 lineto
69144 43180.7 lineto
69244 43180.7 lineto
69657 43180.7 lineto
69719.5 43118.2 lineto
71571.7 43118.2 lineto
71571.7 43694 lineto
69719.5 43694 lineto
69719.5 43343.2 lineto
69657 43280.7 lineto
69244 43280.7 lineto
69244 43831.7 lineto
69144 43831.7 lineto
69144 43280.7 lineto
68731 43280.7 lineto
68668.5 43343.2 lineto
68668.5 43694 lineto
68706.5 43785.8 lineto
68776.8 43856.2 lineto
68868.7 43894.2 lineto
69081.5 43894.2 lineto
69144 43831.7 lineto
69244 43831.7 lineto
69306.5 43894.2 lineto
69519.2 43894.2 lineto
69611.1 43856.2 lineto
69681.4 43785.8 lineto
69719.5 43694 lineto
71571.7 43694 lineto
71571.7 46426.2 lineto
69719.5 46426.2 lineto
69719.5 46075.5 lineto
69681.4 45983.6 lineto
69611.1 45913.3 lineto
69519.2 45875.2 lineto
69306.5 45875.2 lineto
69244 45937.7 lineto
69244 46488.7 lineto
69144 46488.7 lineto
69144 45937.7 lineto
69081.5 45875.2 lineto
68868.7 45875.2 lineto
68776.8 45913.3 lineto
68706.5 45983.6 lineto
68668.5 46075.5 lineto
68668.5 46426.2 lineto
68731 46488.7 lineto
69144 46488.7 lineto
69244 46488.7 lineto
69657 46488.7 lineto
69719.5 46426.2 lineto
71571.7 46426.2 lineto
71571.7 47002 lineto
69719.5 47002 lineto
69719.5 46651.2 lineto
69657 46588.7 lineto
69244 46588.7 lineto
69244 47139.7 lineto
69144 47139.7 lineto
69144 46588.7 lineto
68731 46588.7 lineto
68668.5 46651.2 lineto
68668.5 47002 lineto
68706.5 47093.8 lineto
68776.8 47164.2 lineto
68868.7 47202.2 lineto
69081.5 47202.2 lineto
69144 47139.7 lineto
69244 47139.7 lineto
69306.5 47202.2 lineto
69519.2 47202.2 lineto
69611.1 47164.2 lineto
69681.4 47093.8 lineto
69719.5 47002 lineto
71571.7 47002 lineto
71571.7 48005.3 lineto
63705.6 48005.3 lineto
63705.6 47772.8 lineto
63643.1 47710.3 lineto
63259.5 47710.3 lineto
63259.5 48143.1 lineto
63159.5 48143.1 lineto
63159.5 47710.3 lineto
62776 47710.3 lineto
62713.5 47772.8 lineto
62713.5 48005.3 lineto
62751.5 48097.2 lineto
62821.9 48167.5 lineto
62913.7 48205.6 lineto
63097 48205.6 lineto
63159.5 48143.1 lineto
63259.5 48143.1 lineto
63322 48205.6 lineto
63505.3 48205.6 lineto
63597.2 48167.5 lineto
63667.5 48097.2 lineto
63705.6 48005.3 lineto
71571.7 48005.3 lineto
71571.7 49412.3 lineto
71343.4 49412.3 lineto
71277.2 49079.3 lineto
71088.5 48797 lineto
70806.3 48608.4 lineto
70473.3 48542.2 lineto
70140.3 48608.4 lineto
69858.1 48797 lineto
69669.5 49079.3 lineto
69603.2 49412.3 lineto
69669.5 49745.2 lineto
69858.1 50027.5 lineto
70140.3 50216.1 lineto
70473.3 50282.4 lineto
70806.3 50216.1 lineto
71088.5 50027.5 lineto
71277.2 49745.2 lineto
71343.4 49412.3 lineto
71571.7 49412.3 lineto
71571.7 50510.7 lineto
48902.4 50510.7 lineto
48902.4 34140.6 lineto
poly1
newpath
60251.1 34609.9 moveto
59593.2 34609.9 lineto
59593.2 34617.8 lineto
59493.2 34617.8 lineto
59493.2 34609.9 lineto
59485.3 34609.9 lineto
59485.3 34509.9 lineto
59493.2 34509.9 lineto
59493.2 34502 lineto
59593.2 34502 lineto
59593.2 34509.9 lineto
60251.1 34509.9 lineto
60251.1 34502 lineto
60351.1 34502 lineto
60351.1 34509.9 lineto
60358.9 34509.9 lineto
60358.9 34609.9 lineto
60351.1 34609.9 lineto
60351.1 34617.8 lineto
60251.1 34617.8 lineto
60251.1 34609.9 lineto
poly1
newpath
60163.9 47462.9 moveto
60080.4 47405.8 lineto
60014.6 47392.5 lineto
60014.6 47317.9 lineto
60234.5 47274.2 lineto
60425.9 47146.3 lineto
60507.3 47024.5 lineto
60653.6 47188.2 lineto
60861.2 47288.2 lineto
60867.4 47289.2 lineto
60958.7 47241.5 lineto
60958.7 46706.4 lineto
60950.9 46706.4 lineto
60950.9 46606.4 lineto
60958.7 46606.4 lineto
60958.7 46071.3 lineto
60867.4 46023.6 lineto
60861.2 46024.6 lineto
60653.6 46124.6 lineto
60507.3 46288.3 lineto
60425.9 46166.5 lineto
60337.5 46107.3 lineto
60337.5 46034.3 lineto
60312.5 45908.5 lineto
60295.5 45883.2 lineto
60241.2 45801.9 lineto
60122.9 45683.6 lineto
60122.9 45097.7 lineto
61047.9 46022.7 lineto
61083 46046.1 lineto
61093.5 46053.1 lineto
61058.7 46071.3 lineto
61058.7 46606.4 lineto
61066.6 46606.4 lineto
61066.6 46706.4 lineto
61058.7 46706.4 lineto
61058.7 47241.5 lineto
61150.1 47289.2 lineto
61156.3 47288.2 lineto
61363.9 47188.2 lineto
61425.6 47119 lineto
61431.3 47149 lineto
61486 47234.1 lineto
61569.6 47291.2 lineto
61640.6 47305.6 lineto
61640.6 47389.7 lineto
61501.9 47528.4 lineto
61269.1 47528.4 lineto
61226.9 47462.9 lineto
61143.3 47405.8 lineto
61044.2 47385.7 lineto
60453.6 47385.7 lineto
60361 47403.2 lineto
60275.9 47457.9 lineto
60218.8 47541.5 lineto
60217.8 47546.6 lineto
60163.9 47462.9 lineto
poly1
showpage
grestore
%%EOF
