%!PS-Adobe-3.0
%%Creator: PCBNEW
%%CreationDate: Sat May 20 15:05:55 2017
%%Title: /home/maly/Studia/ismm/Elektronika/Slave/slave/slave-F.Cu.ps
%%Pages: 1
%%PageOrder: Ascend
%%BoundingBox: 0 0 596 842
%%DocumentMedia: A4 595 842 0 () ()
%%Orientation: Landscape
%%EndComments
%%BeginProlog
/line { newpath moveto lineto stroke } bind def
/cir0 { newpath 0 360 arc stroke } bind def
/cir1 { newpath 0 360 arc gsave fill grestore stroke } bind def
/cir2 { newpath 0 360 arc gsave fill grestore stroke } bind def
/arc0 { newpath arc stroke } bind def
/arc1 { newpath 4 index 4 index moveto arc closepath gsave fill
    grestore stroke } bind def
/arc2 { newpath 4 index 4 index moveto arc closepath gsave fill
    grestore stroke } bind def
/poly0 { stroke } bind def
/poly1 { closepath gsave fill grestore stroke } bind def
/poly2 { closepath gsave fill grestore stroke } bind def
/rect0 { rectstroke } bind def
/rect1 { rectfill } bind def
/rect2 { rectfill } bind def
/linemode0 { 0 setlinecap 0 setlinejoin 0 setlinewidth } bind def
/linemode1 { 1 setlinecap 1 setlinejoin } bind def
/dashedline { [200] 100 setdash } bind def
/solidline { [] 0 setdash } bind def
/phantomshow { moveto
    /KicadFont findfont 0.000001 scalefont setfont
    show } bind def
/textshow { gsave
    findfont exch scalefont setfont concat 1 scale 0 0 moveto show
    } bind def
/reencodefont {
  findfont dup length dict begin
  { 1 index /FID ne
    { def }
    { pop pop } ifelse
  } forall
  /Encoding ISOLatin1Encoding def
  currentdict
  end } bind def
/KicadFont /Helvetica reencodefont definefont pop
/KicadFont-Bold /Helvetica-Bold reencodefont definefont pop
/KicadFont-Oblique /Helvetica-Oblique reencodefont definefont pop
/KicadFont-BoldOblique /Helvetica-BoldOblique reencodefont definefont pop
%%EndProlog
%%Page: 1 1
%%BeginPageSetup
gsave
0.0072 0.0072 scale
linemode1
82680 0 translate 90 rotate
39.3701 setlinewidth
%%EndPageSetup
0 0 0 setrgbcolor
0 0 0 setrgbcolor
0 setlinewidth
newpath
57963.5 45947.7 moveto
57963.5 46124.9 lineto
57274.5 46124.9 lineto
57274.5 45947.7 lineto
57963.5 45947.7 lineto
poly1
0 0 0 setrgbcolor
newpath
57963.5 45691.8 moveto
57963.5 45869 lineto
57274.5 45869 lineto
57274.5 45691.8 lineto
57963.5 45691.8 lineto
poly1
0 0 0 setrgbcolor
newpath
57963.5 45435.9 moveto
57963.5 45613.1 lineto
57274.5 45613.1 lineto
57274.5 45435.9 lineto
57963.5 45435.9 lineto
poly1
0 0 0 setrgbcolor
newpath
57963.5 45180 moveto
57963.5 45357.2 lineto
57274.5 45357.2 lineto
57274.5 45180 lineto
57963.5 45180 lineto
poly1
0 0 0 setrgbcolor
newpath
57963.5 44924.1 moveto
57963.5 45101.3 lineto
57274.5 45101.3 lineto
57274.5 44924.1 lineto
57963.5 44924.1 lineto
poly1
0 0 0 setrgbcolor
newpath
57963.5 44668.2 moveto
57963.5 44845.4 lineto
57274.5 44845.4 lineto
57274.5 44668.2 lineto
57963.5 44668.2 lineto
poly1
0 0 0 setrgbcolor
newpath
57963.5 44412.3 moveto
57963.5 44589.4 lineto
57274.5 44589.4 lineto
57274.5 44412.3 lineto
57963.5 44412.3 lineto
poly1
0 0 0 setrgbcolor
newpath
57963.5 44156.4 moveto
57963.5 44333.5 lineto
57274.5 44333.5 lineto
57274.5 44156.4 lineto
57963.5 44156.4 lineto
poly1
0 0 0 setrgbcolor
newpath
57963.5 43900.5 moveto
57963.5 44077.6 lineto
57274.5 44077.6 lineto
57274.5 43900.5 lineto
57963.5 43900.5 lineto
poly1
0 0 0 setrgbcolor
newpath
57963.5 43644.6 moveto
57963.5 43821.7 lineto
57274.5 43821.7 lineto
57274.5 43644.6 lineto
57963.5 43644.6 lineto
poly1
0 0 0 setrgbcolor
newpath
55128.8 43644.6 moveto
55128.8 43821.7 lineto
54439.8 43821.7 lineto
54439.8 43644.6 lineto
55128.8 43644.6 lineto
poly1
0 0 0 setrgbcolor
newpath
55128.8 43900.5 moveto
55128.8 44077.6 lineto
54439.8 44077.6 lineto
54439.8 43900.5 lineto
55128.8 43900.5 lineto
poly1
0 0 0 setrgbcolor
newpath
55128.8 44156.4 moveto
55128.8 44333.5 lineto
54439.8 44333.5 lineto
54439.8 44156.4 lineto
55128.8 44156.4 lineto
poly1
0 0 0 setrgbcolor
newpath
55128.8 44412.3 moveto
55128.8 44589.4 lineto
54439.8 44589.4 lineto
54439.8 44412.3 lineto
55128.8 44412.3 lineto
poly1
0 0 0 setrgbcolor
newpath
55128.8 44668.2 moveto
55128.8 44845.4 lineto
54439.8 44845.4 lineto
54439.8 44668.2 lineto
55128.8 44668.2 lineto
poly1
0 0 0 setrgbcolor
newpath
55128.8 44924.1 moveto
55128.8 45101.3 lineto
54439.8 45101.3 lineto
54439.8 44924.1 lineto
55128.8 44924.1 lineto
poly1
0 0 0 setrgbcolor
newpath
55128.8 45180 moveto
55128.8 45357.2 lineto
54439.8 45357.2 lineto
54439.8 45180 lineto
55128.8 45180 lineto
poly1
0 0 0 setrgbcolor
newpath
55128.8 45435.9 moveto
55128.8 45613.1 lineto
54439.8 45613.1 lineto
54439.8 45435.9 lineto
55128.8 45435.9 lineto
poly1
0 0 0 setrgbcolor
newpath
55128.8 45691.8 moveto
55128.8 45869 lineto
54439.8 45869 lineto
54439.8 45691.8 lineto
55128.8 45691.8 lineto
poly1
0 0 0 setrgbcolor
newpath
55128.8 45947.7 moveto
55128.8 46124.9 lineto
54439.8 46124.9 lineto
54439.8 45947.7 lineto
55128.8 45947.7 lineto
poly1
0 0 0 setrgbcolor
newpath
53012.7 44136.7 moveto
52500.9 44136.7 lineto
52500.9 43546.1 lineto
53012.7 43546.1 lineto
53012.7 44136.7 lineto
poly1
0 0 0 setrgbcolor
newpath
53012.7 43073.7 moveto
52500.9 43073.7 lineto
52500.9 42483.1 lineto
53012.7 42483.1 lineto
53012.7 43073.7 lineto
poly1
0 0 0 setrgbcolor
newpath
54646.5 49422.1 moveto
54646.5 48930 lineto
55237.1 48930 lineto
55237.1 49422.1 lineto
54646.5 49422.1 lineto
poly1
0 0 0 setrgbcolor
newpath
55630.8 49422.1 moveto
55630.8 48930 lineto
56221.3 48930 lineto
56221.3 49422.1 lineto
55630.8 49422.1 lineto
poly1
0 0 0 setrgbcolor
newpath
59213.5 45052 moveto
59213.5 44559.9 lineto
59804 44559.9 lineto
59804 45052 lineto
59213.5 45052 lineto
poly1
0 0 0 setrgbcolor
newpath
60197.7 45052 moveto
60197.7 44559.9 lineto
60788.3 44559.9 lineto
60788.3 45052 lineto
60197.7 45052 lineto
poly1
0 0 0 setrgbcolor
newpath
57166.2 40839.4 moveto
57166.2 40347.3 lineto
57756.8 40347.3 lineto
57756.8 40839.4 lineto
57166.2 40839.4 lineto
poly1
0 0 0 setrgbcolor
newpath
58150.5 40839.4 moveto
58150.5 40347.3 lineto
58741 40347.3 lineto
58741 40839.4 lineto
58150.5 40839.4 lineto
poly1
0 0 0 setrgbcolor
newpath
57432 47089.4 moveto
57924.1 47089.4 lineto
57924.1 47680 lineto
57432 47680 lineto
57432 47089.4 lineto
poly1
0 0 0 setrgbcolor
newpath
57432 48073.7 moveto
57924.1 48073.7 lineto
57924.1 48664.3 lineto
57432 48664.3 lineto
57432 48073.7 lineto
poly1
0 0 0 setrgbcolor
newpath
50246.9 41735.1 moveto
49754.8 41735.1 lineto
49754.8 41144.6 lineto
50246.9 41144.6 lineto
50246.9 41735.1 lineto
poly1
0 0 0 setrgbcolor
newpath
50246.9 40750.9 moveto
49754.8 40750.9 lineto
49754.8 40160.3 lineto
50246.9 40160.3 lineto
50246.9 40750.9 lineto
poly1
0 0 0 setrgbcolor
newpath
51975.7 43363.6 moveto
51975.7 44043.6 lineto
51175.7 44043.6 lineto
51175.7 43363.6 lineto
51975.7 43363.6 lineto
poly1
0 0 0 setrgbcolor
680 setlinewidth
newpath
51635.7 42703.6 moveto
51515.7 42703.6 lineto
stroke
0 0 0 setrgbcolor
newpath
51635.7 41703.6 moveto
51515.7 41703.6 lineto
stroke
0 0 0 setrgbcolor
newpath
51635.7 40703.6 moveto
51515.7 40703.6 lineto
stroke
0 0 0 setrgbcolor
0 setlinewidth
newpath
53282.9 46886.3 moveto
53962.9 46886.3 lineto
53962.9 47686.3 lineto
53282.9 47686.3 lineto
53282.9 46886.3 lineto
poly1
0 0 0 setrgbcolor
680 setlinewidth
newpath
52622.9 47226.3 moveto
52622.9 47346.3 lineto
stroke
0 0 0 setrgbcolor
newpath
51622.9 47226.3 moveto
51622.9 47346.3 lineto
stroke
0 0 0 setrgbcolor
0 setlinewidth
newpath
49600.9 42862.5 moveto
49600.9 42182.5 lineto
50400.9 42182.5 lineto
50400.9 42862.5 lineto
49600.9 42862.5 lineto
poly1
0 0 0 setrgbcolor
680 setlinewidth
newpath
49940.9 43522.5 moveto
50060.9 43522.5 lineto
stroke
0 0 0 setrgbcolor
newpath
49940.9 44522.5 moveto
50060.9 44522.5 lineto
stroke
0 0 0 setrgbcolor
0 setlinewidth
newpath
62356.8 41169.6 moveto
62356.8 40489.6 lineto
63156.8 40489.6 lineto
63156.8 41169.6 lineto
62356.8 41169.6 lineto
poly1
0 0 0 setrgbcolor
680 setlinewidth
newpath
62696.8 41829.6 moveto
62816.8 41829.6 lineto
stroke
0 0 0 setrgbcolor
newpath
62696.8 42829.6 moveto
62816.8 42829.6 lineto
stroke
0 0 0 setrgbcolor
0 setlinewidth
newpath
50440.2 47773.1 moveto
50440.2 48453.1 lineto
49640.2 48453.1 lineto
49640.2 47773.1 lineto
50440.2 47773.1 lineto
poly1
0 0 0 setrgbcolor
680 setlinewidth
newpath
50100.2 47113.1 moveto
49980.2 47113.1 lineto
stroke
0 0 0 setrgbcolor
newpath
50100.2 46113.1 moveto
49980.2 46113.1 lineto
stroke
0 0 0 setrgbcolor
0 setlinewidth
newpath
58032.4 41498.9 moveto
58504.8 41498.9 lineto
58504.8 41971.3 lineto
58032.4 41971.3 lineto
58032.4 41498.9 lineto
poly1
0 0 0 setrgbcolor
472.441 setlinewidth
newpath
57768.6 41735.1 moveto
57768.6 41735.1 lineto
stroke
0 0 0 setrgbcolor
newpath
57268.6 41735.1 moveto
57268.6 41735.1 lineto
stroke
0 0 0 setrgbcolor
newpath
56768.6 41735.1 moveto
56768.6 41735.1 lineto
stroke
0 0 0 setrgbcolor
newpath
56268.6 41735.1 moveto
56268.6 41735.1 lineto
stroke
0 0 0 setrgbcolor
newpath
55768.6 41735.1 moveto
55768.6 41735.1 lineto
stroke
0 0 0 setrgbcolor
newpath
55268.6 41735.1 moveto
55268.6 41735.1 lineto
stroke
0 0 0 setrgbcolor
newpath
54768.6 41735.1 moveto
54768.6 41735.1 lineto
stroke
0 0 0 setrgbcolor
0 setlinewidth
newpath
60551.7 41243 moveto
60866.7 41243 lineto
60866.7 41558 lineto
60551.7 41558 lineto
60551.7 41243 lineto
poly1
0 0 0 setrgbcolor
newpath
60551.7 41991 moveto
60866.7 41991 lineto
60866.7 42306 lineto
60551.7 42306 lineto
60551.7 41991 lineto
poly1
0 0 0 setrgbcolor
newpath
61338.7 41617 moveto
61653.7 41617 lineto
61653.7 41932 lineto
61338.7 41932 lineto
61338.7 41617 lineto
poly1
0 0 0 setrgbcolor
newpath
59272.5 41853.2 moveto
59784.3 41853.2 lineto
59784.3 42443.8 lineto
59272.5 42443.8 lineto
59272.5 41853.2 lineto
poly1
0 0 0 setrgbcolor
newpath
59272.5 42916.2 moveto
59784.3 42916.2 lineto
59784.3 43506.8 lineto
59272.5 43506.8 lineto
59272.5 42916.2 lineto
poly1
0 0 0 setrgbcolor
newpath
59784.3 41538.3 moveto
59272.5 41538.3 lineto
59272.5 40947.7 lineto
59784.3 40947.7 lineto
59784.3 41538.3 lineto
poly1
0 0 0 setrgbcolor
newpath
59784.3 40475.3 moveto
59272.5 40475.3 lineto
59272.5 39884.7 lineto
59784.3 39884.7 lineto
59784.3 40475.3 lineto
poly1
0 0 0 setrgbcolor
newpath
61811.9 43644.6 moveto
61811.9 44156.4 lineto
61221.3 44156.4 lineto
61221.3 43644.6 lineto
61811.9 43644.6 lineto
poly1
0 0 0 setrgbcolor
newpath
60748.9 43644.6 moveto
60748.9 44156.4 lineto
60158.3 44156.4 lineto
60158.3 43644.6 lineto
60748.9 43644.6 lineto
poly1
0 0 0 setrgbcolor
newpath
60158.3 43290.2 moveto
60158.3 42778.4 lineto
60748.9 42778.4 lineto
60748.9 43290.2 lineto
60158.3 43290.2 lineto
poly1
0 0 0 setrgbcolor
newpath
61221.3 43290.2 moveto
61221.3 42778.4 lineto
61811.9 42778.4 lineto
61811.9 43290.2 lineto
61221.3 43290.2 lineto
poly1
0 0 0 setrgbcolor
newpath
55886.7 48448 moveto
55886.7 48133 lineto
56201.7 48133 lineto
56201.7 48448 lineto
55886.7 48448 lineto
poly1
0 0 0 setrgbcolor
newpath
56634.7 48448 moveto
56634.7 48133 lineto
56949.7 48133 lineto
56949.7 48448 lineto
56634.7 48448 lineto
poly1
0 0 0 setrgbcolor
newpath
56260.7 47661 moveto
56260.7 47346 lineto
56575.7 47346 lineto
56575.7 47661 lineto
56260.7 47661 lineto
poly1
0 0 0 setrgbcolor
newpath
55545.7 49957.2 moveto
56345.7 49957.2 lineto
56345.7 50757.2 lineto
55545.7 50757.2 lineto
55545.7 49957.2 lineto
poly1
0 0 0 setrgbcolor
800 setlinewidth
newpath
54945.7 50357.2 moveto
54945.7 50357.2 lineto
stroke
0 0 0 setrgbcolor
0 setlinewidth
newpath
53471.7 49996.5 moveto
53471.7 50796.5 lineto
52671.7 50796.5 lineto
52671.7 49996.5 lineto
53471.7 49996.5 lineto
poly1
0 0 0 setrgbcolor
800 setlinewidth
newpath
53071.7 49396.5 moveto
53071.7 49396.5 lineto
stroke
0 0 0 setrgbcolor
0 setlinewidth
newpath
60867 46164.3 moveto
60867 46676.1 lineto
60276.5 46676.1 lineto
60276.5 46164.3 lineto
60867 46164.3 lineto
poly1
0 0 0 setrgbcolor
newpath
59804 46164.3 moveto
59804 46676.1 lineto
59213.5 46676.1 lineto
59213.5 46164.3 lineto
59804 46164.3 lineto
poly1
0 0 0 setrgbcolor
newpath
59213.5 45849.3 moveto
59213.5 45337.5 lineto
59804 45337.5 lineto
59804 45849.3 lineto
59213.5 45849.3 lineto
poly1
0 0 0 setrgbcolor
newpath
60276.5 45849.3 moveto
60276.5 45337.5 lineto
60867 45337.5 lineto
60867 45849.3 lineto
60276.5 45849.3 lineto
poly1
0 0 0 setrgbcolor
newpath
63175.5 46158.9 moveto
63175.5 46838.9 lineto
62495.5 46838.9 lineto
62495.5 46158.9 lineto
63175.5 46158.9 lineto
poly1
0 0 0 setrgbcolor
680 setlinewidth
newpath
61835.5 46498.9 moveto
61835.5 46498.9 lineto
stroke
0 0 0 setrgbcolor
newpath
62835.5 45498.9 moveto
62835.5 45498.9 lineto
stroke
0 0 0 setrgbcolor
newpath
61835.5 45498.9 moveto
61835.5 45498.9 lineto
stroke
0 0 0 setrgbcolor
0 setlinewidth
newpath
48563.9 42089.4 moveto
49075.7 42089.4 lineto
49075.7 42680 lineto
48563.9 42680 lineto
48563.9 42089.4 lineto
poly1
0 0 0 setrgbcolor
newpath
48563.9 43152.4 moveto
49075.7 43152.4 lineto
49075.7 43743 lineto
48563.9 43743 lineto
48563.9 43152.4 lineto
poly1
0 0 0 setrgbcolor
54922.1 47640.6 236.22 cir1
39.3701 setlinewidth
0 0 0 setrgbcolor
0 setlinewidth
61615 40160.3 236.22 cir1
39.3701 setlinewidth
0 0 0 setrgbcolor
0 setlinewidth
53544.2 42128.8 236.22 cir1
39.3701 setlinewidth
0 0 0 setrgbcolor
0 setlinewidth
53544.2 44491 236.22 cir1
39.3701 setlinewidth
0 0 0 setrgbcolor
0 setlinewidth
58071.7 42561.9 236.22 cir1
39.3701 setlinewidth
0 0 0 setrgbcolor
0 setlinewidth
55748.9 47050.1 236.22 cir1
39.3701 setlinewidth
0 0 0 setrgbcolor
0 setlinewidth
56300.1 42620.9 236.22 cir1
39.3701 setlinewidth
0 0 0 setrgbcolor
0 setlinewidth
54922.1 42620.9 236.22 cir1
39.3701 setlinewidth
0 0 0 setrgbcolor
196.85 setlinewidth
newpath
62756.8 40829.6 moveto
62284.3 40829.6 lineto
stroke
0 0 0 setrgbcolor
newpath
54922.1 47640.6 moveto
54922.1 48290.5 lineto
stroke
0 0 0 setrgbcolor
newpath
62284.3 40829.6 moveto
61615 40160.3 lineto
stroke
0 0 0 setrgbcolor
157.48 setlinewidth
newpath
54941.8 49176.1 moveto
54941.8 48447.7 lineto
stroke
0 0 0 setrgbcolor
newpath
54922.1 48428 moveto
54922.1 48290.5 lineto
stroke
0 0 0 setrgbcolor
newpath
54941.8 48447.7 moveto
54922.1 48428 lineto
stroke
0 0 0 setrgbcolor
newpath
53071.7 49396.5 moveto
53071.7 49018.6 lineto
stroke
0 0 0 setrgbcolor
newpath
53071.7 49018.6 moveto
53799.8 48290.5 lineto
stroke
0 0 0 setrgbcolor
newpath
56044.2 48290.5 moveto
54922.1 48290.5 lineto
stroke
0 0 0 setrgbcolor
newpath
54922.1 48290.5 moveto
53799.8 48290.5 lineto
stroke
0 0 0 setrgbcolor
newpath
53799.8 48290.5 moveto
50217.7 48290.5 lineto
stroke
0 0 0 setrgbcolor
newpath
50217.7 48290.5 moveto
50040.2 48113.1 lineto
stroke
0 0 0 setrgbcolor
newpath
55138.7 44756.8 moveto
53809.9 44756.8 lineto
stroke
0 0 0 setrgbcolor
newpath
53809.9 44756.8 moveto
53544.2 44491 lineto
stroke
0 0 0 setrgbcolor
newpath
55138.7 44756.8 moveto
55620.9 44756.8 lineto
stroke
0 0 0 setrgbcolor
newpath
55620.9 44756.8 moveto
55630.8 44766.6 lineto
stroke
0 0 0 setrgbcolor
newpath
55138.7 44756.8 moveto
54656.4 44756.8 lineto
stroke
0 0 0 setrgbcolor
newpath
54656.4 44756.8 moveto
54646.5 44766.6 lineto
stroke
0 0 0 setrgbcolor
newpath
51575.7 43703.6 moveto
51182 43703.6 lineto
stroke
0 0 0 setrgbcolor
newpath
51182 43703.6 moveto
50000.9 42522.5 lineto
stroke
0 0 0 setrgbcolor
newpath
54784.3 45012.7 moveto
52983.1 45012.7 lineto
stroke
0 0 0 setrgbcolor
newpath
52756.8 44786.3 moveto
52756.8 43841.4 lineto
stroke
0 0 0 setrgbcolor
newpath
52983.1 45012.7 moveto
52756.8 44786.3 lineto
stroke
0 0 0 setrgbcolor
newpath
56103.2 45012.7 moveto
56103.2 46853.2 lineto
stroke
0 0 0 setrgbcolor
newpath
56103.2 46853.2 moveto
55867 47089.4 lineto
stroke
0 0 0 setrgbcolor
newpath
54784.3 45012.7 moveto
56103.2 45012.7 lineto
stroke
0 0 0 setrgbcolor
newpath
56103.2 45012.7 moveto
57619 45012.7 lineto
stroke
0 0 0 setrgbcolor
newpath
57619 45012.7 moveto
58534.3 45012.7 lineto
stroke
0 0 0 setrgbcolor
newpath
58741 44806 moveto
59508.7 44806 lineto
stroke
0 0 0 setrgbcolor
newpath
58534.3 45012.7 moveto
58741 44806 lineto
stroke
0 0 0 setrgbcolor
newpath
50000.9 42522.5 moveto
50000.9 41439.8 lineto
stroke
0 0 0 setrgbcolor
newpath
52756.8 43841.4 moveto
51713.5 43841.4 lineto
stroke
0 0 0 setrgbcolor
newpath
51713.5 43841.4 moveto
51575.7 43703.6 lineto
stroke
0 0 0 setrgbcolor
newpath
50000.9 42522.5 moveto
48957.6 42522.5 lineto
stroke
0 0 0 setrgbcolor
newpath
48957.6 42522.5 moveto
48819.8 42384.7 lineto
stroke
0 0 0 setrgbcolor
118.11 setlinewidth
newpath
48957.6 42522.5 moveto
48819.8 42384.7 lineto
stroke
0 0 0 setrgbcolor
196.85 setlinewidth
newpath
57768.6 41735.1 moveto
57768.6 42258.7 lineto
stroke
0 0 0 setrgbcolor
newpath
57768.6 42258.7 moveto
58071.7 42561.9 lineto
stroke
0 0 0 setrgbcolor
newpath
55748.9 47050.1 moveto
55788.3 47089.4 lineto
stroke
0 0 0 setrgbcolor
newpath
55788.3 47089.4 moveto
55867 47089.4 lineto
stroke
0 0 0 setrgbcolor
newpath
55867 47089.4 moveto
56418.2 47089.4 lineto
stroke
0 0 0 setrgbcolor
157.48 setlinewidth
newpath
56418.2 47089.4 moveto
56418.2 47503.5 lineto
stroke
0 0 0 setrgbcolor
196.85 setlinewidth
newpath
57768.6 41735.1 moveto
57768.6 40900.5 lineto
stroke
0 0 0 setrgbcolor
newpath
57768.6 40900.5 moveto
57461.5 40593.4 lineto
stroke
0 0 0 setrgbcolor
157.48 setlinewidth
newpath
59302 45012.7 moveto
59508.7 44806 lineto
stroke
0 0 0 setrgbcolor
newpath
57678 47384.7 moveto
56537 47384.7 lineto
stroke
0 0 0 setrgbcolor
newpath
56537 47384.7 moveto
56418.2 47503.5 lineto
stroke
0 0 0 setrgbcolor
newpath
61811.9 46498.9 moveto
60650.5 46498.9 lineto
stroke
0 0 0 setrgbcolor
newpath
60650.5 46498.9 moveto
60571.7 46420.2 lineto
stroke
0 0 0 setrgbcolor
newpath
54784.3 45268.6 moveto
51762.7 45268.6 lineto
stroke
0 0 0 setrgbcolor
newpath
50508.7 43522.5 moveto
50000.9 43522.5 lineto
stroke
0 0 0 setrgbcolor
newpath
50788.3 43802 moveto
50508.7 43522.5 lineto
stroke
0 0 0 setrgbcolor
newpath
50788.3 44294.2 moveto
50788.3 43802 lineto
stroke
0 0 0 setrgbcolor
newpath
51762.7 45268.6 moveto
50788.3 44294.2 lineto
stroke
0 0 0 setrgbcolor
newpath
50000.9 43522.5 moveto
48894.6 43522.5 lineto
stroke
0 0 0 setrgbcolor
newpath
48894.6 43522.5 moveto
48819.8 43447.7 lineto
stroke
0 0 0 setrgbcolor
newpath
50213.5 43522.5 moveto
50000.9 43522.5 lineto
stroke
0 0 0 setrgbcolor
118.11 setlinewidth
newpath
48894.6 43522.5 moveto
48819.8 43447.7 lineto
stroke
0 0 0 setrgbcolor
newpath
50213.5 43522.5 moveto
50000.9 43522.5 lineto
stroke
0 0 0 setrgbcolor
157.48 setlinewidth
newpath
54784.3 46036.3 moveto
53967.4 46036.3 lineto
stroke
0 0 0 setrgbcolor
newpath
53622.9 46380.8 moveto
53622.9 47286.3 lineto
stroke
0 0 0 setrgbcolor
newpath
53967.4 46036.3 moveto
53622.9 46380.8 lineto
stroke
0 0 0 setrgbcolor
newpath
54784.3 45780.4 moveto
53140.6 45780.4 lineto
stroke
0 0 0 setrgbcolor
newpath
52622.9 46298.1 moveto
52622.9 47286.3 lineto
stroke
0 0 0 setrgbcolor
newpath
53140.6 45780.4 moveto
52622.9 46298.1 lineto
stroke
0 0 0 setrgbcolor
newpath
62756.8 41798.1 moveto
61519.9 41798.1 lineto
stroke
0 0 0 setrgbcolor
newpath
61519.9 41798.1 moveto
61496.2 41774.5 lineto
stroke
0 0 0 setrgbcolor
newpath
62756.8 42829.6 moveto
62756.8 43467.4 lineto
stroke
0 0 0 setrgbcolor
newpath
62323.7 43900.5 moveto
61516.6 43900.5 lineto
stroke
0 0 0 setrgbcolor
newpath
62756.8 43467.4 moveto
62323.7 43900.5 lineto
stroke
0 0 0 setrgbcolor
newpath
54784.3 45524.5 moveto
52117 45524.5 lineto
stroke
0 0 0 setrgbcolor
newpath
50528.4 47113.1 moveto
50040.2 47113.1 lineto
stroke
0 0 0 setrgbcolor
newpath
52117 45524.5 moveto
50528.4 47113.1 lineto
stroke
0 0 0 setrgbcolor
newpath
50410.3 47113.1 moveto
50040.2 47113.1 lineto
stroke
0 0 0 setrgbcolor
newpath
57268.6 42998.9 moveto
57268.6 41735.1 lineto
stroke
0 0 0 setrgbcolor
newpath
57579.6 43309.9 moveto
57268.6 42998.9 lineto
stroke
0 0 0 setrgbcolor
newpath
58071.7 43309.9 moveto
57579.6 43309.9 lineto
stroke
0 0 0 setrgbcolor
newpath
58268.6 43506.8 moveto
58071.7 43309.9 lineto
stroke
0 0 0 setrgbcolor
newpath
58268.6 43900.5 moveto
58268.6 43506.8 lineto
stroke
0 0 0 setrgbcolor
newpath
58180 43989.1 moveto
58268.6 43900.5 lineto
stroke
0 0 0 setrgbcolor
newpath
57619 43989.1 moveto
58180 43989.1 lineto
stroke
0 0 0 setrgbcolor
newpath
57845.4 43989.1 moveto
57461.5 43989.1 lineto
stroke
0 0 0 setrgbcolor
newpath
57619 43733.1 moveto
57117 43733.1 lineto
stroke
0 0 0 setrgbcolor
newpath
56768.6 43384.7 moveto
56768.6 41735.1 lineto
stroke
0 0 0 setrgbcolor
newpath
57117 43733.1 moveto
56768.6 43384.7 lineto
stroke
0 0 0 setrgbcolor
newpath
56268.6 41735.1 moveto
56268.6 41408.3 lineto
stroke
0 0 0 setrgbcolor
newpath
54361.1 43733.1 moveto
54784.3 43733.1 lineto
stroke
0 0 0 setrgbcolor
newpath
54134.7 43506.8 moveto
54361.1 43733.1 lineto
stroke
0 0 0 setrgbcolor
newpath
54134.7 41538.3 moveto
54134.7 43506.8 lineto
stroke
0 0 0 setrgbcolor
newpath
54331.6 41341.4 moveto
54134.7 41538.3 lineto
stroke
0 0 0 setrgbcolor
newpath
54528.4 41144.6 moveto
54331.6 41341.4 lineto
stroke
0 0 0 setrgbcolor
newpath
56004.8 41144.6 moveto
54528.4 41144.6 lineto
stroke
0 0 0 setrgbcolor
newpath
56268.6 41408.3 moveto
56004.8 41144.6 lineto
stroke
0 0 0 setrgbcolor
newpath
54784.3 44245 moveto
55561.9 44245 lineto
stroke
0 0 0 setrgbcolor
newpath
55768.6 44038.3 moveto
55768.6 41735.1 lineto
stroke
0 0 0 setrgbcolor
newpath
55561.9 44245 moveto
55768.6 44038.3 lineto
stroke
0 0 0 setrgbcolor
newpath
54784.3 43989.1 moveto
55325.7 43989.1 lineto
stroke
0 0 0 setrgbcolor
newpath
55268.6 42180 moveto
55268.6 41735.1 lineto
stroke
0 0 0 setrgbcolor
newpath
55414.3 42325.7 moveto
55268.6 42180 lineto
stroke
0 0 0 setrgbcolor
newpath
55414.3 43900.5 moveto
55414.3 42325.7 lineto
stroke
0 0 0 setrgbcolor
newpath
55325.7 43989.1 moveto
55414.3 43900.5 lineto
stroke
0 0 0 setrgbcolor
newpath
54768.6 41735.1 moveto
54768.6 42467.4 lineto
stroke
0 0 0 setrgbcolor
newpath
56939.8 44245 moveto
57619 44245 lineto
stroke
0 0 0 setrgbcolor
newpath
56300.1 43605.2 moveto
56939.8 44245 lineto
stroke
0 0 0 setrgbcolor
newpath
56300.1 42620.9 moveto
56300.1 43605.2 lineto
stroke
0 0 0 setrgbcolor
newpath
54768.6 42467.4 moveto
54922.1 42620.9 lineto
stroke
0 0 0 setrgbcolor
newpath
60709.2 41400.5 moveto
59685.9 41400.5 lineto
stroke
0 0 0 setrgbcolor
newpath
59685.9 41400.5 moveto
59528.4 41243 lineto
stroke
0 0 0 setrgbcolor
newpath
59528.4 42148.5 moveto
59528.4 41243 lineto
stroke
0 0 0 setrgbcolor
newpath
57619 44500.9 moveto
58258.7 44500.9 lineto
stroke
0 0 0 setrgbcolor
newpath
58258.7 44500.9 moveto
59528.4 43231.2 lineto
stroke
0 0 0 setrgbcolor
newpath
59528.4 43231.2 moveto
59528.4 43211.5 lineto
stroke
0 0 0 setrgbcolor
newpath
57461.5 44500.9 moveto
57825.7 44500.9 lineto
stroke
0 0 0 setrgbcolor
newpath
57619 44756.8 moveto
58396.5 44756.8 lineto
stroke
0 0 0 setrgbcolor
newpath
59252.8 43900.5 moveto
60453.6 43900.5 lineto
stroke
0 0 0 setrgbcolor
newpath
58396.5 44756.8 moveto
59252.8 43900.5 lineto
stroke
0 0 0 setrgbcolor
newpath
60453.6 43034.3 moveto
60453.6 43900.5 lineto
stroke
0 0 0 setrgbcolor
newpath
54945.7 50357.2 moveto
53111.1 50357.2 lineto
stroke
0 0 0 setrgbcolor
newpath
53111.1 50357.2 moveto
53071.7 50396.5 lineto
stroke
0 0 0 setrgbcolor
newpath
57619 45780.4 moveto
58180 45780.4 lineto
stroke
0 0 0 setrgbcolor
newpath
58819.8 46420.2 moveto
59508.7 46420.2 lineto
stroke
0 0 0 setrgbcolor
newpath
58180 45780.4 moveto
58819.8 46420.2 lineto
stroke
0 0 0 setrgbcolor
newpath
57619 45524.5 moveto
59439.8 45524.5 lineto
stroke
0 0 0 setrgbcolor
newpath
59439.8 45524.5 moveto
59508.7 45593.4 lineto
stroke
0 0 0 setrgbcolor
newpath
59439.8 45524.5 moveto
59508.7 45593.4 lineto
stroke
0 0 0 setrgbcolor
newpath
61811.9 45498.9 moveto
60666.2 45498.9 lineto
stroke
0 0 0 setrgbcolor
newpath
60666.2 45498.9 moveto
60571.7 45593.4 lineto
stroke
0 0 0 setrgbcolor
newpath
54784.3 44500.9 moveto
54243 44500.9 lineto
stroke
0 0 0 setrgbcolor
newpath
53406.4 42778.4 moveto
52756.8 42778.4 lineto
stroke
0 0 0 setrgbcolor
newpath
53741 43113.1 moveto
53406.4 42778.4 lineto
stroke
0 0 0 setrgbcolor
newpath
53741 43998.9 moveto
53741 43113.1 lineto
stroke
0 0 0 setrgbcolor
newpath
54243 44500.9 moveto
53741 43998.9 lineto
stroke
0 0 0 setrgbcolor
newpath
52756.8 42778.4 moveto
51650.5 42778.4 lineto
stroke
0 0 0 setrgbcolor
newpath
51650.5 42778.4 moveto
51575.7 42703.6 lineto
stroke
0 0 0 setrgbcolor
118.11 setlinewidth
newpath
52044.2 42778.4 moveto
51969.4 42703.6 lineto
stroke
0 0 0 setrgbcolor
98.4252 setlinewidth
newpath
46241 39550.1 moveto
63603.2 39550.1 lineto
63603.2 41169.6 lineto
63307.3 41169.6 lineto
63307.3 40489.6 lineto
63297 40434.9 lineto
63264.7 40384.6 lineto
63215.3 40350.9 lineto
63156.8 40339.1 lineto
62356.8 40339.1 lineto
62302.1 40349.4 lineto
62251.8 40381.7 lineto
62224.5 40421.7 lineto
61998.9 40196.2 lineto
61999 40084.3 lineto
61940.6 39943.2 lineto
61832.8 39835.1 lineto
61691.7 39776.5 lineto
61539 39776.4 lineto
61397.9 39834.7 lineto
61289.8 39942.6 lineto
61238.2 40066.9 lineto
60033.5 40066.9 lineto
60033.5 39835.2 lineto
59995.6 39743.6 lineto
59925.5 39673.5 lineto
59833.9 39635.5 lineto
59641.5 39635.5 lineto
59579.2 39697.8 lineto
59579.2 40129.2 lineto
59477.6 40129.2 lineto
59477.6 39697.8 lineto
59415.3 39635.5 lineto
59222.9 39635.5 lineto
59131.4 39673.5 lineto
59061.2 39743.6 lineto
59023.3 39835.2 lineto
59023.3 40066.9 lineto
59085.6 40129.2 lineto
59477.6 40129.2 lineto
59579.2 40129.2 lineto
59971.2 40129.2 lineto
60033.5 40066.9 lineto
61238.2 40066.9 lineto
61231.2 40083.6 lineto
61231.1 40236.3 lineto
61289.4 40377.5 lineto
61397.3 40485.5 lineto
61492 40524.8 lineto
60033.5 40524.8 lineto
60033.5 40293.1 lineto
59971.2 40230.8 lineto
59579.2 40230.8 lineto
59579.2 40662.2 lineto
59477.6 40662.2 lineto
59477.6 40230.8 lineto
59085.6 40230.8 lineto
59023.3 40293.1 lineto
59023.3 40480.3 lineto
58990.2 40480.3 lineto
58990.2 40297.8 lineto
58952.3 40206.2 lineto
58882.2 40136.1 lineto
58790.6 40098.1 lineto
58558.8 40098.1 lineto
58496.5 40160.4 lineto
58496.5 40542.6 lineto
58927.9 40542.6 lineto
58990.2 40480.3 lineto
59023.3 40480.3 lineto
59023.3 40524.8 lineto
59061.2 40616.4 lineto
59131.4 40686.5 lineto
59222.9 40724.5 lineto
59415.3 40724.5 lineto
59477.6 40662.2 lineto
59579.2 40662.2 lineto
59641.5 40724.5 lineto
59833.9 40724.5 lineto
59925.5 40686.5 lineto
59995.6 40616.4 lineto
60033.5 40524.8 lineto
61492 40524.8 lineto
61538.4 40544.1 lineto
61650.9 40544.2 lineto
62110.3 41003.6 lineto
62190.2 41056.9 lineto
62206.2 41060.1 lineto
62206.2 41169.6 lineto
62216.5 41224.3 lineto
62248.9 41274.6 lineto
62298.2 41308.3 lineto
62356.8 41320.1 lineto
63156.8 41320.1 lineto
63211.5 41309.8 lineto
63261.7 41277.5 lineto
63295.4 41228.2 lineto
63307.3 41169.6 lineto
63603.2 41169.6 lineto
63603.2 41829.6 lineto
63315.1 41829.6 lineto
63278 41643 lineto
63172.3 41484.8 lineto
63014.1 41379.1 lineto
62827.5 41342 lineto
62686 41342 lineto
62499.4 41379.1 lineto
62341.2 41484.8 lineto
62283.1 41571.7 lineto
61795.7 41571.7 lineto
61794 41562.3 lineto
61761.6 41512 lineto
61712.3 41478.3 lineto
61653.7 41466.5 lineto
61338.7 41466.5 lineto
61284 41476.8 lineto
61233.8 41509.1 lineto
61200.4 41558 lineto
61017.3 41558 lineto
61017.3 41243 lineto
61007 41188.3 lineto
60974.6 41138 lineto
60925.3 41104.3 lineto
60866.7 41092.4 lineto
60551.7 41092.4 lineto
60497 41102.7 lineto
60446.8 41135.1 lineto
60420.1 41174.1 lineto
59934.9 41174.1 lineto
59934.9 40947.7 lineto
59924.6 40893 lineto
59892.2 40842.8 lineto
59842.9 40809 lineto
59784.3 40797.2 lineto
59272.5 40797.2 lineto
59217.8 40807.5 lineto
59167.6 40839.8 lineto
59133.9 40889 lineto
58990.2 40889 lineto
58990.2 40706.5 lineto
58927.9 40644.2 lineto
58496.5 40644.2 lineto
58496.5 41026.4 lineto
58558.8 41088.7 lineto
58790.6 41088.7 lineto
58882.2 41050.7 lineto
58952.3 40980.6 lineto
58990.2 40889 lineto
59133.9 40889 lineto
59133.8 40889.2 lineto
59122 40947.7 lineto
59122 41538.3 lineto
59132.3 41593 lineto
59151 41622 lineto
58754 41622 lineto
58754 41449.3 lineto
58716.1 41357.7 lineto
58646 41287.6 lineto
58554.4 41249.7 lineto
58381.7 41249.7 lineto
58319.4 41312 lineto
58319.4 41684.3 lineto
58691.7 41684.3 lineto
58754 41622 lineto
59151 41622 lineto
59164.6 41643.2 lineto
59214 41676.9 lineto
59272.5 41688.8 lineto
59302 41688.8 lineto
59302 41702.7 lineto
59272.5 41702.7 lineto
59217.8 41713 lineto
59167.6 41745.3 lineto
59133.8 41794.7 lineto
59122 41853.2 lineto
59122 42020.9 lineto
58754 42020.9 lineto
58754 41848.2 lineto
58691.7 41785.9 lineto
58319.4 41785.9 lineto
58319.4 42158.2 lineto
58381.7 42220.6 lineto
58554.4 42220.6 lineto
58646 42182.6 lineto
58716.1 42112.5 lineto
58754 42020.9 lineto
59122 42020.9 lineto
59122 42443.8 lineto
59132.3 42498.5 lineto
59164.6 42548.7 lineto
59214 42582.4 lineto
59272.5 42594.3 lineto
59784.3 42594.3 lineto
59839 42584 lineto
59889.3 42551.7 lineto
59923 42502.3 lineto
59934.9 42443.8 lineto
59934.9 41853.2 lineto
59924.6 41798.5 lineto
59892.2 41748.3 lineto
59842.9 41714.6 lineto
59784.3 41702.7 lineto
59754.8 41702.7 lineto
59754.8 41688.8 lineto
59784.3 41688.8 lineto
59839 41678.5 lineto
59889.3 41646.2 lineto
59902.5 41626.9 lineto
60420.6 41626.9 lineto
60443.8 41662.9 lineto
60493.2 41696.6 lineto
60551.7 41708.5 lineto
60866.7 41708.5 lineto
60921.4 41698.2 lineto
60971.7 41665.9 lineto
61005.4 41616.5 lineto
61017.3 41558 lineto
61200.4 41558 lineto
61200.1 41558.4 lineto
61188.2 41617 lineto
61188.2 41932 lineto
61198.5 41986.7 lineto
61229.8 42035.4 lineto
61115.9 42035.4 lineto
61115.9 41941.4 lineto
61078 41849.8 lineto
61007.9 41779.7 lineto
60916.3 41741.8 lineto
60822.3 41741.8 lineto
60760 41804.1 lineto
60760 42097.7 lineto
60658.4 42097.7 lineto
60658.4 41804.1 lineto
60596.1 41741.8 lineto
60502.2 41741.8 lineto
60410.6 41779.7 lineto
60340.5 41849.8 lineto
60302.5 41941.4 lineto
60302.5 42035.4 lineto
60364.8 42097.7 lineto
60658.4 42097.7 lineto
60760 42097.7 lineto
61053.6 42097.7 lineto
61115.9 42035.4 lineto
61229.8 42035.4 lineto
61230.8 42036.9 lineto
61280.2 42070.7 lineto
61338.7 42082.5 lineto
61653.7 42082.5 lineto
61708.4 42072.2 lineto
61758.7 42039.9 lineto
61769.2 42024.5 lineto
62241.1 42024.5 lineto
62341.2 42174.4 lineto
62499.4 42280.1 lineto
62686 42317.2 lineto
62827.5 42317.2 lineto
63014.1 42280.1 lineto
63172.3 42174.4 lineto
63278 42016.2 lineto
63315.1 41829.6 lineto
63603.2 41829.6 lineto
63603.2 42829.6 lineto
63315.1 42829.6 lineto
63278 42643 lineto
63172.3 42484.8 lineto
63014.1 42379.1 lineto
62827.5 42342 lineto
62686 42342 lineto
62617.6 42355.6 lineto
61115.9 42355.6 lineto
61115.9 42261.6 lineto
61053.6 42199.3 lineto
60760 42199.3 lineto
60760 42492.9 lineto
60658.4 42492.9 lineto
60658.4 42199.3 lineto
60364.8 42199.3 lineto
60302.5 42261.6 lineto
60302.5 42355.6 lineto
60340.5 42447.2 lineto
60410.6 42517.3 lineto
60502.2 42555.2 lineto
60596.1 42555.2 lineto
60658.4 42492.9 lineto
60760 42492.9 lineto
60822.3 42555.2 lineto
60916.3 42555.2 lineto
61007.9 42517.3 lineto
61078 42447.2 lineto
61115.9 42355.6 lineto
62617.6 42355.6 lineto
62499.4 42379.1 lineto
62341.2 42484.8 lineto
62235.5 42643 lineto
62198.4 42829.6 lineto
62216.6 42921.2 lineto
62061.1 42921.2 lineto
62061.1 42728.9 lineto
62023.2 42637.3 lineto
61953.1 42567.2 lineto
61861.5 42529.2 lineto
61629.7 42529.2 lineto
61567.4 42591.5 lineto
61567.4 42983.5 lineto
61465.8 42983.5 lineto
61465.8 42591.5 lineto
61403.5 42529.2 lineto
61171.8 42529.2 lineto
61080.2 42567.2 lineto
61010.1 42637.3 lineto
60972.1 42728.9 lineto
60972.1 42921.2 lineto
61034.4 42983.5 lineto
61465.8 42983.5 lineto
61567.4 42983.5 lineto
61998.8 42983.5 lineto
62061.1 42921.2 lineto
62216.6 42921.2 lineto
62235.5 43016.2 lineto
62341.2 43174.4 lineto
62499.4 43280.1 lineto
62530.4 43286.3 lineto
62530.4 43373.6 lineto
62229.9 43674.1 lineto
61962.4 43674.1 lineto
61962.4 43644.6 lineto
61952.1 43589.9 lineto
61919.8 43539.6 lineto
61897.6 43524.5 lineto
61953.1 43501.5 lineto
62023.2 43431.4 lineto
62061.1 43339.8 lineto
62061.1 43147.4 lineto
61998.8 43085.1 lineto
61567.4 43085.1 lineto
61567.4 43093 lineto
61465.8 43093 lineto
61465.8 43085.1 lineto
61034.4 43085.1 lineto
60972.1 43147.4 lineto
60972.1 43339.8 lineto
61010.1 43431.4 lineto
61080.2 43501.5 lineto
61135.4 43524.4 lineto
61116.4 43536.7 lineto
61082.7 43586 lineto
61070.8 43644.6 lineto
61070.8 44156.4 lineto
61081.1 44211.1 lineto
61113.4 44261.3 lineto
61162.8 44295 lineto
61221.3 44306.9 lineto
61811.9 44306.9 lineto
61866.6 44296.6 lineto
61916.8 44264.3 lineto
61950.6 44214.9 lineto
61962.4 44156.4 lineto
61962.4 44126.9 lineto
62323.7 44126.9 lineto
62410.3 44109.6 lineto
62483.8 44060.5 lineto
62916.8 43627.5 lineto
62965.9 43554 lineto
62983.1 43467.4 lineto
62983.1 43286.3 lineto
63014.1 43280.1 lineto
63172.3 43174.4 lineto
63278 43016.2 lineto
63315.1 42829.6 lineto
63603.2 42829.6 lineto
63603.2 44692.9 lineto
61037.5 44692.9 lineto
61037.5 44510.3 lineto
60999.5 44418.8 lineto
60929.4 44348.6 lineto
60837.8 44310.7 lineto
60606.1 44310.7 lineto
60543.8 44373 lineto
60543.8 44755.2 lineto
60975.2 44755.2 lineto
61037.5 44692.9 lineto
63603.2 44692.9 lineto
63603.2 45356.9 lineto
63407.4 45356.9 lineto
63340.3 45194.9 lineto
63185.5 45024.9 lineto
62977.5 44927 lineto
62886.3 44974.2 lineto
62886.3 45448.1 lineto
63360 45448.1 lineto
63407.4 45356.9 lineto
63603.2 45356.9 lineto
63603.2 46385.8 lineto
63424.7 46385.8 lineto
63424.7 46109.3 lineto
63386.8 46017.7 lineto
63316.7 45947.6 lineto
63238.1 45915.1 lineto
63340.3 45802.9 lineto
63407.4 45640.9 lineto
63360 45549.7 lineto
62886.3 45549.7 lineto
62886.3 46448.1 lineto
63362.4 46448.1 lineto
63424.7 46385.8 lineto
63603.2 46385.8 lineto
63603.2 46888.5 lineto
63424.7 46888.5 lineto
63424.7 46612 lineto
63362.4 46549.7 lineto
62886.3 46549.7 lineto
62886.3 47025.8 lineto
62784.7 47025.8 lineto
62784.7 46549.7 lineto
62776.9 46549.7 lineto
62776.9 46448.1 lineto
62784.7 46448.1 lineto
62784.7 45549.7 lineto
62776.9 45549.7 lineto
62776.9 45448.1 lineto
62784.7 45448.1 lineto
62784.7 44974.2 lineto
62693.5 44927 lineto
62485.5 45024.9 lineto
62330.7 45194.9 lineto
62287.3 45299.9 lineto
62189.9 45154.1 lineto
62031.7 45048.4 lineto
61845.1 45011.3 lineto
61826 45011.3 lineto
61639.3 45048.4 lineto
61481.1 45154.1 lineto
61402 45272.5 lineto
61000.6 45272.5 lineto
60974.9 45232.5 lineto
60966.2 45226.6 lineto
60999.5 45193.2 lineto
61037.5 45101.6 lineto
61037.5 44919.1 lineto
60975.2 44856.8 lineto
60543.8 44856.8 lineto
60543.8 44864.6 lineto
60442.2 44864.6 lineto
60442.2 44856.8 lineto
60434.3 44856.8 lineto
60434.3 44755.2 lineto
60442.2 44755.2 lineto
60442.2 44373 lineto
60379.9 44310.7 lineto
60148.1 44310.7 lineto
60056.5 44348.6 lineto
59986.4 44418.8 lineto
59948.5 44510.3 lineto
59948.5 44527.8 lineto
59944.3 44505.2 lineto
59911.9 44455 lineto
59862.6 44421.3 lineto
59804 44409.4 lineto
59213.5 44409.4 lineto
59158.8 44419.7 lineto
59108.5 44452 lineto
59074.8 44501.4 lineto
59062.9 44559.9 lineto
59062.9 44579.6 lineto
58893.8 44579.6 lineto
59346.6 44126.9 lineto
60007.8 44126.9 lineto
60007.8 44156.4 lineto
60018.1 44211.1 lineto
60050.4 44261.3 lineto
60099.8 44295 lineto
60158.3 44306.9 lineto
60748.9 44306.9 lineto
60803.6 44296.6 lineto
60853.9 44264.3 lineto
60887.6 44214.9 lineto
60899.4 44156.4 lineto
60899.4 43644.6 lineto
60889.1 43589.9 lineto
60856.8 43539.6 lineto
60807.5 43505.9 lineto
60748.9 43494 lineto
60680 43494 lineto
60680 43440.8 lineto
60748.9 43440.8 lineto
60803.6 43430.5 lineto
60853.9 43398.1 lineto
60887.6 43348.8 lineto
60899.4 43290.2 lineto
60899.4 42778.4 lineto
60889.1 42723.7 lineto
60856.8 42673.5 lineto
60807.5 42639.8 lineto
60748.9 42627.9 lineto
60158.3 42627.9 lineto
60103.6 42638.2 lineto
60053.4 42670.5 lineto
60019.7 42719.9 lineto
60007.8 42778.4 lineto
60007.8 43290.2 lineto
60018.1 43344.9 lineto
60050.4 43395.2 lineto
60099.8 43428.9 lineto
60158.3 43440.8 lineto
60227.2 43440.8 lineto
60227.2 43494 lineto
60158.3 43494 lineto
60103.6 43504.3 lineto
60053.4 43536.7 lineto
60019.7 43586 lineto
60007.8 43644.6 lineto
60007.8 43674.1 lineto
59405.7 43674.1 lineto
59422.5 43657.3 lineto
59784.3 43657.3 lineto
59839 43647 lineto
59889.3 43614.7 lineto
59923 43565.3 lineto
59934.9 43506.8 lineto
59934.9 42916.2 lineto
59924.6 42861.5 lineto
59892.2 42811.3 lineto
59842.9 42777.6 lineto
59784.3 42765.7 lineto
59272.5 42765.7 lineto
59217.8 42776 lineto
59167.6 42808.3 lineto
59133.8 42857.7 lineto
59122 42916.2 lineto
59122 43317.5 lineto
58484 43955.4 lineto
58495 43900.5 lineto
58495 43506.8 lineto
58481.8 43440.8 lineto
58477.7 43420.1 lineto
58428.7 43346.7 lineto
58231.8 43149.8 lineto
58158.4 43100.8 lineto
58071.7 43083.5 lineto
57673.4 43083.5 lineto
57495 42905.1 lineto
57495 42044.2 lineto
57518.6 42028.4 lineto
57522.5 42031 lineto
57522.5 42258.7 lineto
57541.2 42352.9 lineto
57594.6 42432.7 lineto
57594.6 42432.7 lineto
57687.9 42526 lineto
57687.8 42637.9 lineto
57746.1 42779 lineto
57854 42887.1 lineto
57995 42945.7 lineto
58147.8 42945.8 lineto
58288.9 42887.5 lineto
58397 42779.6 lineto
58455.5 42638.6 lineto
58455.7 42485.9 lineto
58397.3 42344.7 lineto
58289.5 42236.7 lineto
58183.4 42192.6 lineto
58217.8 42158.2 lineto
58217.8 41785.9 lineto
58209.9 41785.9 lineto
58209.9 41684.3 lineto
58217.8 41684.3 lineto
58217.8 41312 lineto
58155.5 41249.7 lineto
58014.6 41249.7 lineto
58014.6 41052.9 lineto
58100.9 41088.7 lineto
58332.7 41088.7 lineto
58395 41026.4 lineto
58395 40644.2 lineto
58387.1 40644.2 lineto
58387.1 40542.6 lineto
58395 40542.6 lineto
58395 40160.4 lineto
58332.7 40098.1 lineto
58100.9 40098.1 lineto
58009.3 40136.1 lineto
57939.2 40206.2 lineto
57901.3 40297.8 lineto
57901.3 40315.2 lineto
57897 40292.6 lineto
57864.7 40242.4 lineto
57815.3 40208.7 lineto
57756.8 40196.8 lineto
57166.2 40196.8 lineto
57111.5 40207.1 lineto
57061.3 40239.4 lineto
57027.5 40288.8 lineto
57015.7 40347.3 lineto
57015.7 40561.6 lineto
52207.5 40561.6 lineto
52206.8 40557 lineto
52107.3 40349.6 lineto
51935.9 40196.1 lineto
51718.8 40119.8 lineto
51626.5 40176.3 lineto
51626.5 40652.8 lineto
51524.9 40652.8 lineto
51524.9 40176.3 lineto
51432.5 40119.8 lineto
51215.5 40196.1 lineto
51052 40342.5 lineto
50496.1 40342.5 lineto
50496.1 40110.7 lineto
50458.2 40019.1 lineto
50388.1 39949 lineto
50296.5 39911.1 lineto
50114 39911.1 lineto
50051.7 39973.4 lineto
50051.7 40404.8 lineto
49950.1 40404.8 lineto
49950.1 39973.4 lineto
49887.8 39911.1 lineto
49705.2 39911.1 lineto
49613.6 39949 lineto
49543.5 40019.1 lineto
49505.6 40110.7 lineto
49505.6 40342.5 lineto
49567.9 40404.8 lineto
49950.1 40404.8 lineto
50051.7 40404.8 lineto
50433.8 40404.8 lineto
50496.1 40342.5 lineto
51052 40342.5 lineto
51044.1 40349.6 lineto
50944.5 40557 lineto
50943.8 40561.6 lineto
50991.2 40652.8 lineto
51524.9 40652.8 lineto
51626.5 40652.8 lineto
52160.1 40652.8 lineto
52207.5 40561.6 lineto
57015.7 40561.6 lineto
57015.7 40839.4 lineto
57016.9 40845.6 lineto
52207.5 40845.6 lineto
52160.1 40754.4 lineto
51626.5 40754.4 lineto
51626.5 40762.3 lineto
51524.9 40762.3 lineto
51524.9 40754.4 lineto
50991.2 40754.4 lineto
50943.8 40845.6 lineto
50944.5 40850.2 lineto
51044.1 41057.6 lineto
51215.5 41211.2 lineto
51328.9 41251 lineto
51318.3 41253.1 lineto
51160.1 41358.8 lineto
51054.4 41517 lineto
51017.3 41703.6 lineto
51054.4 41890.2 lineto
51160.1 42048.4 lineto
51318.3 42154.1 lineto
51504.9 42191.3 lineto
51646.4 42191.3 lineto
51833 42154.1 lineto
51991.2 42048.4 lineto
52096.9 41890.2 lineto
52134 41703.6 lineto
52096.9 41517 lineto
51991.2 41358.8 lineto
51833 41253.1 lineto
51822.5 41251 lineto
51935.9 41211.2 lineto
52107.3 41057.6 lineto
52206.8 40850.2 lineto
52207.5 40845.6 lineto
57016.9 40845.6 lineto
57026 40894.2 lineto
57058.3 40944.4 lineto
57107.7 40978.1 lineto
57166.2 40990 lineto
57510.1 40990 lineto
57522.5 41002.4 lineto
57522.5 41439.2 lineto
57518.6 41441.9 lineto
57415.5 41373 lineto
57268.6 41343.7 lineto
57121.7 41373 lineto
57018.6 41441.9 lineto
56915.5 41373 lineto
56768.6 41343.7 lineto
56621.7 41373 lineto
56518.6 41441.9 lineto
56495 41426.1 lineto
56495 41408.3 lineto
56481.6 41341.4 lineto
56477.7 41321.7 lineto
56428.7 41248.3 lineto
56164.9 40984.5 lineto
56091.4 40935.4 lineto
56004.8 40918.2 lineto
54528.4 40918.2 lineto
54441.8 40935.4 lineto
54368.4 40984.5 lineto
54171.5 41181.3 lineto
54171.5 41181.3 lineto
53974.7 41378.2 lineto
53925.6 41451.6 lineto
53908.3 41538.3 lineto
53908.3 42963.8 lineto
53901.1 42953 lineto
53566.5 42618.4 lineto
53493 42569.3 lineto
53406.4 42552 lineto
53163.2 42552 lineto
53163.2 42483.1 lineto
53152.9 42428.4 lineto
53120.6 42378.2 lineto
53071.2 42344.5 lineto
53012.7 42332.6 lineto
52500.9 42332.6 lineto
52446.2 42342.9 lineto
52395.9 42375.2 lineto
52362.2 42424.6 lineto
52350.3 42483.1 lineto
52350.3 42552 lineto
52107.4 42552 lineto
52103.3 42549.3 lineto
52096.9 42517 lineto
51991.2 42358.8 lineto
51833 42253.1 lineto
51646.4 42216 lineto
51504.9 42216 lineto
51318.3 42253.1 lineto
51160.1 42358.8 lineto
51054.4 42517 lineto
51017.3 42703.6 lineto
51054.4 42890.2 lineto
51160.1 43048.4 lineto
51318.3 43154.1 lineto
51504.9 43191.3 lineto
51646.4 43191.3 lineto
51833 43154.1 lineto
51991.2 43048.4 lineto
52020.4 43004.8 lineto
52350.3 43004.8 lineto
52350.3 43073.7 lineto
52360.6 43128.4 lineto
52393 43178.7 lineto
52442.3 43212.4 lineto
52500.9 43224.2 lineto
53012.7 43224.2 lineto
53067.4 43213.9 lineto
53117.6 43181.6 lineto
53151.3 43132.3 lineto
53163.2 43073.7 lineto
53163.2 43004.8 lineto
53312.6 43004.8 lineto
53514.6 43206.8 lineto
53514.6 43998.9 lineto
53531.9 44085.5 lineto
53540.4 44098.3 lineto
53581 44159 lineto
54082.9 44660.9 lineto
54156.4 44710 lineto
54168.8 44712.5 lineto
54243 44727.2 lineto
54380 44727.2 lineto
54381.3 44728.1 lineto
54439.8 44740 lineto
55128.8 44740 lineto
55183.5 44729.7 lineto
55210.3 44712.5 lineto
55315.7 44712.5 lineto
55378 44650.2 lineto
55378 44618.6 lineto
55340.1 44527 lineto
55284.4 44471.3 lineto
55561.9 44471.3 lineto
55647.8 44454.2 lineto
55648.5 44454.1 lineto
55722 44405 lineto
55928.7 44198.3 lineto
55977.7 44124.9 lineto
55995 44038.3 lineto
55995 42858.6 lineto
56073.7 42937.5 lineto
56073.7 43605.2 lineto
56090.9 43691.8 lineto
56140 43765.3 lineto
56779.8 44405 lineto
56853.2 44454.1 lineto
56853.9 44454.2 lineto
56939.8 44471.3 lineto
57124 44471.3 lineto
57124 44589.4 lineto
57131.6 44630.3 lineto
57124 44668.2 lineto
57124 44786.3 lineto
55188.7 44786.3 lineto
55187.4 44785.4 lineto
55128.8 44773.6 lineto
54439.8 44773.6 lineto
54385.1 44783.9 lineto
54381.3 44786.3 lineto
53076.9 44786.3 lineto
52983.1 44692.5 lineto
52983.1 44287.2 lineto
53012.7 44287.2 lineto
53067.4 44276.9 lineto
53117.6 44244.6 lineto
53151.3 44195.3 lineto
53163.2 44136.7 lineto
53163.2 43546.1 lineto
53152.9 43491.4 lineto
53120.6 43441.2 lineto
53071.2 43407.5 lineto
53012.7 43395.6 lineto
52500.9 43395.6 lineto
52446.2 43405.9 lineto
52395.9 43438.2 lineto
52362.2 43487.6 lineto
52350.3 43546.1 lineto
52350.3 43615 lineto
52126.2 43615 lineto
52126.2 43363.6 lineto
52115.9 43308.9 lineto
52083.6 43258.7 lineto
52034.2 43225 lineto
51975.7 43213.1 lineto
51175.7 43213.1 lineto
51121 43223.4 lineto
51070.7 43255.7 lineto
51064 43265.5 lineto
50551.4 42752.9 lineto
50551.4 42182.5 lineto
50541.1 42127.8 lineto
50508.8 42077.6 lineto
50459.4 42043.8 lineto
50400.9 42032 lineto
50227.2 42032 lineto
50227.2 41885.6 lineto
50246.9 41885.6 lineto
50301.6 41875.4 lineto
50351.9 41843 lineto
50385.6 41793.7 lineto
50397.5 41735.1 lineto
50397.5 41144.6 lineto
50387.2 41089.9 lineto
50354.8 41039.6 lineto
50305.5 41005.9 lineto
50276.8 41000.1 lineto
50296.5 41000.1 lineto
50388.1 40962.1 lineto
50458.2 40892 lineto
50496.1 40800.4 lineto
50496.1 40568.7 lineto
50433.8 40506.4 lineto
50051.7 40506.4 lineto
50051.7 40514.3 lineto
49950.1 40514.3 lineto
49950.1 40506.4 lineto
49567.9 40506.4 lineto
49505.6 40568.7 lineto
49505.6 40800.4 lineto
49543.5 40892 lineto
49613.6 40962.1 lineto
49705.2 41000.1 lineto
49722.7 41000.1 lineto
49700.1 41004.3 lineto
49649.8 41036.7 lineto
49616.1 41086 lineto
49604.3 41144.6 lineto
49604.3 41735.1 lineto
49614.6 41789.8 lineto
49646.9 41840.1 lineto
49696.2 41873.8 lineto
49754.8 41885.6 lineto
49774.5 41885.6 lineto
49774.5 42032 lineto
49600.9 42032 lineto
49546.2 42042.3 lineto
49495.9 42074.6 lineto
49462.2 42124 lineto
49450.3 42182.5 lineto
49450.3 42296.1 lineto
49226.2 42296.1 lineto
49226.2 42089.4 lineto
49215.9 42034.7 lineto
49183.6 41984.5 lineto
49134.2 41950.8 lineto
49075.7 41938.9 lineto
48563.9 41938.9 lineto
48509.1 41949.2 lineto
48458.9 41981.5 lineto
48425.2 42030.9 lineto
48413.3 42089.4 lineto
48413.3 42680 lineto
48423.6 42734.7 lineto
48456 42785 lineto
48505.3 42818.7 lineto
48563.9 42830.5 lineto
49075.7 42830.5 lineto
49130.4 42820.2 lineto
49180.6 42787.9 lineto
49207.3 42748.9 lineto
49450.3 42748.9 lineto
49450.3 42862.5 lineto
49460.6 42917.2 lineto
49493 42967.5 lineto
49542.3 43001.2 lineto
49600.9 43013 lineto
50171.2 43013 lineto
50223.2 43065 lineto
50071.6 43034.9 lineto
49930.1 43034.9 lineto
49743.5 43072 lineto
49585.3 43177.7 lineto
49506.2 43296.1 lineto
49226.2 43296.1 lineto
49226.2 43152.4 lineto
49215.9 43097.7 lineto
49183.6 43047.5 lineto
49134.2 43013.8 lineto
49075.7 43001.9 lineto
48563.9 43001.9 lineto
48509.1 43012.2 lineto
48458.9 43044.5 lineto
48425.2 43093.9 lineto
48413.3 43152.4 lineto
48413.3 43743 lineto
48423.6 43797.7 lineto
48456 43848 lineto
48505.3 43881.7 lineto
48563.9 43893.5 lineto
49075.7 43893.5 lineto
49130.4 43883.2 lineto
49180.6 43850.9 lineto
49214.3 43801.6 lineto
49225 43748.9 lineto
49506.2 43748.9 lineto
49585.3 43867.3 lineto
49743.5 43973 lineto
49754.1 43975.1 lineto
49640.7 44015 lineto
49469.3 44168.5 lineto
49369.7 44375.9 lineto
49369 44380.5 lineto
49416.4 44471.7 lineto
49950.1 44471.7 lineto
49950.1 44463.9 lineto
50051.7 44463.9 lineto
50051.7 44471.7 lineto
50585.3 44471.7 lineto
50609.2 44425.8 lineto
50628.2 44454.2 lineto
50838.5 44664.5 lineto
50632.7 44664.5 lineto
50585.3 44573.3 lineto
50051.7 44573.3 lineto
50051.7 45049.8 lineto
49950.1 45049.8 lineto
49950.1 44573.3 lineto
49416.4 44573.3 lineto
49369 44664.5 lineto
49369.7 44669.1 lineto
49469.3 44876.5 lineto
49640.7 45030.1 lineto
49857.7 45106.3 lineto
49950.1 45049.8 lineto
50051.7 45049.8 lineto
50144 45106.3 lineto
50361.1 45030.1 lineto
50532.5 44876.5 lineto
50632 44669.1 lineto
50632.7 44664.5 lineto
50838.5 44664.5 lineto
51602.6 45428.7 lineto
51676 45477.7 lineto
51762.7 45495 lineto
51826.4 45495 lineto
51350.3 45971.1 lineto
50672.1 45971.1 lineto
50671.4 45966.5 lineto
50571.8 45759.1 lineto
50400.5 45605.5 lineto
50183.4 45529.3 lineto
50091 45585.8 lineto
50091 46062.3 lineto
49989.4 46062.3 lineto
49989.4 45585.8 lineto
49897.1 45529.3 lineto
49680 45605.5 lineto
49508.6 45759.1 lineto
49409.1 45966.5 lineto
49408.4 45971.1 lineto
49455.8 46062.3 lineto
49989.4 46062.3 lineto
50091 46062.3 lineto
50624.7 46062.3 lineto
50672.1 45971.1 lineto
51350.3 45971.1 lineto
50494.8 46826.6 lineto
50455.8 46768.3 lineto
50297.6 46662.6 lineto
50287 46660.5 lineto
50400.5 46620.6 lineto
50571.8 46467.1 lineto
50671.4 46259.7 lineto
50672.1 46255.1 lineto
50624.7 46163.9 lineto
50091 46163.9 lineto
50091 46171.7 lineto
49989.4 46171.7 lineto
49989.4 46163.9 lineto
49455.8 46163.9 lineto
49408.4 46255.1 lineto
49409.1 46259.7 lineto
49508.6 46467.1 lineto
49680 46620.6 lineto
49793.5 46660.5 lineto
49782.9 46662.6 lineto
49624.7 46768.3 lineto
49519 46926.5 lineto
49481.9 47113.1 lineto
49519 47299.7 lineto
49624.7 47457.9 lineto
49782.9 47563.6 lineto
49969.5 47600.7 lineto
50111 47600.7 lineto
50297.6 47563.6 lineto
50455.8 47457.9 lineto
50535.9 47338 lineto
50615.1 47322.2 lineto
50688.5 47273.1 lineto
52210.8 45750.9 lineto
52850 45750.9 lineto
52462.8 46138 lineto
52413.8 46211.5 lineto
52396.5 46298.1 lineto
52396.5 46791.6 lineto
52278.1 46870.8 lineto
52172.4 47029 lineto
52170.3 47039.5 lineto
52130.5 46926.1 lineto
51976.9 46754.7 lineto
51769.5 46655.1 lineto
51764.9 46654.5 lineto
51673.7 46701.8 lineto
51673.7 47235.5 lineto
51572.1 47235.5 lineto
51572.1 46701.8 lineto
51480.9 46654.5 lineto
51476.3 46655.1 lineto
51268.9 46754.7 lineto
51115.4 46926.1 lineto
51039.1 47143.2 lineto
51095.6 47235.5 lineto
51572.1 47235.5 lineto
51673.7 47235.5 lineto
51681.6 47235.5 lineto
51681.6 47337.1 lineto
51673.7 47337.1 lineto
51673.7 47870.8 lineto
51572.1 47870.8 lineto
51572.1 47337.1 lineto
51095.6 47337.1 lineto
51039.1 47429.4 lineto
51115.4 47646.5 lineto
51268.9 47817.9 lineto
51476.3 47917.5 lineto
51480.9 47918.1 lineto
51572.1 47870.8 lineto
51673.7 47870.8 lineto
51764.9 47918.1 lineto
51769.5 47917.5 lineto
51976.9 47817.9 lineto
52130.5 47646.5 lineto
52170.3 47533.1 lineto
52172.4 47543.6 lineto
52278.1 47701.8 lineto
52436.3 47807.5 lineto
52622.9 47844.7 lineto
52809.5 47807.5 lineto
52967.7 47701.8 lineto
53073.4 47543.6 lineto
53110.6 47357 lineto
53110.6 47215.6 lineto
53073.4 47029 lineto
52967.7 46870.8 lineto
52849.3 46791.6 lineto
52849.3 46391.9 lineto
53234.4 46006.8 lineto
53676.8 46006.8 lineto
53462.8 46220.7 lineto
53413.8 46294.2 lineto
53396.5 46380.8 lineto
53396.5 46735.8 lineto
53282.9 46735.8 lineto
53228.2 46746.1 lineto
53178 46778.4 lineto
53144.2 46827.7 lineto
53132.4 46886.3 lineto
53132.4 47686.3 lineto
53142.7 47741 lineto
53175 47791.3 lineto
53224.3 47825 lineto
53282.9 47836.8 lineto
53962.9 47836.8 lineto
54017.6 47826.5 lineto
54067.9 47794.2 lineto
54101.6 47744.9 lineto
54113.4 47686.3 lineto
54113.4 46886.3 lineto
54103.1 46831.6 lineto
54070.8 46781.3 lineto
54021.5 46747.6 lineto
53962.9 46735.8 lineto
53849.3 46735.8 lineto
53849.3 46474.6 lineto
54061.2 46262.7 lineto
54380 46262.7 lineto
54381.3 46263.6 lineto
54439.8 46275.4 lineto
55128.8 46275.4 lineto
55183.5 46265.1 lineto
55233.8 46232.8 lineto
55267.5 46183.4 lineto
55279.3 46124.9 lineto
55279.3 45947.7 lineto
55271.7 45906.9 lineto
55279.3 45869 lineto
55279.3 45691.8 lineto
55271.7 45651 lineto
55279.3 45613.1 lineto
55279.3 45435.9 lineto
55271.7 45395.1 lineto
55279.3 45357.2 lineto
55279.3 45239.1 lineto
55876.9 45239.1 lineto
55876.9 46687.6 lineto
55825.6 46666.3 lineto
55672.9 46666.2 lineto
55531.7 46724.5 lineto
55423.7 46832.4 lineto
55365.1 46973.4 lineto
55365 47126.1 lineto
55423.3 47267.2 lineto
55531.2 47375.3 lineto
55672.2 47433.9 lineto
55824.9 47434 lineto
55966.1 47375.7 lineto
56006.3 47335.5 lineto
56112.3 47335.5 lineto
56110.2 47346 lineto
56110.2 47661 lineto
56120.5 47715.7 lineto
56152.8 47766 lineto
56202.1 47799.7 lineto
56260.7 47811.6 lineto
56575.7 47811.6 lineto
56630.4 47801.3 lineto
56680.6 47768.9 lineto
56714.4 47719.6 lineto
56726.2 47661 lineto
56726.2 47611.1 lineto
57281.4 47611.1 lineto
57281.4 47680 lineto
57291.7 47734.7 lineto
57324.1 47785 lineto
57373.4 47818.7 lineto
57402.1 47824.5 lineto
57382.4 47824.5 lineto
57290.8 47862.4 lineto
57220.7 47932.5 lineto
57182.8 48024.1 lineto
57182.8 48044.4 lineto
57161 47991.9 lineto
57090.9 47921.8 lineto
56999.3 47883.8 lineto
56905.3 47883.8 lineto
56843 47946.1 lineto
56843 48239.7 lineto
56741.4 48239.7 lineto
56741.4 47946.1 lineto
56679.1 47883.8 lineto
56585.1 47883.8 lineto
56493.5 47921.8 lineto
56423.4 47991.9 lineto
56385.5 48083.5 lineto
56385.5 48177.4 lineto
56447.8 48239.7 lineto
56741.4 48239.7 lineto
56843 48239.7 lineto
57136.6 48239.7 lineto
57182.8 48193.6 lineto
57182.8 48255.9 lineto
57245.1 48318.2 lineto
57627.2 48318.2 lineto
57627.2 48310.3 lineto
57728.8 48310.3 lineto
57728.8 48318.2 lineto
58111 48318.2 lineto
58173.3 48255.9 lineto
58173.3 48024.1 lineto
58135.4 47932.5 lineto
58065.3 47862.4 lineto
57973.7 47824.5 lineto
57956.2 47824.5 lineto
57978.8 47820.2 lineto
58029.1 47787.9 lineto
58062.8 47738.6 lineto
58074.6 47680 lineto
58074.6 47089.4 lineto
58064.3 47034.7 lineto
58032 46984.5 lineto
57982.7 46950.8 lineto
57924.1 46938.9 lineto
57432 46938.9 lineto
57377.3 46949.2 lineto
57327 46981.5 lineto
57293.3 47030.9 lineto
57281.4 47089.4 lineto
57281.4 47158.3 lineto
56650.5 47158.3 lineto
56664.3 47089.4 lineto
56645.5 46995.3 lineto
56592.2 46915.5 lineto
56512.4 46862.1 lineto
56418.2 46843.4 lineto
56329.6 46843.4 lineto
56329.6 45239.1 lineto
57124 45239.1 lineto
57124 45357.2 lineto
57131.6 45398 lineto
57124 45435.9 lineto
57124 45613.1 lineto
57131.6 45653.9 lineto
57124 45691.8 lineto
57124 45869 lineto
57131.6 45909.8 lineto
57124 45947.7 lineto
57124 46124.9 lineto
57134.3 46179.6 lineto
57166.6 46229.8 lineto
57215.9 46263.6 lineto
57274.5 46275.4 lineto
57963.5 46275.4 lineto
58018.2 46265.1 lineto
58068.4 46232.8 lineto
58102.1 46183.4 lineto
58114 46124.9 lineto
58114 46034.5 lineto
58659.7 46580.2 lineto
58733.1 46629.3 lineto
58819.8 46646.5 lineto
59062.9 46646.5 lineto
59062.9 46676.1 lineto
59073.2 46730.8 lineto
59105.6 46781 lineto
59154.9 46814.7 lineto
59213.5 46826.6 lineto
59804 46826.6 lineto
59858.7 46816.3 lineto
59909 46784 lineto
59942.7 46734.6 lineto
59954.5 46676.1 lineto
59954.5 46164.3 lineto
59944.3 46109.5 lineto
59911.9 46059.3 lineto
59862.6 46025.6 lineto
59804 46013.7 lineto
59213.5 46013.7 lineto
59158.8 46024 lineto
59108.5 46056.4 lineto
59074.8 46105.7 lineto
59062.9 46164.3 lineto
59062.9 46193.8 lineto
58913.5 46193.8 lineto
58470.6 45750.9 lineto
59062.9 45750.9 lineto
59062.9 45849.3 lineto
59073.2 45904 lineto
59105.6 45954.3 lineto
59154.9 45988 lineto
59213.5 45999.8 lineto
59804 45999.8 lineto
59858.7 45989.5 lineto
59909 45957.2 lineto
59942.7 45907.9 lineto
59954.5 45849.3 lineto
59954.5 45337.5 lineto
59944.3 45282.8 lineto
59911.9 45232.5 lineto
59862.6 45198.8 lineto
59844 45195.1 lineto
59858.7 45192.3 lineto
59909 45159.9 lineto
59942.7 45110.6 lineto
59948.5 45081.9 lineto
59948.5 45101.6 lineto
59986.4 45193.2 lineto
60056.5 45263.3 lineto
60134.4 45295.6 lineto
60125.9 45337.5 lineto
60125.9 45849.3 lineto
60136.2 45904 lineto
60168.6 45954.3 lineto
60217.9 45988 lineto
60276.5 45999.8 lineto
60867 45999.8 lineto
60921.7 45989.5 lineto
60972 45957.2 lineto
61005.7 45907.9 lineto
61017.5 45849.3 lineto
61017.5 45725.3 lineto
61402 45725.3 lineto
61481.1 45843.7 lineto
61639.3 45949.4 lineto
61826 45986.5 lineto
61845.1 45986.5 lineto
62031.7 45949.4 lineto
62189.9 45843.7 lineto
62287.3 45697.9 lineto
62330.7 45802.9 lineto
62432.9 45915.1 lineto
62354.3 45947.6 lineto
62284.2 46017.7 lineto
62246.3 46109.3 lineto
62246.3 46238.5 lineto
62189.9 46154.1 lineto
62031.7 46048.4 lineto
61845.1 46011.3 lineto
61826 46011.3 lineto
61639.3 46048.4 lineto
61481.1 46154.1 lineto
61402 46272.5 lineto
61017.5 46272.5 lineto
61017.5 46164.3 lineto
61007.2 46109.5 lineto
60974.9 46059.3 lineto
60925.6 46025.6 lineto
60867 46013.7 lineto
60276.5 46013.7 lineto
60221.7 46024 lineto
60171.5 46056.4 lineto
60137.8 46105.7 lineto
60125.9 46164.3 lineto
60125.9 46676.1 lineto
60136.2 46730.8 lineto
60168.6 46781 lineto
60217.9 46814.7 lineto
60276.5 46826.6 lineto
60867 46826.6 lineto
60921.7 46816.3 lineto
60972 46784 lineto
61005.7 46734.6 lineto
61007.6 46725.3 lineto
61402 46725.3 lineto
61481.1 46843.7 lineto
61639.3 46949.4 lineto
61826 46986.5 lineto
61845.1 46986.5 lineto
62031.7 46949.4 lineto
62189.9 46843.7 lineto
62246.3 46759.3 lineto
62246.3 46888.5 lineto
62284.2 46980.1 lineto
62354.3 47050.2 lineto
62445.9 47088.1 lineto
62722.4 47088.1 lineto
62784.7 47025.8 lineto
62886.3 47025.8 lineto
62948.6 47088.1 lineto
63225.1 47088.1 lineto
63316.7 47050.2 lineto
63386.8 46980.1 lineto
63424.7 46888.5 lineto
63603.2 46888.5 lineto
63603.2 48713.8 lineto
58173.3 48713.8 lineto
58173.3 48482.1 lineto
58111 48419.8 lineto
57728.8 48419.8 lineto
57728.8 48851.2 lineto
57627.2 48851.2 lineto
57627.2 48419.8 lineto
57245.1 48419.8 lineto
57198.9 48465.9 lineto
57198.9 48403.6 lineto
57136.6 48341.3 lineto
56843 48341.3 lineto
56843 48634.9 lineto
56741.4 48634.9 lineto
56741.4 48341.3 lineto
56447.8 48341.3 lineto
56385.5 48403.6 lineto
56385.5 48448 lineto
56352.2 48448 lineto
56352.2 48133 lineto
56341.9 48078.3 lineto
56309.6 48028.1 lineto
56260.2 47994.4 lineto
56201.7 47982.5 lineto
55886.7 47982.5 lineto
55832 47992.8 lineto
55781.7 48025.1 lineto
55755 48064.2 lineto
55168.2 48064.2 lineto
55168.2 47937.4 lineto
55247.4 47858.4 lineto
55305.9 47717.3 lineto
55306.1 47564.6 lineto
55247.7 47423.5 lineto
55139.8 47315.4 lineto
54998.8 47256.8 lineto
54846.1 47256.7 lineto
54705 47315 lineto
54596.9 47422.9 lineto
54538.3 47563.9 lineto
54538.2 47716.6 lineto
54596.5 47857.8 lineto
54676.1 47937.5 lineto
54676.1 48064.2 lineto
50590.8 48064.2 lineto
50590.8 47773.1 lineto
50580.5 47718.4 lineto
50548.1 47668.1 lineto
50498.8 47634.4 lineto
50440.2 47622.5 lineto
49640.2 47622.5 lineto
49585.5 47632.8 lineto
49535.3 47665.2 lineto
49501.6 47714.5 lineto
49489.7 47773.1 lineto
49489.7 48453.1 lineto
49500 48507.8 lineto
49532.3 48558 lineto
49581.7 48591.7 lineto
49640.2 48603.6 lineto
50440.2 48603.6 lineto
50494.9 48593.3 lineto
50545.2 48561 lineto
50575.3 48516.9 lineto
53253.3 48516.9 lineto
52911.7 48858.5 lineto
52896.2 48881.7 lineto
52851.4 48890.6 lineto
52673.8 49009.3 lineto
52555.1 49187 lineto
52513.4 49396.5 lineto
52555.1 49606.1 lineto
52673.8 49783.8 lineto
52766.9 49846 lineto
52671.7 49846 lineto
52617 49856.3 lineto
52566.8 49888.6 lineto
52533.1 49938 lineto
52521.2 49996.5 lineto
52521.2 50796.5 lineto
52531.5 50851.2 lineto
52563.8 50901.5 lineto
52613.2 50935.2 lineto
52671.7 50947.1 lineto
53471.7 50947.1 lineto
53526.4 50936.8 lineto
53576.7 50904.4 lineto
53610.4 50855.1 lineto
53622.3 50796.5 lineto
53622.3 50583.5 lineto
54443.9 50583.5 lineto
54558.5 50755.1 lineto
54736.2 50873.8 lineto
54945.7 50915.5 lineto
55155.3 50873.8 lineto
55296.5 50779.5 lineto
55296.5 50806.7 lineto
55334.5 50898.3 lineto
55404.6 50968.4 lineto
55496.2 51006.4 lineto
55832.7 51006.4 lineto
55895 50944.1 lineto
55895 50408 lineto
55887.1 50408 lineto
55887.1 50306.4 lineto
55895 50306.4 lineto
55895 49770.3 lineto
55832.7 49708 lineto
55496.2 49708 lineto
55404.6 49745.9 lineto
55334.5 49816 lineto
55296.5 49907.6 lineto
55296.5 49934.8 lineto
55155.3 49840.5 lineto
54945.7 49798.8 lineto
54736.2 49840.5 lineto
54558.5 49959.2 lineto
54443.9 50130.8 lineto
53622.3 50130.8 lineto
53622.3 49996.5 lineto
53612 49941.8 lineto
53579.6 49891.6 lineto
53530.3 49857.9 lineto
53471.7 49846 lineto
53376.6 49846 lineto
53469.7 49783.8 lineto
53588.4 49606.1 lineto
53630.1 49396.5 lineto
53588.4 49187 lineto
53469.7 49009.3 lineto
53428.6 48981.8 lineto
53893.5 48516.9 lineto
54714.5 48516.9 lineto
54715.4 48518.3 lineto
54715.4 48779.5 lineto
54646.5 48779.5 lineto
54591.8 48789.8 lineto
54541.6 48822.1 lineto
54507.9 48871.4 lineto
54496 48930 lineto
54496 49422.1 lineto
54506.3 49476.8 lineto
54538.6 49527.1 lineto
54588 49560.8 lineto
54646.5 49572.7 lineto
55237.1 49572.7 lineto
55291.8 49562.4 lineto
55342 49530 lineto
55375.8 49480.7 lineto
55381.6 49452 lineto
55381.6 49471.7 lineto
55419.5 49563.3 lineto
55489.6 49633.4 lineto
55581.2 49671.3 lineto
55813 49671.3 lineto
55875.3 49609 lineto
55875.3 49226.9 lineto
55867.4 49226.9 lineto
55867.4 49125.3 lineto
55875.3 49125.3 lineto
55875.3 48743.1 lineto
55813 48680.8 lineto
55581.2 48680.8 lineto
55489.6 48718.7 lineto
55419.5 48788.8 lineto
55381.6 48880.4 lineto
55381.6 48897.9 lineto
55377.3 48875.3 lineto
55345 48825 lineto
55295.7 48791.3 lineto
55237.1 48779.5 lineto
55168.2 48779.5 lineto
55168.2 48516.9 lineto
55755.6 48516.9 lineto
55778.8 48553 lineto
55828.1 48586.7 lineto
55886.7 48598.6 lineto
56201.7 48598.6 lineto
56256.4 48588.3 lineto
56306.6 48555.9 lineto
56340.3 48506.6 lineto
56352.2 48448 lineto
56385.5 48448 lineto
56385.5 48497.6 lineto
56423.4 48589.2 lineto
56493.5 48659.3 lineto
56585.1 48697.2 lineto
56679.1 48697.2 lineto
56741.4 48634.9 lineto
56843 48634.9 lineto
56905.3 48697.2 lineto
56999.3 48697.2 lineto
57090.9 48659.3 lineto
57161 48589.2 lineto
57182.8 48536.6 lineto
57182.8 48713.8 lineto
57220.7 48805.4 lineto
57290.8 48875.5 lineto
57382.4 48913.5 lineto
57564.9 48913.5 lineto
57627.2 48851.2 lineto
57728.8 48851.2 lineto
57791.1 48913.5 lineto
57973.7 48913.5 lineto
58065.3 48875.5 lineto
58135.4 48805.4 lineto
58173.3 48713.8 lineto
63603.2 48713.8 lineto
63603.2 49063 lineto
56470.6 49063 lineto
56470.6 48880.4 lineto
56432.6 48788.8 lineto
56362.5 48718.7 lineto
56270.9 48680.8 lineto
56039.2 48680.8 lineto
55976.9 48743.1 lineto
55976.9 49125.3 lineto
56408.2 49125.3 lineto
56470.6 49063 lineto
63603.2 49063 lineto
63603.2 49471.7 lineto
56470.6 49471.7 lineto
56470.6 49289.2 lineto
56408.2 49226.9 lineto
55976.9 49226.9 lineto
55976.9 49609 lineto
56039.2 49671.3 lineto
56270.9 49671.3 lineto
56362.5 49633.4 lineto
56432.6 49563.3 lineto
56470.6 49471.7 lineto
63603.2 49471.7 lineto
63603.2 50244.1 lineto
56595 50244.1 lineto
56595 49907.6 lineto
56557 49816 lineto
56486.9 49745.9 lineto
56395.3 49708 lineto
56058.8 49708 lineto
55996.5 49770.3 lineto
55996.5 50306.4 lineto
56532.7 50306.4 lineto
56595 50244.1 lineto
63603.2 50244.1 lineto
63603.2 50806.7 lineto
56595 50806.7 lineto
56595 50470.3 lineto
56532.7 50408 lineto
55996.5 50408 lineto
55996.5 50944.1 lineto
56058.8 51006.4 lineto
56395.3 51006.4 lineto
56486.9 50968.4 lineto
56557 50898.3 lineto
56595 50806.7 lineto
63603.2 50806.7 lineto
63603.2 51991 lineto
46241 51991 lineto
46241 39550.1 lineto
poly1
showpage
grestore
%%EOF
