(export (version D)
  (design
    (source /home/maly/Studia/ismm/Elektronika/Slave/slave.sch)
    (date "sob, 20 maj 2017, 15:01:04")
    (tool "Eeschema 4.0.2+dfsg1-stable")
    (sheet (number 1) (name /) (tstamps /)
      (title_block
        (title)
        (company)
        (rev)
        (date)
        (source slave.sch)
        (comment (number 1) (value ""))
        (comment (number 2) (value ""))
        (comment (number 3) (value ""))
        (comment (number 4) (value "")))))
  (components
    (comp (ref U2)
      (value STM32F030F4)
      (footprint Housings_SSOP:SSOP-20_5.3x7.2mm_Pitch0.65mm)
      (libsource (lib stm32f030f4) (part STM32F030F4))
      (sheetpath (names /) (tstamps /))
      (tstamp 590C4A3B))
    (comp (ref P9)
      (value RFM)
      (footprint Pin_Headers2:Pin_Header_Straight_1x08_Pitch1.27mm)
      (libsource (lib conn) (part CONN_01X08))
      (sheetpath (names /) (tstamps /))
      (tstamp 590C4B81))
    (comp (ref Q1)
      (value NMOS)
      (footprint TO_SOT_Packages_SMD:SOT-23)
      (libsource (lib device) (part Q_NMOS_GSD))
      (sheetpath (names /) (tstamps /))
      (tstamp 590C4E3A))
    (comp (ref P5)
      (value SWD)
      (footprint Pin_Headers:Pin_Header_Straight_1x03)
      (libsource (lib conn) (part CONN_01X03))
      (sheetpath (names /) (tstamps /))
      (tstamp 590C5030))
    (comp (ref P7)
      (value MQ2)
      (footprint Pin_Headers:Pin_Header_Straight_1x03)
      (libsource (lib conn) (part CONN_01X03))
      (sheetpath (names /) (tstamps /))
      (tstamp 590C560E))
    (comp (ref R2)
      (value 1k)
      (footprint Resistors_SMD:R_0805_HandSoldering)
      (libsource (lib device) (part R_Small))
      (sheetpath (names /) (tstamps /))
      (tstamp 590C584E))
    (comp (ref R3)
      (value 10k)
      (footprint Resistors_SMD:R_0805_HandSoldering)
      (libsource (lib device) (part R_Small))
      (sheetpath (names /) (tstamps /))
      (tstamp 590C599A))
    (comp (ref R5)
      (value 10k)
      (footprint Resistors_SMD:R_0805_HandSoldering)
      (libsource (lib device) (part R_Small))
      (sheetpath (names /) (tstamps /))
      (tstamp 590C5B1C))
    (comp (ref R4)
      (value 5k)
      (footprint Resistors_SMD:R_0805_HandSoldering)
      (libsource (lib device) (part R_Small))
      (sheetpath (names /) (tstamps /))
      (tstamp 590C5D5B))
    (comp (ref C3)
      (value 100n)
      (footprint Capacitors_SMD:C_0805_HandSoldering)
      (libsource (lib device) (part C_Small))
      (sheetpath (names /) (tstamps /))
      (tstamp 590C611E))
    (comp (ref C4)
      (value 100n)
      (footprint Capacitors_SMD:C_0805_HandSoldering)
      (libsource (lib device) (part C_Small))
      (sheetpath (names /) (tstamps /))
      (tstamp 590C6258))
    (comp (ref C5)
      (value 100n)
      (footprint Capacitors_SMD:C_0805_HandSoldering)
      (libsource (lib device) (part C_Small))
      (sheetpath (names /) (tstamps /))
      (tstamp 590C64A3))
    (comp (ref U1)
      (value MCP1700T3302)
      (footprint TO_SOT_Packages_SMD:SOT-23)
      (libsource (lib regul) (part MCP1754ST-1802E/MB))
      (sheetpath (names /) (tstamps /))
      (tstamp 590C69C8))
    (comp (ref C1)
      (value 100n)
      (footprint Capacitors_SMD:C_0805_HandSoldering)
      (libsource (lib device) (part C_Small))
      (sheetpath (names /) (tstamps /))
      (tstamp 590C6F33))
    (comp (ref C2)
      (value 100n)
      (footprint Capacitors_SMD:C_0805_HandSoldering)
      (libsource (lib device) (part C_Small))
      (sheetpath (names /) (tstamps /))
      (tstamp 590C74E6))
    (comp (ref P8)
      (value PIR)
      (footprint Pin_Headers:Pin_Header_Straight_1x03)
      (libsource (lib conn) (part CONN_01X03))
      (sheetpath (names /) (tstamps /))
      (tstamp 590C7B1D))
    (comp (ref P4)
      (value DHT11)
      (footprint Pin_Headers:Pin_Header_Straight_1x04)
      (libsource (lib conn) (part CONN_01X04))
      (sheetpath (names /) (tstamps /))
      (tstamp 590C80FF))
    (comp (ref P6)
      (value DS18B20)
      (footprint Pin_Headers:Pin_Header_Straight_1x03)
      (libsource (lib conn) (part CONN_01X03))
      (sheetpath (names /) (tstamps /))
      (tstamp 590C8236))
    (comp (ref R1)
      (value 4k7)
      (footprint Resistors_SMD:R_0805_HandSoldering)
      (libsource (lib device) (part R_Small))
      (sheetpath (names /) (tstamps /))
      (tstamp 590C87DB))
    (comp (ref P10)
      (value POWER)
      (footprint Pin_Headers:Pin_Header_Straight_1x02)
      (libsource (lib conn) (part CONN_01X02))
      (sheetpath (names /) (tstamps /))
      (tstamp 590C956F))
    (comp (ref P2)
      (value PWR_SW)
      (footprint Pin_Headers:Pin_Header_Straight_1x02)
      (libsource (lib conn) (part CONN_01X02))
      (sheetpath (names /) (tstamps /))
      (tstamp 590C97FA))
    (comp (ref R7)
      (value 220R)
      (footprint Resistors_SMD:R_0805_HandSoldering)
      (libsource (lib device) (part R_Small))
      (sheetpath (names /) (tstamps /))
      (tstamp 590CA80D))
    (comp (ref R6)
      (value 220R)
      (footprint Resistors_SMD:R_0805_HandSoldering)
      (libsource (lib device) (part R_Small))
      (sheetpath (names /) (tstamps /))
      (tstamp 590CAAF9))
    (comp (ref P1)
      (value LEDS)
      (footprint Pin_Headers:Pin_Header_Straight_2x02)
      (libsource (lib conn) (part CONN_02X02))
      (sheetpath (names /) (tstamps /))
      (tstamp 590CB79E))
    (comp (ref R8)
      (value 4k7)
      (footprint Resistors_SMD:R_0805_HandSoldering)
      (libsource (lib device) (part R_Small))
      (sheetpath (names /) (tstamps /))
      (tstamp 5917603F)))
  (libparts
    (libpart (lib conn) (part CONN_01X02)
      (description "Connector 01x02")
      (footprints
        (fp Pin_Header_Straight_1X02)
        (fp Pin_Header_Angled_1X02)
        (fp Socket_Strip_Straight_1X02)
        (fp Socket_Strip_Angled_1X02))
      (fields
        (field (name Reference) P)
        (field (name Value) CONN_01X02))
      (pins
        (pin (num 1) (name P1) (type passive))
        (pin (num 2) (name P2) (type passive))))
    (libpart (lib conn) (part CONN_01X03)
      (description "Connector 01x03")
      (footprints
        (fp Pin_Header_Straight_1X03)
        (fp Pin_Header_Angled_1X03)
        (fp Socket_Strip_Straight_1X03)
        (fp Socket_Strip_Angled_1X03))
      (fields
        (field (name Reference) P)
        (field (name Value) CONN_01X03))
      (pins
        (pin (num 1) (name P1) (type passive))
        (pin (num 2) (name P2) (type passive))
        (pin (num 3) (name P3) (type passive))))
    (libpart (lib conn) (part CONN_01X04)
      (description "Connector 01x04")
      (footprints
        (fp Pin_Header_Straight_1X04)
        (fp Pin_Header_Angled_1X04)
        (fp Socket_Strip_Straight_1X04)
        (fp Socket_Strip_Angled_1X04))
      (fields
        (field (name Reference) P)
        (field (name Value) CONN_01X04))
      (pins
        (pin (num 1) (name P1) (type passive))
        (pin (num 2) (name P2) (type passive))
        (pin (num 3) (name P3) (type passive))
        (pin (num 4) (name P4) (type passive))))
    (libpart (lib conn) (part CONN_01X08)
      (description "Connector 01x08")
      (footprints
        (fp Pin_Header_Straight_1X08)
        (fp Pin_Header_Angled_1X08)
        (fp Socket_Strip_Straight_1X08)
        (fp Socket_Strip_Angled_1X08))
      (fields
        (field (name Reference) P)
        (field (name Value) CONN_01X08))
      (pins
        (pin (num 1) (name P1) (type passive))
        (pin (num 2) (name P2) (type passive))
        (pin (num 3) (name P3) (type passive))
        (pin (num 4) (name P4) (type passive))
        (pin (num 5) (name P5) (type passive))
        (pin (num 6) (name P6) (type passive))
        (pin (num 7) (name P7) (type passive))
        (pin (num 8) (name P8) (type passive))))
    (libpart (lib conn) (part CONN_02X02)
      (description "Connector 02x02")
      (footprints
        (fp Pin_Header_Straight_2X02)
        (fp Pin_Header_Angled_2X02)
        (fp Socket_Strip_Straight_2X02)
        (fp Socket_Strip_Angled_2X02))
      (fields
        (field (name Reference) P)
        (field (name Value) CONN_02X02))
      (pins
        (pin (num 1) (name P1) (type passive))
        (pin (num 2) (name P2) (type passive))
        (pin (num 3) (name P3) (type passive))
        (pin (num 4) (name P4) (type passive))))
    (libpart (lib device) (part C_Small)
      (description "Unpolarized capacitor")
      (footprints
        (fp C?)
        (fp C_????_*)
        (fp C_????)
        (fp SMD*_c)
        (fp Capacitor*))
      (fields
        (field (name Reference) C)
        (field (name Value) C_Small))
      (pins
        (pin (num 1) (name ~) (type passive))
        (pin (num 2) (name ~) (type passive))))
    (libpart (lib regul) (part MCP1754ST-5002E/MB)
      (aliases
        (alias MCP1754ST-1802E/MB)
        (alias MCP1754ST-3302E/MB))
      (description "MCP1754ST, Fixed 150mA Low Dropout Voltage Regulator, Positive")
      (docs http://ww1.microchip.com/downloads/en/DeviceDoc/20002276C.pdf)
      (footprints
        (fp SOT-89*))
      (fields
        (field (name Reference) U)
        (field (name Value) MCP1754ST-5002E/MB))
      (pins
        (pin (num 1) (name VI) (type power_in))
        (pin (num 2) (name GND) (type power_in))
        (pin (num 3) (name VO) (type power_out))))
    (libpart (lib device) (part Q_NMOS_GSD)
      (description "Transistor N-MOSFET (general)")
      (fields
        (field (name Reference) Q)
        (field (name Value) Q_NMOS_GSD))
      (pins
        (pin (num 1) (name G) (type input))
        (pin (num 2) (name S) (type passive))
        (pin (num 3) (name D) (type passive))))
    (libpart (lib device) (part R_Small)
      (description Resistor)
      (footprints
        (fp Resistor_*)
        (fp R_*))
      (fields
        (field (name Reference) R)
        (field (name Value) R_Small))
      (pins
        (pin (num 1) (name ~) (type passive))
        (pin (num 2) (name ~) (type passive))))
    (libpart (lib stm32f030f4) (part STM32F030F4)
      (fields
        (field (name Reference) U)
        (field (name Value) STM32F030F4))
      (pins
        (pin (num 1) (name BOOT0) (type input))
        (pin (num 2) (name PF0) (type BiDi))
        (pin (num 3) (name PF1) (type BiDi))
        (pin (num 4) (name NRST) (type input))
        (pin (num 5) (name VDDA) (type power_in))
        (pin (num 6) (name PA0) (type BiDi))
        (pin (num 7) (name PA1) (type BiDi))
        (pin (num 8) (name PA2) (type BiDi))
        (pin (num 9) (name PA3) (type BiDi))
        (pin (num 10) (name PA4) (type BiDi))
        (pin (num 11) (name PA5) (type BiDi))
        (pin (num 12) (name PA6) (type BiDi))
        (pin (num 13) (name PA7) (type BiDi))
        (pin (num 14) (name PB1) (type BiDi))
        (pin (num 15) (name VSS) (type power_in))
        (pin (num 16) (name VDD) (type power_in))
        (pin (num 17) (name PA9) (type BiDi))
        (pin (num 18) (name PA10) (type BiDi))
        (pin (num 19) (name PA13) (type BiDi))
        (pin (num 20) (name PA14) (type BiDi)))))
  (libraries
    (library (logical device)
      (uri /usr/share/kicad/library/device.lib))
    (library (logical conn)
      (uri /usr/share/kicad/library/conn.lib))
    (library (logical regul)
      (uri /usr/share/kicad/library/regul.lib))
    (library (logical stm32f030f4)
      (uri /usr/share/kicad/library/stm32f030f4.lib)))
  (nets
    (net (code 1) (name "Net-(P7-Pad2)")
      (node (ref P7) (pin 2))
      (node (ref Q1) (pin 3)))
    (net (code 2) (name VCC)
      (node (ref U2) (pin 16))
      (node (ref C2) (pin 1))
      (node (ref P9) (pin 2))
      (node (ref U2) (pin 5))
      (node (ref R8) (pin 1))
      (node (ref C4) (pin 1))
      (node (ref C3) (pin 1))
      (node (ref C5) (pin 1))
      (node (ref U1) (pin 3))
      (node (ref R1) (pin 1))
      (node (ref P6) (pin 1))
      (node (ref P4) (pin 1)))
    (net (code 3) (name "Net-(P5-Pad2)")
      (node (ref P5) (pin 2))
      (node (ref U2) (pin 19)))
    (net (code 4) (name "Net-(P5-Pad1)")
      (node (ref U2) (pin 20))
      (node (ref P5) (pin 1)))
    (net (code 5) (name /DHT11)
      (node (ref P4) (pin 2))
      (node (ref R1) (pin 2))
      (node (ref U2) (pin 14)))
    (net (code 6) (name /PIR)
      (node (ref P8) (pin 2))
      (node (ref U2) (pin 18)))
    (net (code 7) (name "Net-(Q1-Pad1)")
      (node (ref Q1) (pin 1))
      (node (ref R2) (pin 1))
      (node (ref R3) (pin 1)))
    (net (code 8) (name "Net-(P7-Pad3)")
      (node (ref P7) (pin 3))
      (node (ref R4) (pin 1)))
    (net (code 9) (name "Net-(R6-Pad2)")
      (node (ref R6) (pin 2))
      (node (ref U2) (pin 2)))
    (net (code 10) (name "Net-(P1-Pad2)")
      (node (ref P1) (pin 2))
      (node (ref R6) (pin 1)))
    (net (code 11) (name GND)
      (node (ref R5) (pin 2))
      (node (ref U2) (pin 15))
      (node (ref R3) (pin 2))
      (node (ref P1) (pin 1))
      (node (ref P1) (pin 3))
      (node (ref P5) (pin 3))
      (node (ref Q1) (pin 2))
      (node (ref P6) (pin 3))
      (node (ref P10) (pin 1))
      (node (ref P8) (pin 3))
      (node (ref C2) (pin 2))
      (node (ref P4) (pin 4))
      (node (ref P9) (pin 1))
      (node (ref C4) (pin 2))
      (node (ref C5) (pin 2))
      (node (ref U1) (pin 2))
      (node (ref C1) (pin 2))
      (node (ref C3) (pin 2)))
    (net (code 12) (name "Net-(P1-Pad4)")
      (node (ref R7) (pin 2))
      (node (ref P1) (pin 4)))
    (net (code 13) (name /RFM_MOSI)
      (node (ref P9) (pin 6))
      (node (ref U2) (pin 13)))
    (net (code 14) (name /RFM_MISO)
      (node (ref P9) (pin 7))
      (node (ref U2) (pin 12)))
    (net (code 15) (name /RFM_SCK)
      (node (ref U2) (pin 11))
      (node (ref P9) (pin 5)))
    (net (code 16) (name /RFM_CSN)
      (node (ref U2) (pin 10))
      (node (ref P9) (pin 4)))
    (net (code 17) (name /RFM_CE)
      (node (ref U2) (pin 9))
      (node (ref P9) (pin 3)))
    (net (code 18) (name /RFM_IRQ)
      (node (ref U2) (pin 8))
      (node (ref P9) (pin 8)))
    (net (code 19) (name /MQ2_ON)
      (node (ref U2) (pin 7))
      (node (ref R2) (pin 2)))
    (net (code 20) (name /MQ2_ADC)
      (node (ref R4) (pin 2))
      (node (ref R5) (pin 1))
      (node (ref U2) (pin 6)))
    (net (code 21) (name /ONE_WIRE)
      (node (ref P6) (pin 2))
      (node (ref U2) (pin 17))
      (node (ref R8) (pin 2)))
    (net (code 22) (name "Net-(P10-Pad2)")
      (node (ref P10) (pin 2))
      (node (ref P2) (pin 1)))
    (net (code 23) (name "Net-(R7-Pad1)")
      (node (ref U2) (pin 3))
      (node (ref R7) (pin 1)))
    (net (code 24) (name +5V)
      (node (ref P7) (pin 1))
      (node (ref U1) (pin 1))
      (node (ref C1) (pin 1))
      (node (ref P2) (pin 2))
      (node (ref P8) (pin 1)))
    (net (code 25) (name "Net-(U2-Pad4)")
      (node (ref U2) (pin 4)))
    (net (code 26) (name "Net-(U2-Pad1)")
      (node (ref U2) (pin 1)))
    (net (code 27) (name "Net-(P4-Pad3)")
      (node (ref P4) (pin 3)))))