\contentsline {section}{\numberline {1}Opis}{2}{section.1}
\contentsline {section}{\numberline {2}Efekt ko\IeC {\'n}cowy}{2}{section.2}
\contentsline {subsection}{\numberline {2.1}Aplikacja}{2}{subsection.2.1}
\contentsline {subsection}{\numberline {2.2}Urz\IeC {\k a}dzenia}{3}{subsection.2.2}
\contentsline {subsection}{\numberline {2.3}Opis protoko\IeC {\l }u komunikacji}{3}{subsection.2.3}
\contentsline {section}{\numberline {3}Post\IeC {\k e}p pracy}{4}{section.3}
\contentsline {section}{\numberline {4}Komunikacja z urz\IeC {\k a}dzeniem}{4}{section.4}
\contentsline {section}{\numberline {5}Urz\IeC {\k a}dzenia komunikuj\IeC {\k a}ce si\IeC {\k e} oraz pomiarowe}{4}{section.5}
\contentsline {section}{\numberline {6}Wygl\IeC {\k a}d interfejsu graficznego}{5}{section.6}
\contentsline {section}{\numberline {7}Diagram klas UML}{7}{section.7}
\contentsline {section}{\numberline {8}Schemat blokowy}{8}{section.8}
\contentsline {section}{\numberline {9}Harmonogram realizacji}{8}{section.9}
\contentsline {section}{\numberline {10}Diagram Gantta}{9}{section.10}
\contentsline {section}{\numberline {11}Kamienie milowe}{9}{section.11}
