digraph "QCPGraph"
{
  edge [fontname="Helvetica",fontsize="10",labelfontname="Helvetica",labelfontsize="10"];
  node [fontname="Helvetica",fontsize="10",shape=record];
  Node1 [label="QCPGraph",height=0.2,width=0.4,color="black", fillcolor="grey75", style="filled", fontcolor="black"];
  Node2 -> Node1 [dir="back",color="midnightblue",fontsize="10",style="solid"];
  Node2 [label="QCPAbstractPlottable1D\l\< QCPGraphData \>",height=0.2,width=0.4,color="black", fillcolor="white", style="filled",URL="$classQCPAbstractPlottable1D.html"];
  Node3 -> Node2 [dir="back",color="midnightblue",fontsize="10",style="solid"];
  Node3 [label="QCPAbstractPlottable",height=0.2,width=0.4,color="black", fillcolor="white", style="filled",URL="$classQCPAbstractPlottable.html",tooltip="The abstract base class for all data representing objects in a plot. "];
  Node4 -> Node3 [dir="back",color="midnightblue",fontsize="10",style="solid"];
  Node4 [label="QCPLayerable",height=0.2,width=0.4,color="black", fillcolor="white", style="filled",URL="$classQCPLayerable.html",tooltip="Base class for all drawable objects. "];
  Node5 -> Node4 [dir="back",color="midnightblue",fontsize="10",style="solid"];
  Node5 [label="QObject",height=0.2,width=0.4,color="grey75", fillcolor="white", style="filled"];
  Node6 -> Node4 [dir="back",color="darkorchid3",fontsize="10",style="dashed",label=" mLayer" ];
  Node6 [label="QCPLayer",height=0.2,width=0.4,color="black", fillcolor="white", style="filled",URL="$classQCPLayer.html",tooltip="A layer that may contain objects, to control the rendering order. "];
  Node5 -> Node6 [dir="back",color="midnightblue",fontsize="10",style="solid"];
  Node7 -> Node6 [dir="back",color="darkorchid3",fontsize="10",style="dashed",label=" mParentPlot" ];
  Node7 [label="QCustomPlot",height=0.2,width=0.4,color="black", fillcolor="white", style="filled",URL="$classQCustomPlot.html",tooltip="The central class of the library. This is the QWidget which displays the plot and interacts with the ..."];
  Node8 -> Node7 [dir="back",color="midnightblue",fontsize="10",style="solid"];
  Node8 [label="QWidget",height=0.2,width=0.4,color="grey75", fillcolor="white", style="filled"];
  Node6 -> Node7 [dir="back",color="darkorchid3",fontsize="10",style="dashed",label=" mCurrentLayer" ];
  Node9 -> Node7 [dir="back",color="darkorchid3",fontsize="10",style="dashed",label=" mPlotLayout" ];
  Node9 [label="QCPLayoutGrid",height=0.2,width=0.4,color="black", fillcolor="white", style="filled",URL="$classQCPLayoutGrid.html",tooltip="A layout that arranges child elements in a grid. "];
  Node10 -> Node9 [dir="back",color="midnightblue",fontsize="10",style="solid"];
  Node10 [label="QCPLayout",height=0.2,width=0.4,color="black", fillcolor="white", style="filled",URL="$classQCPLayout.html",tooltip="The abstract base class for layouts. "];
  Node11 -> Node10 [dir="back",color="midnightblue",fontsize="10",style="solid"];
  Node11 [label="QCPLayoutElement",height=0.2,width=0.4,color="black", fillcolor="white", style="filled",URL="$classQCPLayoutElement.html",tooltip="The abstract base class for all objects that form the layout system. "];
  Node4 -> Node11 [dir="back",color="midnightblue",fontsize="10",style="solid"];
  Node10 -> Node11 [dir="back",color="darkorchid3",fontsize="10",style="dashed",label=" mParentLayout" ];
  Node12 -> Node7 [dir="back",color="darkorchid3",fontsize="10",style="dashed",label=" mSelectionRect" ];
  Node12 [label="QCPSelectionRect",height=0.2,width=0.4,color="black", fillcolor="white", style="filled",URL="$classQCPSelectionRect.html",tooltip="Provides rect/rubber-band data selection and range zoom interaction. "];
  Node4 -> Node12 [dir="back",color="midnightblue",fontsize="10",style="solid"];
  Node13 -> Node7 [dir="back",color="darkorchid3",fontsize="10",style="dashed",label=" yAxis2\nxAxis2\nxAxis\nyAxis" ];
  Node13 [label="QCPAxis",height=0.2,width=0.4,color="black", fillcolor="white", style="filled",URL="$classQCPAxis.html",tooltip="Manages a single axis inside a QCustomPlot. "];
  Node4 -> Node13 [dir="back",color="midnightblue",fontsize="10",style="solid"];
  Node14 -> Node13 [dir="back",color="darkorchid3",fontsize="10",style="dashed",label=" mRange" ];
  Node14 [label="QCPRange",height=0.2,width=0.4,color="black", fillcolor="white", style="filled",URL="$classQCPRange.html",tooltip="Represents the range an axis is encompassing. "];
  Node15 -> Node13 [dir="back",color="darkorchid3",fontsize="10",style="dashed",label=" mAxisPainter" ];
  Node15 [label="QCPAxisPainterPrivate",height=0.2,width=0.4,color="black", fillcolor="white", style="filled",URL="$classQCPAxisPainterPrivate.html"];
  Node16 -> Node15 [dir="back",color="darkorchid3",fontsize="10",style="dashed",label=" lowerEnding\nupperEnding" ];
  Node16 [label="QCPLineEnding",height=0.2,width=0.4,color="black", fillcolor="white", style="filled",URL="$classQCPLineEnding.html",tooltip="Handles the different ending decorations for line-like items. "];
  Node7 -> Node15 [dir="back",color="darkorchid3",fontsize="10",style="dashed",label=" mParentPlot" ];
  Node17 -> Node13 [dir="back",color="darkorchid3",fontsize="10",style="dashed",label=" mGrid" ];
  Node17 [label="QCPGrid",height=0.2,width=0.4,color="black", fillcolor="white", style="filled",URL="$classQCPGrid.html",tooltip="Responsible for drawing the grid of a QCPAxis. "];
  Node4 -> Node17 [dir="back",color="midnightblue",fontsize="10",style="solid"];
  Node13 -> Node17 [dir="back",color="darkorchid3",fontsize="10",style="dashed",label=" mParentAxis" ];
  Node18 -> Node13 [dir="back",color="darkorchid3",fontsize="10",style="dashed",label=" mAxisRect" ];
  Node18 [label="QCPAxisRect",height=0.2,width=0.4,color="black", fillcolor="white", style="filled",URL="$classQCPAxisRect.html",tooltip="Holds multiple axes and arranges them in a rectangular shape. "];
  Node11 -> Node18 [dir="back",color="midnightblue",fontsize="10",style="solid"];
  Node19 -> Node18 [dir="back",color="darkorchid3",fontsize="10",style="dashed",label=" mInsetLayout" ];
  Node19 [label="QCPLayoutInset",height=0.2,width=0.4,color="black", fillcolor="white", style="filled",URL="$classQCPLayoutInset.html",tooltip="A layout that places child elements aligned to the border or arbitrarily positioned. "];
  Node10 -> Node19 [dir="back",color="midnightblue",fontsize="10",style="solid"];
  Node20 -> Node7 [dir="back",color="darkorchid3",fontsize="10",style="dashed",label=" legend" ];
  Node20 [label="QCPLegend",height=0.2,width=0.4,color="black", fillcolor="white", style="filled",URL="$classQCPLegend.html",tooltip="Manages a legend inside a QCustomPlot. "];
  Node9 -> Node20 [dir="back",color="midnightblue",fontsize="10",style="solid"];
  Node7 -> Node4 [dir="back",color="darkorchid3",fontsize="10",style="dashed",label=" mParentPlot" ];
  Node21 -> Node3 [dir="back",color="darkorchid3",fontsize="10",style="dashed",label=" mSelection" ];
  Node21 [label="QCPDataSelection",height=0.2,width=0.4,color="black", fillcolor="white", style="filled",URL="$classQCPDataSelection.html",tooltip="Describes a data set by holding multiple QCPDataRange instances. "];
  Node22 -> Node3 [dir="back",color="darkorchid3",fontsize="10",style="dashed",label=" mSelectionDecorator" ];
  Node22 [label="QCPSelectionDecorator",height=0.2,width=0.4,color="black", fillcolor="white", style="filled",URL="$classQCPSelectionDecorator.html",tooltip="Controls how a plottable&#39;s data selection is drawn. "];
  Node3 -> Node22 [dir="back",color="darkorchid3",fontsize="10",style="dashed",label=" mPlottable" ];
  Node23 -> Node22 [dir="back",color="darkorchid3",fontsize="10",style="dashed",label=" mScatterStyle" ];
  Node23 [label="QCPScatterStyle",height=0.2,width=0.4,color="black", fillcolor="white", style="filled",URL="$classQCPScatterStyle.html",tooltip="Represents the visual appearance of scatter points. "];
  Node24 -> Node2 [dir="back",color="midnightblue",fontsize="10",style="solid"];
  Node24 [label="QCPPlottableInterface1D",height=0.2,width=0.4,color="black", fillcolor="white", style="filled",URL="$classQCPPlottableInterface1D.html",tooltip="Defines an abstract interface for one-dimensional plottables. "];
  Node23 -> Node1 [dir="back",color="darkorchid3",fontsize="10",style="dashed",label=" mScatterStyle" ];
}
