digraph "Ui_history"
{
  edge [fontname="Helvetica",fontsize="10",labelfontname="Helvetica",labelfontsize="10"];
  node [fontname="Helvetica",fontsize="10",shape=record];
  Node1 [label="Ui_history",height=0.2,width=0.4,color="black", fillcolor="grey75", style="filled", fontcolor="black"];
  Node1 -> Node2 [dir="back",color="midnightblue",fontsize="10",style="solid"];
  Node2 [label="Ui::history",height=0.2,width=0.4,color="black", fillcolor="white", style="filled",URL="$classUi_1_1history.html"];
}
