digraph "QCPAxisPainterPrivate"
{
  edge [fontname="Helvetica",fontsize="10",labelfontname="Helvetica",labelfontsize="10"];
  node [fontname="Helvetica",fontsize="10",shape=record];
  Node1 [label="QCPAxisPainterPrivate",height=0.2,width=0.4,color="black", fillcolor="grey75", style="filled", fontcolor="black"];
  Node2 -> Node1 [dir="back",color="darkorchid3",fontsize="10",style="dashed",label=" lowerEnding\nupperEnding" ];
  Node2 [label="QCPLineEnding",height=0.2,width=0.4,color="black", fillcolor="white", style="filled",URL="$classQCPLineEnding.html",tooltip="Handles the different ending decorations for line-like items. "];
  Node3 -> Node1 [dir="back",color="darkorchid3",fontsize="10",style="dashed",label=" mParentPlot" ];
  Node3 [label="QCustomPlot",height=0.2,width=0.4,color="black", fillcolor="white", style="filled",URL="$classQCustomPlot.html",tooltip="The central class of the library. This is the QWidget which displays the plot and interacts with the ..."];
  Node4 -> Node3 [dir="back",color="midnightblue",fontsize="10",style="solid"];
  Node4 [label="QWidget",height=0.2,width=0.4,color="grey75", fillcolor="white", style="filled"];
  Node5 -> Node3 [dir="back",color="darkorchid3",fontsize="10",style="dashed",label=" mCurrentLayer" ];
  Node5 [label="QCPLayer",height=0.2,width=0.4,color="black", fillcolor="white", style="filled",URL="$classQCPLayer.html",tooltip="A layer that may contain objects, to control the rendering order. "];
  Node6 -> Node5 [dir="back",color="midnightblue",fontsize="10",style="solid"];
  Node6 [label="QObject",height=0.2,width=0.4,color="grey75", fillcolor="white", style="filled"];
  Node3 -> Node5 [dir="back",color="darkorchid3",fontsize="10",style="dashed",label=" mParentPlot" ];
  Node7 -> Node3 [dir="back",color="darkorchid3",fontsize="10",style="dashed",label=" mPlotLayout" ];
  Node7 [label="QCPLayoutGrid",height=0.2,width=0.4,color="black", fillcolor="white", style="filled",URL="$classQCPLayoutGrid.html",tooltip="A layout that arranges child elements in a grid. "];
  Node8 -> Node7 [dir="back",color="midnightblue",fontsize="10",style="solid"];
  Node8 [label="QCPLayout",height=0.2,width=0.4,color="black", fillcolor="white", style="filled",URL="$classQCPLayout.html",tooltip="The abstract base class for layouts. "];
  Node9 -> Node8 [dir="back",color="midnightblue",fontsize="10",style="solid"];
  Node9 [label="QCPLayoutElement",height=0.2,width=0.4,color="black", fillcolor="white", style="filled",URL="$classQCPLayoutElement.html",tooltip="The abstract base class for all objects that form the layout system. "];
  Node10 -> Node9 [dir="back",color="midnightblue",fontsize="10",style="solid"];
  Node10 [label="QCPLayerable",height=0.2,width=0.4,color="black", fillcolor="white", style="filled",URL="$classQCPLayerable.html",tooltip="Base class for all drawable objects. "];
  Node6 -> Node10 [dir="back",color="midnightblue",fontsize="10",style="solid"];
  Node5 -> Node10 [dir="back",color="darkorchid3",fontsize="10",style="dashed",label=" mLayer" ];
  Node3 -> Node10 [dir="back",color="darkorchid3",fontsize="10",style="dashed",label=" mParentPlot" ];
  Node8 -> Node9 [dir="back",color="darkorchid3",fontsize="10",style="dashed",label=" mParentLayout" ];
  Node11 -> Node3 [dir="back",color="darkorchid3",fontsize="10",style="dashed",label=" mSelectionRect" ];
  Node11 [label="QCPSelectionRect",height=0.2,width=0.4,color="black", fillcolor="white", style="filled",URL="$classQCPSelectionRect.html",tooltip="Provides rect/rubber-band data selection and range zoom interaction. "];
  Node10 -> Node11 [dir="back",color="midnightblue",fontsize="10",style="solid"];
  Node12 -> Node3 [dir="back",color="darkorchid3",fontsize="10",style="dashed",label=" yAxis2\nxAxis2\nxAxis\nyAxis" ];
  Node12 [label="QCPAxis",height=0.2,width=0.4,color="black", fillcolor="white", style="filled",URL="$classQCPAxis.html",tooltip="Manages a single axis inside a QCustomPlot. "];
  Node10 -> Node12 [dir="back",color="midnightblue",fontsize="10",style="solid"];
  Node13 -> Node12 [dir="back",color="darkorchid3",fontsize="10",style="dashed",label=" mRange" ];
  Node13 [label="QCPRange",height=0.2,width=0.4,color="black", fillcolor="white", style="filled",URL="$classQCPRange.html",tooltip="Represents the range an axis is encompassing. "];
  Node1 -> Node12 [dir="back",color="darkorchid3",fontsize="10",style="dashed",label=" mAxisPainter" ];
  Node14 -> Node12 [dir="back",color="darkorchid3",fontsize="10",style="dashed",label=" mGrid" ];
  Node14 [label="QCPGrid",height=0.2,width=0.4,color="black", fillcolor="white", style="filled",URL="$classQCPGrid.html",tooltip="Responsible for drawing the grid of a QCPAxis. "];
  Node10 -> Node14 [dir="back",color="midnightblue",fontsize="10",style="solid"];
  Node12 -> Node14 [dir="back",color="darkorchid3",fontsize="10",style="dashed",label=" mParentAxis" ];
  Node15 -> Node12 [dir="back",color="darkorchid3",fontsize="10",style="dashed",label=" mAxisRect" ];
  Node15 [label="QCPAxisRect",height=0.2,width=0.4,color="black", fillcolor="white", style="filled",URL="$classQCPAxisRect.html",tooltip="Holds multiple axes and arranges them in a rectangular shape. "];
  Node9 -> Node15 [dir="back",color="midnightblue",fontsize="10",style="solid"];
  Node16 -> Node15 [dir="back",color="darkorchid3",fontsize="10",style="dashed",label=" mInsetLayout" ];
  Node16 [label="QCPLayoutInset",height=0.2,width=0.4,color="black", fillcolor="white", style="filled",URL="$classQCPLayoutInset.html",tooltip="A layout that places child elements aligned to the border or arbitrarily positioned. "];
  Node8 -> Node16 [dir="back",color="midnightblue",fontsize="10",style="solid"];
  Node17 -> Node3 [dir="back",color="darkorchid3",fontsize="10",style="dashed",label=" legend" ];
  Node17 [label="QCPLegend",height=0.2,width=0.4,color="black", fillcolor="white", style="filled",URL="$classQCPLegend.html",tooltip="Manages a legend inside a QCustomPlot. "];
  Node7 -> Node17 [dir="back",color="midnightblue",fontsize="10",style="solid"];
}
