digraph "QCPPaintBufferPixmap"
{
  edge [fontname="Helvetica",fontsize="10",labelfontname="Helvetica",labelfontsize="10"];
  node [fontname="Helvetica",fontsize="10",shape=record];
  Node1 [label="QCPPaintBufferPixmap",height=0.2,width=0.4,color="black", fillcolor="grey75", style="filled", fontcolor="black"];
  Node2 -> Node1 [dir="back",color="midnightblue",fontsize="10",style="solid"];
  Node2 [label="QCPAbstractPaintBuffer",height=0.2,width=0.4,color="black", fillcolor="white", style="filled",URL="$classQCPAbstractPaintBuffer.html",tooltip="The abstract base class for paint buffers, which define the rendering backend. "];
}
