digraph "QCPItemEllipse"
{
  edge [fontname="Helvetica",fontsize="10",labelfontname="Helvetica",labelfontsize="10"];
  node [fontname="Helvetica",fontsize="10",shape=record];
  Node1 [label="QCPItemEllipse",height=0.2,width=0.4,color="black", fillcolor="grey75", style="filled", fontcolor="black"];
  Node2 -> Node1 [dir="back",color="midnightblue",fontsize="10",style="solid"];
  Node2 [label="QCPAbstractItem",height=0.2,width=0.4,color="black", fillcolor="white", style="filled",URL="$classQCPAbstractItem.html",tooltip="The abstract base class for all items in a plot. "];
  Node3 -> Node2 [dir="back",color="midnightblue",fontsize="10",style="solid"];
  Node3 [label="QCPLayerable",height=0.2,width=0.4,color="black", fillcolor="white", style="filled",URL="$classQCPLayerable.html",tooltip="Base class for all drawable objects. "];
  Node4 -> Node3 [dir="back",color="midnightblue",fontsize="10",style="solid"];
  Node4 [label="QObject",height=0.2,width=0.4,color="grey75", fillcolor="white", style="filled"];
}
