digraph "QCPCurve"
{
  edge [fontname="Helvetica",fontsize="10",labelfontname="Helvetica",labelfontsize="10"];
  node [fontname="Helvetica",fontsize="10",shape=record];
  Node1 [label="QCPCurve",height=0.2,width=0.4,color="black", fillcolor="grey75", style="filled", fontcolor="black"];
  Node2 -> Node1 [dir="back",color="midnightblue",fontsize="10",style="solid"];
  Node2 [label="QCPAbstractPlottable1D\l\< QCPCurveData \>",height=0.2,width=0.4,color="black", fillcolor="white", style="filled",URL="$classQCPAbstractPlottable1D.html"];
  Node3 -> Node2 [dir="back",color="midnightblue",fontsize="10",style="solid"];
  Node3 [label="QCPAbstractPlottable",height=0.2,width=0.4,color="black", fillcolor="white", style="filled",URL="$classQCPAbstractPlottable.html",tooltip="The abstract base class for all data representing objects in a plot. "];
  Node4 -> Node3 [dir="back",color="midnightblue",fontsize="10",style="solid"];
  Node4 [label="QCPLayerable",height=0.2,width=0.4,color="black", fillcolor="white", style="filled",URL="$classQCPLayerable.html",tooltip="Base class for all drawable objects. "];
  Node5 -> Node4 [dir="back",color="midnightblue",fontsize="10",style="solid"];
  Node5 [label="QObject",height=0.2,width=0.4,color="grey75", fillcolor="white", style="filled"];
  Node6 -> Node2 [dir="back",color="midnightblue",fontsize="10",style="solid"];
  Node6 [label="QCPPlottableInterface1D",height=0.2,width=0.4,color="black", fillcolor="white", style="filled",URL="$classQCPPlottableInterface1D.html",tooltip="Defines an abstract interface for one-dimensional plottables. "];
}
