EESchema Schematic File Version 2
LIBS:power
LIBS:device
LIBS:transistors
LIBS:conn
LIBS:linear
LIBS:regul
LIBS:74xx
LIBS:cmos4000
LIBS:adc-dac
LIBS:memory
LIBS:xilinx
LIBS:microcontrollers
LIBS:dsp
LIBS:microchip
LIBS:analog_switches
LIBS:motorola
LIBS:texas
LIBS:intel
LIBS:audio
LIBS:interface
LIBS:digital-audio
LIBS:philips
LIBS:display
LIBS:cypress
LIBS:siliconi
LIBS:opto
LIBS:atmel
LIBS:contrib
LIBS:valves
LIBS:ac-dc
LIBS:actel
LIBS:Altera
LIBS:analog_devices
LIBS:brooktre
LIBS:cmos_ieee
LIBS:dc-dc
LIBS:diode
LIBS:edulib
LIBS:elec-unifil
LIBS:ESD_Protection
LIBS:ftdi
LIBS:gennum
LIBS:graphic
LIBS:hc11
LIBS:ir
LIBS:Lattice
LIBS:logo
LIBS:maxim
LIBS:microchip_dspic33dsc
LIBS:microchip_pic10mcu
LIBS:microchip_pic12mcu
LIBS:microchip_pic16mcu
LIBS:microchip_pic18mcu
LIBS:microchip_pic32mcu
LIBS:motor_drivers
LIBS:msp430
LIBS:nordicsemi
LIBS:nxp_armmcu
LIBS:onsemi
LIBS:Oscillators
LIBS:powerint
LIBS:Power_Management
LIBS:pspice
LIBS:references
LIBS:relays
LIBS:rfcom
LIBS:sensors
LIBS:silabs
LIBS:stm8
LIBS:stm32
LIBS:stm32f030f4
LIBS:supertex
LIBS:switches
LIBS:tb6552
LIBS:transf
LIBS:ttl_ieee
LIBS:video
LIBS:warsztaty
LIBS:Worldsemi
LIBS:Xicor
LIBS:Zilog
LIBS:slave-cache
EELAYER 25 0
EELAYER END
$Descr A4 11693 8268
encoding utf-8
Sheet 1 1
Title ""
Date ""
Rev ""
Comp ""
Comment1 ""
Comment2 ""
Comment3 ""
Comment4 ""
$EndDescr
$Comp
L STM32F030F4 U2
U 1 1 590C4A3B
P 3950 2750
F 0 "U2" H 3600 2100 60  0000 C CNN
F 1 "STM32F030F4" H 4300 2100 60  0000 C CNN
F 2 "Housings_SSOP:SSOP-20_5.3x7.2mm_Pitch0.65mm" H 4000 2750 60  0001 C CNN
F 3 "" H 3950 2750 60  0000 C CNN
	1    3950 2750
	1    0    0    -1  
$EndComp
$Comp
L GND #PWR01
U 1 1 590C4AC0
P 3950 3650
F 0 "#PWR01" H 3950 3400 50  0001 C CNN
F 1 "GND" H 3950 3500 50  0000 C CNN
F 2 "" H 3950 3650 50  0000 C CNN
F 3 "" H 3950 3650 50  0000 C CNN
	1    3950 3650
	1    0    0    -1  
$EndComp
$Comp
L VCC #PWR02
U 1 1 590C4AE2
P 3950 1750
F 0 "#PWR02" H 3950 1600 50  0001 C CNN
F 1 "VCC" H 3950 1900 50  0000 C CNN
F 2 "" H 3950 1750 50  0000 C CNN
F 3 "" H 3950 1750 50  0000 C CNN
	1    3950 1750
	1    0    0    -1  
$EndComp
NoConn ~ 3350 2250
NoConn ~ 3350 2350
$Comp
L CONN_01X08 P9
U 1 1 590C4B81
P 6500 2050
F 0 "P9" H 6500 2500 50  0000 C CNN
F 1 "RFM" V 6600 2050 50  0000 C CNN
F 2 "Pin_Headers2:Pin_Header_Straight_1x08_Pitch1.27mm" H 6500 2050 50  0001 C CNN
F 3 "" H 6500 2050 50  0000 C CNN
	1    6500 2050
	1    0    0    1   
$EndComp
Text Label 4650 3000 0    60   ~ 0
RFM_MOSI
Text Label 4650 3100 0    60   ~ 0
RFM_MISO
Text Label 4650 3200 0    60   ~ 0
RFM_SCK
Text Label 2900 3100 0    60   ~ 0
RFM_CE
Text Label 2900 3200 0    60   ~ 0
RFM_CSN
Text Label 2900 3000 0    60   ~ 0
RFM_IRQ
$Comp
L Q_NMOS_GSD Q1
U 1 1 590C4E3A
P 8800 3550
F 0 "Q1" H 9100 3600 50  0000 R CNN
F 1 "NMOS" H 9200 3500 50  0000 R CNN
F 2 "TO_SOT_Packages_SMD:SOT-23" H 9000 3650 50  0001 C CNN
F 3 "" H 8800 3550 50  0000 C CNN
	1    8800 3550
	1    0    0    -1  
$EndComp
Text Label 2900 2900 0    60   ~ 0
MQ2_ON
Text Label 2900 2800 0    60   ~ 0
MQ2_ADC
Text Label 4650 2800 0    60   ~ 0
ONE_WIRE
Text Label 4650 2700 0    60   ~ 0
PIR
$Comp
L CONN_01X03 P5
U 1 1 590C5030
P 5300 2150
F 0 "P5" H 5300 2350 50  0000 C CNN
F 1 "SWD" V 5400 2150 50  0000 C CNN
F 2 "Pin_Headers:Pin_Header_Straight_1x03" H 5300 2150 50  0001 C CNN
F 3 "" H 5300 2150 50  0000 C CNN
	1    5300 2150
	0    -1   -1   0   
$EndComp
$Comp
L GND #PWR03
U 1 1 590C5198
P 5400 2500
F 0 "#PWR03" H 5400 2250 50  0001 C CNN
F 1 "GND" H 5400 2350 50  0000 C CNN
F 2 "" H 5400 2500 50  0000 C CNN
F 3 "" H 5400 2500 50  0000 C CNN
	1    5400 2500
	1    0    0    -1  
$EndComp
$Comp
L GND #PWR04
U 1 1 590C5325
P 6200 2500
F 0 "#PWR04" H 6200 2250 50  0001 C CNN
F 1 "GND" H 6200 2350 50  0000 C CNN
F 2 "" H 6200 2500 50  0000 C CNN
F 3 "" H 6200 2500 50  0000 C CNN
	1    6200 2500
	1    0    0    -1  
$EndComp
$Comp
L VCC #PWR05
U 1 1 590C5365
P 6000 2300
F 0 "#PWR05" H 6000 2150 50  0001 C CNN
F 1 "VCC" H 6000 2450 50  0000 C CNN
F 2 "" H 6000 2300 50  0000 C CNN
F 3 "" H 6000 2300 50  0000 C CNN
	1    6000 2300
	0    -1   -1   0   
$EndComp
Text Label 5850 2200 0    60   ~ 0
RFM_CE
Text Label 5850 2100 0    60   ~ 0
RFM_CSN
Text Label 5850 2000 0    60   ~ 0
RFM_SCK
Text Label 5850 1900 0    60   ~ 0
RFM_MOSI
Text Label 5850 1800 0    60   ~ 0
RFM_MISO
Text Label 5850 1700 0    60   ~ 0
RFM_IRQ
$Comp
L CONN_01X03 P7
U 1 1 590C560E
P 8900 3000
F 0 "P7" H 8900 3200 50  0000 C CNN
F 1 "MQ2" V 9000 3000 50  0000 C CNN
F 2 "Pin_Headers:Pin_Header_Straight_1x03" H 8900 3000 50  0001 C CNN
F 3 "" H 8900 3000 50  0000 C CNN
	1    8900 3000
	0    -1   -1   0   
$EndComp
$Comp
L +5V #PWR06
U 1 1 590C5721
P 8500 3100
F 0 "#PWR06" H 8500 2950 50  0001 C CNN
F 1 "+5V" H 8500 3240 50  0000 C CNN
F 2 "" H 8500 3100 50  0000 C CNN
F 3 "" H 8500 3100 50  0000 C CNN
	1    8500 3100
	1    0    0    -1  
$EndComp
$Comp
L GND #PWR07
U 1 1 590C57E6
P 8900 4100
F 0 "#PWR07" H 8900 3850 50  0001 C CNN
F 1 "GND" H 8900 3950 50  0000 C CNN
F 2 "" H 8900 4100 50  0000 C CNN
F 3 "" H 8900 4100 50  0000 C CNN
	1    8900 4100
	1    0    0    -1  
$EndComp
$Comp
L R_Small R2
U 1 1 590C584E
P 8300 3550
F 0 "R2" H 8330 3570 50  0000 L CNN
F 1 "1k" H 8330 3510 50  0000 L CNN
F 2 "Resistors_SMD:R_0805_HandSoldering" H 8300 3550 50  0001 C CNN
F 3 "" H 8300 3550 50  0000 C CNN
	1    8300 3550
	0    1    1    0   
$EndComp
Text Label 7800 3550 0    60   ~ 0
MQ2_ON
$Comp
L R_Small R3
U 1 1 590C599A
P 8500 3750
F 0 "R3" H 8530 3770 50  0000 L CNN
F 1 "10k" H 8530 3710 50  0000 L CNN
F 2 "Resistors_SMD:R_0805_HandSoldering" H 8500 3750 50  0001 C CNN
F 3 "" H 8500 3750 50  0000 C CNN
	1    8500 3750
	1    0    0    -1  
$EndComp
Text Label 9650 3300 0    60   ~ 0
MQ2_ADC
$Comp
L R_Small R5
U 1 1 590C5B1C
P 9400 3500
F 0 "R5" H 9430 3520 50  0000 L CNN
F 1 "10k" H 9430 3460 50  0000 L CNN
F 2 "Resistors_SMD:R_0805_HandSoldering" H 9400 3500 50  0001 C CNN
F 3 "" H 9400 3500 50  0000 C CNN
	1    9400 3500
	1    0    0    -1  
$EndComp
$Comp
L R_Small R4
U 1 1 590C5D5B
P 9200 3300
F 0 "R4" H 9230 3320 50  0000 L CNN
F 1 "5k" H 9230 3260 50  0000 L CNN
F 2 "Resistors_SMD:R_0805_HandSoldering" H 9200 3300 50  0001 C CNN
F 3 "" H 9200 3300 50  0000 C CNN
	1    9200 3300
	0    -1   -1   0   
$EndComp
$Comp
L C_Small C3
U 1 1 590C611E
P 6900 2100
F 0 "C3" H 6910 2170 50  0000 L CNN
F 1 "100n" H 6910 2020 50  0000 L CNN
F 2 "Capacitors_SMD:C_0805_HandSoldering" H 6900 2100 50  0001 C CNN
F 3 "" H 6900 2100 50  0000 C CNN
	1    6900 2100
	1    0    0    -1  
$EndComp
$Comp
L VCC #PWR08
U 1 1 590C6222
P 7200 1800
F 0 "#PWR08" H 7200 1650 50  0001 C CNN
F 1 "VCC" H 7200 1950 50  0000 C CNN
F 2 "" H 7200 1800 50  0000 C CNN
F 3 "" H 7200 1800 50  0000 C CNN
	1    7200 1800
	1    0    0    -1  
$EndComp
$Comp
L C_Small C4
U 1 1 590C6258
P 7200 2100
F 0 "C4" H 7210 2170 50  0000 L CNN
F 1 "100n" H 7210 2020 50  0000 L CNN
F 2 "Capacitors_SMD:C_0805_HandSoldering" H 7200 2100 50  0001 C CNN
F 3 "" H 7200 2100 50  0000 C CNN
	1    7200 2100
	1    0    0    -1  
$EndComp
$Comp
L GND #PWR09
U 1 1 590C6361
P 7200 2400
F 0 "#PWR09" H 7200 2150 50  0001 C CNN
F 1 "GND" H 7200 2250 50  0000 C CNN
F 2 "" H 7200 2400 50  0000 C CNN
F 3 "" H 7200 2400 50  0000 C CNN
	1    7200 2400
	1    0    0    -1  
$EndComp
$Comp
L C_Small C5
U 1 1 590C64A3
P 7500 2100
F 0 "C5" H 7510 2170 50  0000 L CNN
F 1 "100n" H 7510 2020 50  0000 L CNN
F 2 "Capacitors_SMD:C_0805_HandSoldering" H 7500 2100 50  0001 C CNN
F 3 "" H 7500 2100 50  0000 C CNN
	1    7500 2100
	1    0    0    -1  
$EndComp
$Comp
L MCP1754ST-1802E/MB U1
U 1 1 590C69C8
P 9250 1950
F 0 "U1" H 9350 1800 50  0000 C CNN
F 1 "MCP1700T3302" H 9250 2100 50  0000 C CNN
F 2 "TO_SOT_Packages_SMD:SOT-23" H 9250 1950 50  0001 C CNN
F 3 "" H 9250 1950 50  0000 C CNN
	1    9250 1950
	1    0    0    -1  
$EndComp
$Comp
L C_Small C1
U 1 1 590C6F33
P 8800 2150
F 0 "C1" H 8810 2220 50  0000 L CNN
F 1 "100n" H 8810 2070 50  0000 L CNN
F 2 "Capacitors_SMD:C_0805_HandSoldering" H 8800 2150 50  0001 C CNN
F 3 "" H 8800 2150 50  0000 C CNN
	1    8800 2150
	1    0    0    -1  
$EndComp
$Comp
L GND #PWR010
U 1 1 590C7268
P 9250 2450
F 0 "#PWR010" H 9250 2200 50  0001 C CNN
F 1 "GND" H 9250 2300 50  0000 C CNN
F 2 "" H 9250 2450 50  0000 C CNN
F 3 "" H 9250 2450 50  0000 C CNN
	1    9250 2450
	1    0    0    -1  
$EndComp
$Comp
L +5V #PWR011
U 1 1 590C72FA
P 8800 1750
F 0 "#PWR011" H 8800 1600 50  0001 C CNN
F 1 "+5V" H 8800 1890 50  0000 C CNN
F 2 "" H 8800 1750 50  0000 C CNN
F 3 "" H 8800 1750 50  0000 C CNN
	1    8800 1750
	1    0    0    -1  
$EndComp
$Comp
L VCC #PWR012
U 1 1 590C7411
P 9850 1750
F 0 "#PWR012" H 9850 1600 50  0001 C CNN
F 1 "VCC" H 9850 1900 50  0000 C CNN
F 2 "" H 9850 1750 50  0000 C CNN
F 3 "" H 9850 1750 50  0000 C CNN
	1    9850 1750
	1    0    0    -1  
$EndComp
$Comp
L C_Small C2
U 1 1 590C74E6
P 9850 2150
F 0 "C2" H 9860 2220 50  0000 L CNN
F 1 "100n" H 9860 2070 50  0000 L CNN
F 2 "Capacitors_SMD:C_0805_HandSoldering" H 9850 2150 50  0001 C CNN
F 3 "" H 9850 2150 50  0000 C CNN
	1    9850 2150
	1    0    0    -1  
$EndComp
$Comp
L CONN_01X03 P8
U 1 1 590C7B1D
P 7450 3450
F 0 "P8" H 7450 3650 50  0000 C CNN
F 1 "PIR" V 7550 3450 50  0000 C CNN
F 2 "Pin_Headers:Pin_Header_Straight_1x03" H 7450 3450 50  0001 C CNN
F 3 "" H 7450 3450 50  0000 C CNN
	1    7450 3450
	1    0    0    -1  
$EndComp
$Comp
L GND #PWR013
U 1 1 590C7C9C
P 7150 3650
F 0 "#PWR013" H 7150 3400 50  0001 C CNN
F 1 "GND" H 7150 3500 50  0000 C CNN
F 2 "" H 7150 3650 50  0000 C CNN
F 3 "" H 7150 3650 50  0000 C CNN
	1    7150 3650
	1    0    0    -1  
$EndComp
Text Label 6850 3450 0    60   ~ 0
PIR
$Comp
L +5V #PWR014
U 1 1 590C7F32
P 7150 3050
F 0 "#PWR014" H 7150 2900 50  0001 C CNN
F 1 "+5V" H 7150 3190 50  0000 C CNN
F 2 "" H 7150 3050 50  0000 C CNN
F 3 "" H 7150 3050 50  0000 C CNN
	1    7150 3050
	1    0    0    -1  
$EndComp
$Comp
L CONN_01X04 P4
U 1 1 590C80FF
P 6550 3450
F 0 "P4" H 6550 3700 50  0000 C CNN
F 1 "DHT11" V 6650 3450 50  0000 C CNN
F 2 "Pin_Headers:Pin_Header_Straight_1x04" H 6550 3450 50  0001 C CNN
F 3 "" H 6550 3450 50  0000 C CNN
	1    6550 3450
	1    0    0    -1  
$EndComp
$Comp
L CONN_01X03 P6
U 1 1 590C8236
P 7500 4400
F 0 "P6" H 7500 4600 50  0000 C CNN
F 1 "DS18B20" V 7600 4400 50  0000 C CNN
F 2 "Pin_Headers:Pin_Header_Straight_1x03" H 7500 4400 50  0001 C CNN
F 3 "" H 7500 4400 50  0000 C CNN
	1    7500 4400
	1    0    0    -1  
$EndComp
$Comp
L VCC #PWR015
U 1 1 590C85A4
P 6300 3050
F 0 "#PWR015" H 6300 2900 50  0001 C CNN
F 1 "VCC" H 6300 3200 50  0000 C CNN
F 2 "" H 6300 3050 50  0000 C CNN
F 3 "" H 6300 3050 50  0000 C CNN
	1    6300 3050
	1    0    0    -1  
$EndComp
$Comp
L GND #PWR016
U 1 1 590C864B
P 6250 3700
F 0 "#PWR016" H 6250 3450 50  0001 C CNN
F 1 "GND" H 6250 3550 50  0000 C CNN
F 2 "" H 6250 3700 50  0000 C CNN
F 3 "" H 6250 3700 50  0000 C CNN
	1    6250 3700
	1    0    0    -1  
$EndComp
$Comp
L R_Small R1
U 1 1 590C87DB
P 6100 3250
F 0 "R1" H 6130 3270 50  0000 L CNN
F 1 "4k7" H 6130 3210 50  0000 L CNN
F 2 "Resistors_SMD:R_0805_HandSoldering" H 6100 3250 50  0001 C CNN
F 3 "" H 6100 3250 50  0000 C CNN
	1    6100 3250
	1    0    0    -1  
$EndComp
$Comp
L VCC #PWR017
U 1 1 590C89B2
P 7200 4200
F 0 "#PWR017" H 7200 4050 50  0001 C CNN
F 1 "VCC" H 7200 4350 50  0000 C CNN
F 2 "" H 7200 4200 50  0000 C CNN
F 3 "" H 7200 4200 50  0000 C CNN
	1    7200 4200
	1    0    0    -1  
$EndComp
$Comp
L GND #PWR018
U 1 1 590C8A73
P 7200 4600
F 0 "#PWR018" H 7200 4350 50  0001 C CNN
F 1 "GND" H 7200 4450 50  0000 C CNN
F 2 "" H 7200 4600 50  0000 C CNN
F 3 "" H 7200 4600 50  0000 C CNN
	1    7200 4600
	1    0    0    -1  
$EndComp
Text Label 6900 4650 1    60   ~ 0
ONE_WIRE
$Comp
L CONN_01X02 P10
U 1 1 590C956F
P 7950 2300
F 0 "P10" H 7950 2450 50  0000 C CNN
F 1 "POWER" V 8050 2300 50  0000 C CNN
F 2 "Pin_Headers:Pin_Header_Straight_1x02" H 7950 2300 50  0001 C CNN
F 3 "" H 7950 2300 50  0000 C CNN
	1    7950 2300
	-1   0    0    1   
$EndComp
$Comp
L CONN_01X02 P2
U 1 1 590C97FA
P 7950 1950
F 0 "P2" H 7950 2100 50  0000 C CNN
F 1 "PWR_SW" V 8050 1950 50  0000 C CNN
F 2 "Pin_Headers:Pin_Header_Straight_1x02" H 7950 1950 50  0001 C CNN
F 3 "" H 7950 1950 50  0000 C CNN
	1    7950 1950
	-1   0    0    1   
$EndComp
$Comp
L R_Small R7
U 1 1 590CA80D
P 2800 2650
F 0 "R7" H 2830 2670 50  0000 L CNN
F 1 "220R" H 2830 2610 50  0000 L CNN
F 2 "Resistors_SMD:R_0805_HandSoldering" H 2800 2650 50  0001 C CNN
F 3 "" H 2800 2650 50  0000 C CNN
	1    2800 2650
	0    1    1    0   
$EndComp
$Comp
L R_Small R6
U 1 1 590CAAF9
P 2800 2550
F 0 "R6" H 2830 2570 50  0000 L CNN
F 1 "220R" H 2830 2510 50  0000 L CNN
F 2 "Resistors_SMD:R_0805_HandSoldering" H 2800 2550 50  0001 C CNN
F 3 "" H 2800 2550 50  0000 C CNN
	1    2800 2550
	0    -1   -1   0   
$EndComp
$Comp
L CONN_02X02 P1
U 1 1 590CB79E
P 2400 2600
F 0 "P1" H 2400 2750 50  0000 C CNN
F 1 "LEDS" H 2400 2450 50  0000 C CNN
F 2 "Pin_Headers:Pin_Header_Straight_2x02" H 2400 1400 50  0001 C CNN
F 3 "" H 2400 1400 50  0000 C CNN
	1    2400 2600
	1    0    0    -1  
$EndComp
$Comp
L GND #PWR019
U 1 1 590CB8B3
P 2050 2750
F 0 "#PWR019" H 2050 2500 50  0001 C CNN
F 1 "GND" H 2050 2600 50  0000 C CNN
F 2 "" H 2050 2750 50  0000 C CNN
F 3 "" H 2050 2750 50  0000 C CNN
	1    2050 2750
	1    0    0    -1  
$EndComp
Text Label 4650 2250 0    60   ~ 0
DHT11
Text Label 5750 3400 0    60   ~ 0
DHT11
Text Notes 1950 1550 0    60   ~ 0
Mikrokontroler
Text Notes 7750 1550 0    60   ~ 0
Zasilanie
Text Notes 6800 1550 0    60   ~ 0
Filtracja zasilania
Text Notes 5600 1550 0    60   ~ 0
RFM
Text Notes 7750 2850 0    60   ~ 0
Zasilanie MQ2
Text Notes 5600 2850 0    60   ~ 0
Złącze DHT11
Text Notes 6800 2850 0    60   ~ 0
Złącze PIR
Text Notes 6800 4000 0    60   ~ 0
Złącze DS18B20
$Comp
L R_Small R8
U 1 1 5917603F
P 7050 4300
F 0 "R8" H 7080 4320 50  0000 L CNN
F 1 "4k7" H 7080 4260 50  0000 L CNN
F 2 "Resistors_SMD:R_0805_HandSoldering" H 7050 4300 50  0001 C CNN
F 3 "" H 7050 4300 50  0000 C CNN
	1    7050 4300
	0    1    -1   0   
$EndComp
Wire Wire Line
	3950 3650 3950 3550
Wire Wire Line
	3850 1950 3850 1850
Wire Wire Line
	3850 1850 4050 1850
Wire Wire Line
	3950 1850 3950 1750
Wire Wire Line
	4050 1850 4050 1950
Connection ~ 3950 1850
Wire Wire Line
	4550 3000 4650 3000
Wire Wire Line
	4550 3100 4650 3100
Wire Wire Line
	4550 3200 4650 3200
Wire Wire Line
	2900 3200 3350 3200
Wire Wire Line
	2900 3100 3350 3100
Wire Wire Line
	2900 3000 3350 3000
Wire Wire Line
	2900 2900 3350 2900
Wire Wire Line
	2900 2800 3350 2800
Wire Wire Line
	4650 2800 4550 2800
Wire Wire Line
	4650 2700 4550 2700
Wire Wire Line
	4550 2250 4650 2250
Wire Wire Line
	4550 2450 5200 2450
Wire Wire Line
	5200 2450 5200 2350
Wire Wire Line
	4550 2550 5300 2550
Wire Wire Line
	5300 2550 5300 2350
Wire Wire Line
	5400 2500 5400 2350
Wire Wire Line
	6200 2500 6200 2400
Wire Wire Line
	6200 2400 6300 2400
Wire Wire Line
	6000 2300 6300 2300
Wire Wire Line
	5850 2200 6300 2200
Wire Wire Line
	5850 2100 6300 2100
Wire Wire Line
	5850 2000 6300 2000
Wire Wire Line
	5850 1900 6300 1900
Wire Wire Line
	5850 1800 6300 1800
Wire Wire Line
	5850 1700 6300 1700
Wire Wire Line
	8900 3200 8900 3350
Wire Wire Line
	8900 3750 8900 4100
Wire Wire Line
	8400 3550 8600 3550
Wire Wire Line
	7800 3550 8200 3550
Wire Wire Line
	8500 3650 8500 3550
Connection ~ 8500 3550
Wire Wire Line
	8500 3850 8500 4000
Wire Wire Line
	8500 4000 9400 4000
Connection ~ 8900 4000
Wire Wire Line
	8500 3100 8500 3300
Wire Wire Line
	8500 3300 8800 3300
Wire Wire Line
	8800 3300 8800 3200
Wire Wire Line
	9000 3200 9000 3300
Wire Wire Line
	9000 3300 9100 3300
Wire Wire Line
	9300 3300 9650 3300
Wire Wire Line
	9400 3400 9400 3300
Connection ~ 9400 3300
Wire Wire Line
	9400 4000 9400 3600
Wire Wire Line
	6900 2000 6900 1900
Wire Wire Line
	7200 1800 7200 2000
Wire Wire Line
	6900 2200 6900 2300
Wire Wire Line
	7200 2200 7200 2400
Wire Wire Line
	7500 1900 7500 2000
Connection ~ 7200 1900
Connection ~ 7200 2300
Wire Wire Line
	7500 2300 7500 2200
Wire Wire Line
	6900 2300 7500 2300
Wire Wire Line
	6900 1900 7500 1900
Wire Wire Line
	8350 1950 8950 1950
Wire Wire Line
	8800 1750 8800 2050
Connection ~ 8800 1950
Wire Wire Line
	8150 2350 9850 2350
Wire Wire Line
	8800 2350 8800 2250
Wire Wire Line
	9250 2150 9250 2450
Connection ~ 8800 2350
Connection ~ 9250 2350
Wire Wire Line
	9550 1950 9850 1950
Wire Wire Line
	9850 1750 9850 2050
Wire Wire Line
	9850 2350 9850 2250
Connection ~ 9850 1950
Wire Wire Line
	7150 3650 7150 3550
Wire Wire Line
	7150 3550 7250 3550
Wire Wire Line
	7250 3450 6850 3450
Wire Wire Line
	7150 3050 7150 3350
Wire Wire Line
	7150 3350 7250 3350
Wire Wire Line
	6300 3050 6300 3300
Wire Wire Line
	6300 3300 6350 3300
Wire Wire Line
	6250 3700 6250 3600
Wire Wire Line
	6250 3600 6350 3600
Wire Wire Line
	5750 3400 6350 3400
Wire Wire Line
	6100 3150 6100 3100
Wire Wire Line
	6100 3100 6300 3100
Connection ~ 6300 3100
Wire Wire Line
	6100 3350 6100 3400
Connection ~ 6100 3400
Wire Wire Line
	7200 4200 7200 4300
Wire Wire Line
	7150 4300 7300 4300
Wire Wire Line
	7200 4600 7200 4500
Wire Wire Line
	7200 4500 7300 4500
Wire Wire Line
	8150 2250 8200 2250
Wire Wire Line
	8200 2250 8200 2000
Wire Wire Line
	8200 2000 8150 2000
Wire Wire Line
	8150 1900 8350 1900
Wire Wire Line
	8350 1900 8350 1950
Wire Wire Line
	2650 2550 2700 2550
Wire Wire Line
	2650 2650 2700 2650
Wire Wire Line
	2900 2550 3100 2550
Wire Wire Line
	3100 2550 3100 2600
Wire Wire Line
	3100 2600 3350 2600
Wire Wire Line
	3350 2700 3000 2700
Wire Wire Line
	3000 2700 3000 2650
Wire Wire Line
	3000 2650 2900 2650
Wire Wire Line
	2150 2650 2050 2650
Wire Wire Line
	2050 2550 2050 2750
Wire Wire Line
	2150 2550 2050 2550
Connection ~ 2050 2650
Wire Notes Line
	5550 1550 1950 1550
Wire Notes Line
	1950 1550 1950 3900
Wire Notes Line
	1950 3900 5550 3900
Wire Notes Line
	5550 3900 5550 1550
Wire Notes Line
	7750 1550 10100 1550
Wire Notes Line
	7750 1550 7750 2750
Wire Notes Line
	7750 2750 10100 2750
Wire Notes Line
	10100 2750 10100 1550
Wire Notes Line
	6800 1550 7700 1550
Wire Notes Line
	7700 1550 7700 2750
Wire Notes Line
	7700 2750 6800 2750
Wire Notes Line
	6800 2750 6800 1550
Wire Notes Line
	6750 1550 5600 1550
Wire Notes Line
	5600 1550 5600 2750
Wire Notes Line
	5600 2750 6750 2750
Wire Notes Line
	6750 2750 6750 1550
Wire Notes Line
	10100 2850 7750 2850
Wire Notes Line
	7750 2850 7750 4350
Wire Notes Line
	7750 4350 10100 4350
Wire Notes Line
	10100 4350 10100 2850
Wire Notes Line
	7700 2850 6800 2850
Wire Notes Line
	6800 2850 6800 3900
Wire Notes Line
	6800 3900 7700 3900
Wire Notes Line
	7700 3900 7700 2850
Wire Notes Line
	6750 2850 5600 2850
Wire Notes Line
	5600 2850 5600 3900
Wire Notes Line
	5600 3900 6750 3900
Wire Notes Line
	6750 3900 6750 2850
Wire Notes Line
	7700 4000 6800 4000
Wire Notes Line
	6800 4000 6800 4800
Wire Notes Line
	6800 4800 7700 4800
Wire Notes Line
	7700 4800 7700 4000
Connection ~ 7200 4300
Wire Wire Line
	7300 4400 6900 4400
Wire Wire Line
	6900 4300 6900 4650
Wire Wire Line
	6950 4300 6900 4300
Connection ~ 6900 4400
$EndSCHEMATC
