EESchema Schematic File Version 2
LIBS:power
LIBS:device
LIBS:transistors
LIBS:conn
LIBS:linear
LIBS:regul
LIBS:74xx
LIBS:cmos4000
LIBS:adc-dac
LIBS:memory
LIBS:xilinx
LIBS:microcontrollers
LIBS:dsp
LIBS:microchip
LIBS:analog_switches
LIBS:motorola
LIBS:texas
LIBS:intel
LIBS:audio
LIBS:interface
LIBS:digital-audio
LIBS:philips
LIBS:display
LIBS:cypress
LIBS:siliconi
LIBS:opto
LIBS:atmel
LIBS:contrib
LIBS:valves
LIBS:edulib
LIBS:stm32
LIBS:stm32f030f4
LIBS:tb6552
LIBS:warsztaty
LIBS:stm32f042f6
LIBS:mcp7941
LIBS:master-cache
EELAYER 25 0
EELAYER END
$Descr A4 11693 8268
encoding utf-8
Sheet 1 1
Title "ISMM - Master"
Date "2017-04-06"
Rev "1.0"
Comp "Projekt Sterowniki Robotów"
Comment1 "Marcin Węgrzyn"
Comment2 "Karol Oleśkiewicz"
Comment3 ""
Comment4 ""
$EndDescr
$Comp
L STM32F042F6 U1
U 1 1 58E3AE65
P 3900 2850
F 0 "U1" H 3550 2200 60  0000 C CNN
F 1 "STM32F042F6" H 4250 2200 60  0000 C CNN
F 2 "Housings_SSOP:TSSOP-20_4.4x6.5mm_Pitch0.65mm" H 3950 2850 60  0001 C CNN
F 3 "" H 3900 2850 60  0000 C CNN
	1    3900 2850
	1    0    0    -1  
$EndComp
$Comp
L AP1117D33 U2
U 1 1 58E3AED4
P 8900 1900
F 0 "U2" H 9000 1650 50  0000 C CNN
F 1 "MCP1700T3302" H 8900 2150 50  0000 C CNN
F 2 "TO_SOT_Packages_SMD:SOT-23" H 8900 1900 50  0001 C CNN
F 3 "" H 8900 1900 50  0000 C CNN
	1    8900 1900
	1    0    0    -1  
$EndComp
$Comp
L +5V #PWR01
U 1 1 58E3B047
P 7400 1600
F 0 "#PWR01" H 7400 1450 50  0001 C CNN
F 1 "+5V" H 7400 1740 50  0000 C CNN
F 2 "" H 7400 1600 50  0000 C CNN
F 3 "" H 7400 1600 50  0000 C CNN
	1    7400 1600
	1    0    0    -1  
$EndComp
$Comp
L GND #PWR02
U 1 1 58E3B075
P 7500 2450
F 0 "#PWR02" H 7500 2200 50  0001 C CNN
F 1 "GND" H 7500 2300 50  0000 C CNN
F 2 "" H 7500 2450 50  0000 C CNN
F 3 "" H 7500 2450 50  0000 C CNN
	1    7500 2450
	1    0    0    -1  
$EndComp
$Comp
L +3.3V #PWR03
U 1 1 58E3B0FF
P 9400 1750
F 0 "#PWR03" H 9400 1600 50  0001 C CNN
F 1 "+3.3V" H 9400 1890 50  0000 C CNN
F 2 "" H 9400 1750 50  0000 C CNN
F 3 "" H 9400 1750 50  0000 C CNN
	1    9400 1750
	1    0    0    -1  
$EndComp
$Comp
L GND #PWR04
U 1 1 58E3B126
P 8900 2400
F 0 "#PWR04" H 8900 2150 50  0001 C CNN
F 1 "GND" H 8900 2250 50  0000 C CNN
F 2 "" H 8900 2400 50  0000 C CNN
F 3 "" H 8900 2400 50  0000 C CNN
	1    8900 2400
	1    0    0    -1  
$EndComp
$Comp
L C_Small C5
U 1 1 58E3B14E
P 9400 2100
F 0 "C5" H 9410 2170 50  0000 L CNN
F 1 "100n" H 9410 2020 50  0000 L CNN
F 2 "Capacitors_SMD:C_0805_HandSoldering" H 9400 2100 50  0001 C CNN
F 3 "" H 9400 2100 50  0000 C CNN
	1    9400 2100
	1    0    0    -1  
$EndComp
$Comp
L C_Small C3
U 1 1 58E3B1DC
P 8450 2100
F 0 "C3" H 8460 2170 50  0000 L CNN
F 1 "100n" H 8460 2020 50  0000 L CNN
F 2 "Capacitors_SMD:C_0805_HandSoldering" H 8450 2100 50  0001 C CNN
F 3 "" H 8450 2100 50  0000 C CNN
	1    8450 2100
	1    0    0    -1  
$EndComp
Text Label 7900 2000 0    60   ~ 0
D-
Text Label 7900 2100 0    60   ~ 0
D+
Text Label 4650 2600 0    60   ~ 0
D+
$Comp
L R_Small R9
U 1 1 58E3B43A
P 7600 2100
F 0 "R9" H 7630 2120 50  0000 L CNN
F 1 "20R" H 7630 2060 50  0000 L CNN
F 2 "Resistors_SMD:R_0805_HandSoldering" H 7600 2100 50  0001 C CNN
F 3 "" H 7600 2100 50  0000 C CNN
	1    7600 2100
	0    -1   1    0   
$EndComp
$Comp
L R_Small R8
U 1 1 58E3B4BC
P 7600 2000
F 0 "R8" H 7630 2020 50  0000 L CNN
F 1 "20R" H 7630 1960 50  0000 L CNN
F 2 "Resistors_SMD:R_0805_HandSoldering" H 7600 2000 50  0001 C CNN
F 3 "" H 7600 2000 50  0000 C CNN
	1    7600 2000
	0    -1   -1   0   
$EndComp
Text Label 4650 2700 0    60   ~ 0
D-
$Comp
L R_Small R5
U 1 1 58E3B671
P 7600 1750
F 0 "R5" H 7630 1770 50  0000 L CNN
F 1 "4k7" H 7630 1710 50  0000 L CNN
F 2 "Resistors_SMD:R_0805_HandSoldering" H 7600 1750 50  0001 C CNN
F 3 "" H 7600 1750 50  0000 C CNN
	1    7600 1750
	0    1    -1   0   
$EndComp
$Comp
L +3.3V #PWR05
U 1 1 58E3B84F
P 3900 1900
F 0 "#PWR05" H 3900 1750 50  0001 C CNN
F 1 "+3.3V" H 3900 2040 50  0000 C CNN
F 2 "" H 3900 1900 50  0000 C CNN
F 3 "" H 3900 1900 50  0000 C CNN
	1    3900 1900
	1    0    0    -1  
$EndComp
$Comp
L +3.3V #PWR06
U 1 1 58E3B924
P 5950 1850
F 0 "#PWR06" H 5950 1700 50  0001 C CNN
F 1 "+3.3V" H 5950 1990 50  0000 C CNN
F 2 "" H 5950 1850 50  0000 C CNN
F 3 "" H 5950 1850 50  0000 C CNN
	1    5950 1850
	1    0    0    -1  
$EndComp
$Comp
L C_Small C1
U 1 1 58E3B94F
P 5850 2050
F 0 "C1" H 5860 2120 50  0000 L CNN
F 1 "100n" H 5860 1970 50  0000 L CNN
F 2 "Capacitors_SMD:C_0805_HandSoldering" H 5850 2050 50  0001 C CNN
F 3 "" H 5850 2050 50  0000 C CNN
	1    5850 2050
	-1   0    0    -1  
$EndComp
$Comp
L C_Small C2
U 1 1 58E3B9B2
P 6050 2050
F 0 "C2" H 6060 2120 50  0000 L CNN
F 1 "100n" H 6060 1970 50  0000 L CNN
F 2 "Capacitors_SMD:C_0805_HandSoldering" H 6050 2050 50  0001 C CNN
F 3 "" H 6050 2050 50  0000 C CNN
	1    6050 2050
	1    0    0    -1  
$EndComp
$Comp
L GND #PWR07
U 1 1 58E3BB86
P 5950 2250
F 0 "#PWR07" H 5950 2000 50  0001 C CNN
F 1 "GND" H 5950 2100 50  0000 C CNN
F 2 "" H 5950 2250 50  0000 C CNN
F 3 "" H 5950 2250 50  0000 C CNN
	1    5950 2250
	1    0    0    -1  
$EndComp
$Comp
L USB_OTG P4
U 1 1 58E3AF84
P 7050 2100
F 0 "P4" H 7375 1975 50  0000 C CNN
F 1 "USB_OTG" H 7050 2300 50  0000 C CNN
F 2 "Connect:USB_Micro-B_10103594-0001LF" V 7000 2000 50  0001 C CNN
F 3 "" V 7000 2000 50  0000 C CNN
	1    7050 2100
	0    -1   1    0   
$EndComp
Wire Wire Line
	7350 2300 7500 2300
Wire Wire Line
	7500 2200 7500 2450
Wire Wire Line
	9200 1900 9400 1900
Wire Wire Line
	9400 1750 9400 2000
Wire Wire Line
	8900 2200 8900 2400
Wire Wire Line
	8450 2300 9400 2300
Wire Wire Line
	9400 2300 9400 2200
Connection ~ 8900 2300
Connection ~ 9400 1900
Wire Wire Line
	8450 2200 8450 2300
Wire Wire Line
	8450 1750 8450 2000
Connection ~ 8450 1900
Wire Wire Line
	7350 2000 7500 2000
Wire Wire Line
	7350 2100 7500 2100
Wire Wire Line
	7350 2200 7500 2200
Connection ~ 7500 2300
Wire Wire Line
	3800 2050 3800 2000
Wire Wire Line
	3800 2000 4000 2000
Wire Wire Line
	3900 2000 3900 1900
Wire Wire Line
	4000 2000 4000 2050
Connection ~ 3900 2000
Wire Wire Line
	5850 1950 5850 1900
Wire Wire Line
	5850 1900 6050 1900
Wire Wire Line
	5950 1900 5950 1850
Wire Wire Line
	6050 1900 6050 1950
Connection ~ 5950 1900
Wire Wire Line
	5850 2150 5850 2200
Wire Wire Line
	5850 2200 6050 2200
Wire Wire Line
	6050 2200 6050 2150
Wire Notes Line
	9750 1350 9750 2850
Wire Notes Line
	9750 2850 8150 2850
Wire Notes Line
	8150 2850 8150 1350
Wire Notes Line
	8150 1350 9750 1350
Wire Notes Line
	6500 1350 6500 2850
Wire Notes Line
	6500 2850 5350 2850
Wire Notes Line
	5350 2850 5350 1350
Wire Notes Line
	5350 1350 6500 1350
Wire Wire Line
	4500 2600 4650 2600
Wire Wire Line
	4500 2700 4650 2700
Wire Wire Line
	7700 2100 7900 2100
Wire Wire Line
	7700 2000 7900 2000
Wire Wire Line
	8450 1900 8600 1900
Wire Wire Line
	7400 1900 7350 1900
Wire Wire Line
	7400 1600 7400 1900
$Comp
L +5V #PWR08
U 1 1 58E3D0DD
P 8450 1750
F 0 "#PWR08" H 8450 1600 50  0001 C CNN
F 1 "+5V" H 8450 1890 50  0000 C CNN
F 2 "" H 8450 1750 50  0000 C CNN
F 3 "" H 8450 1750 50  0000 C CNN
	1    8450 1750
	1    0    0    -1  
$EndComp
Wire Notes Line
	8100 1350 6550 1350
Wire Notes Line
	6550 1350 6550 2850
Wire Notes Line
	6550 2850 8100 2850
Wire Notes Line
	8100 2850 8100 1350
$Comp
L GND #PWR09
U 1 1 58E3DBFA
P 3900 3800
F 0 "#PWR09" H 3900 3550 50  0001 C CNN
F 1 "GND" H 3900 3650 50  0000 C CNN
F 2 "" H 3900 3800 50  0000 C CNN
F 3 "" H 3900 3800 50  0000 C CNN
	1    3900 3800
	1    0    0    -1  
$EndComp
Wire Wire Line
	3900 3650 3900 3800
$Comp
L GND #PWR010
U 1 1 58E3DD9D
P 9000 3950
F 0 "#PWR010" H 9000 3700 50  0001 C CNN
F 1 "GND" H 9000 3800 50  0000 C CNN
F 2 "" H 9000 3950 50  0000 C CNN
F 3 "" H 9000 3950 50  0000 C CNN
	1    9000 3950
	1    0    0    -1  
$EndComp
Wire Wire Line
	9000 3950 9000 3850
Wire Wire Line
	9000 3850 9100 3850
$Comp
L +3.3V #PWR011
U 1 1 58E3DE99
P 8600 3750
F 0 "#PWR011" H 8600 3600 50  0001 C CNN
F 1 "+3.3V" H 8600 3890 50  0000 C CNN
F 2 "" H 8600 3750 50  0000 C CNN
F 3 "" H 8600 3750 50  0000 C CNN
	1    8600 3750
	0    -1   -1   0   
$EndComp
Wire Wire Line
	8600 3750 9100 3750
Text Label 8550 3650 0    60   ~ 0
RFM_CE
Wire Wire Line
	8550 3650 9100 3650
Text Label 8550 3550 0    60   ~ 0
RFM_CSN
Wire Wire Line
	8550 3550 9100 3550
Text Label 8550 3450 0    60   ~ 0
RFM_SCK
Wire Wire Line
	8550 3450 9100 3450
Text Label 8550 3350 0    60   ~ 0
RFM_MOSI
Text Label 8550 3250 0    60   ~ 0
RFM_MISO
Wire Wire Line
	8550 3250 9100 3250
Wire Wire Line
	8550 3350 9100 3350
$Comp
L CONN_01X08 P5
U 1 1 58E3E388
P 9300 3500
F 0 "P5" H 9300 3950 50  0000 C CNN
F 1 "RFM_CONN" V 9400 3500 50  0000 C CNN
F 2 "Pin_Headers2:Pin_Header_Straight_1x08_Pitch1.27mm" H 9300 3500 50  0001 C CNN
F 3 "" H 9300 3500 50  0000 C CNN
	1    9300 3500
	1    0    0    -1  
$EndComp
Text Label 8550 3150 0    60   ~ 0
RFM_IRQ
Wire Wire Line
	8550 3150 9100 3150
Wire Notes Line
	9750 2950 8150 2950
Wire Notes Line
	8150 2950 8150 4150
Wire Notes Line
	8150 4150 9750 4150
Wire Notes Line
	9750 4150 9750 2950
Text Label 4650 3300 0    60   ~ 0
RFM_SCK
Wire Wire Line
	4500 3300 4650 3300
Text Label 4650 3200 0    60   ~ 0
RFM_MISO
Text Label 4650 3100 0    60   ~ 0
RFM_MOSI
Wire Wire Line
	4500 3100 4650 3100
Wire Wire Line
	4650 3200 4500 3200
Text Label 2800 3300 0    60   ~ 0
RFM_CSN
Wire Wire Line
	2800 3300 3300 3300
Text Label 2800 3200 0    60   ~ 0
RFM_CE
Wire Wire Line
	2800 3200 3300 3200
Text Label 2800 3100 0    60   ~ 0
RFM_IRQ
Wire Wire Line
	2800 3100 3300 3100
$Comp
L SW_PUSH SW1
U 1 1 58E3EB2F
P 7150 3450
F 0 "SW1" H 7300 3560 50  0000 C CNN
F 1 "KEY2" H 7150 3370 50  0000 C CNN
F 2 "misc:SW_06_SMD" H 7150 3450 50  0001 C CNN
F 3 "" H 7150 3450 50  0000 C CNN
	1    7150 3450
	1    0    0    -1  
$EndComp
$Comp
L SW_PUSH SW2
U 1 1 58E3EB94
P 7150 3800
F 0 "SW2" H 7300 3910 50  0000 C CNN
F 1 "KEY1" H 7150 3720 50  0000 C CNN
F 2 "misc:SW_06_SMD" H 7150 3800 50  0001 C CNN
F 3 "" H 7150 3800 50  0000 C CNN
	1    7150 3800
	1    0    0    -1  
$EndComp
Text Label 2800 2900 0    60   ~ 0
KEY1
Text Label 2800 3000 0    60   ~ 0
KEY2
Wire Wire Line
	2800 2900 3300 2900
Wire Wire Line
	2800 3000 3300 3000
Text Label 2250 2500 0    60   ~ 0
SDA
Text Label 2250 2600 0    60   ~ 0
SCL
Wire Wire Line
	2250 2600 3300 2600
Wire Wire Line
	2250 2500 3300 2500
$Comp
L Led_Small D1
U 1 1 58E3F229
P 3150 2200
F 0 "D1" H 3100 2325 50  0000 L CNN
F 1 "LED1" H 2975 2100 50  0000 L CNN
F 2 "misc:0603" V 3150 2200 50  0001 C CNN
F 3 "" V 3150 2200 50  0000 C CNN
	1    3150 2200
	0    1    -1   0   
$EndComp
Wire Wire Line
	3150 2300 3150 2750
Wire Wire Line
	3150 2350 3300 2350
Wire Wire Line
	3150 2050 3150 2100
$Comp
L R_Small R4
U 1 1 58E3F4C8
P 3150 1950
F 0 "R4" H 3180 1970 50  0000 L CNN
F 1 "220R" H 3180 1910 50  0000 L CNN
F 2 "Resistors_SMD:R_0805_HandSoldering" H 3150 1950 50  0001 C CNN
F 3 "" H 3150 1950 50  0000 C CNN
	1    3150 1950
	1    0    0    -1  
$EndComp
$Comp
L +3.3V #PWR012
U 1 1 58E3F5FF
P 3150 1750
F 0 "#PWR012" H 3150 1600 50  0001 C CNN
F 1 "+3.3V" H 3150 1890 50  0000 C CNN
F 2 "" H 3150 1750 50  0000 C CNN
F 3 "" H 3150 1750 50  0000 C CNN
	1    3150 1750
	1    0    0    -1  
$EndComp
Wire Wire Line
	3150 1750 3150 1850
$Comp
L CONN_01X03 P1
U 1 1 58E3F79F
P 4600 1850
F 0 "P1" H 4600 2050 50  0000 C CNN
F 1 "SWD_CONN" V 4700 1850 50  0000 C CNN
F 2 "Pin_Headers:Pin_Header_Straight_1x03" H 4600 1850 50  0001 C CNN
F 3 "" H 4600 1850 50  0000 C CNN
	1    4600 1850
	0    -1   -1   0   
$EndComp
Wire Wire Line
	4600 2350 4500 2350
Wire Wire Line
	4600 2050 4600 2350
$Comp
L GND #PWR013
U 1 1 58E3F96F
P 4500 2100
F 0 "#PWR013" H 4500 1850 50  0001 C CNN
F 1 "GND" H 4500 1950 50  0000 C CNN
F 2 "" H 4500 2100 50  0000 C CNN
F 3 "" H 4500 2100 50  0000 C CNN
	1    4500 2100
	1    0    0    -1  
$EndComp
$Comp
L CONN_01X01 P2
U 1 1 58E3FF30
P 4800 2900
F 0 "P2" H 4800 3000 50  0000 C CNN
F 1 "FREE" V 4900 2900 50  0000 C CNN
F 2 "Pin_Headers:Pin_Header_Straight_1x01" H 4800 2900 50  0001 C CNN
F 3 "" H 4800 2900 50  0000 C CNN
	1    4800 2900
	1    0    0    -1  
$EndComp
Wire Wire Line
	4500 2900 4600 2900
$Comp
L MCP7941 U3
U 1 1 58E40668
P 8950 5150
F 0 "U3" H 8650 5500 50  0000 L CNN
F 1 "MCP7941" H 9050 5500 50  0000 L CNN
F 2 "Housings_SOIC:SOIC-8_3.9x4.9mm_Pitch1.27mm" H 8950 5150 50  0001 C CNN
F 3 "" H 8950 5150 50  0000 C CNN
	1    8950 5150
	1    0    0    -1  
$EndComp
$Comp
L R_Small R1
U 1 1 58E40B9F
P 2600 2150
F 0 "R1" H 2630 2170 50  0000 L CNN
F 1 "4k7" H 2630 2110 50  0000 L CNN
F 2 "Resistors_SMD:R_0805_HandSoldering" H 2600 2150 50  0001 C CNN
F 3 "" H 2600 2150 50  0000 C CNN
	1    2600 2150
	-1   0    0    -1  
$EndComp
$Comp
L R_Small R2
U 1 1 58E40C38
P 2750 2150
F 0 "R2" H 2780 2170 50  0000 L CNN
F 1 "4k7" H 2780 2110 50  0000 L CNN
F 2 "Resistors_SMD:R_0805_HandSoldering" H 2750 2150 50  0001 C CNN
F 3 "" H 2750 2150 50  0000 C CNN
	1    2750 2150
	1    0    0    -1  
$EndComp
Wire Wire Line
	2600 2250 2600 2500
Connection ~ 2600 2500
Wire Wire Line
	2750 2250 2750 2600
Connection ~ 2750 2600
Wire Wire Line
	2750 2050 2750 1800
Wire Wire Line
	2600 1800 3150 1800
Connection ~ 3150 1800
Wire Wire Line
	2600 1800 2600 2050
Connection ~ 2750 1800
Wire Wire Line
	7450 3450 7750 3450
Text Label 7750 3450 0    60   ~ 0
KEY1
Wire Wire Line
	7450 3800 7750 3800
Text Label 7750 3800 0    60   ~ 0
KEY2
$Comp
L GND #PWR014
U 1 1 58E41C07
P 6800 3900
F 0 "#PWR014" H 6800 3650 50  0001 C CNN
F 1 "GND" H 6800 3750 50  0000 C CNN
F 2 "" H 6800 3900 50  0000 C CNN
F 3 "" H 6800 3900 50  0000 C CNN
	1    6800 3900
	1    0    0    -1  
$EndComp
Wire Wire Line
	6850 3800 6800 3800
Wire Wire Line
	6800 3450 6800 3900
Wire Wire Line
	6800 3450 6850 3450
Connection ~ 6800 3800
Wire Notes Line
	8100 2950 6550 2950
Wire Notes Line
	6550 2950 6550 4150
Wire Notes Line
	6550 4150 8100 4150
Wire Notes Line
	8100 4150 8100 2950
$Comp
L CONN_01X04 P3
U 1 1 58E422CF
P 6150 3550
F 0 "P3" H 6150 3800 50  0000 C CNN
F 1 "OLED_CONN" V 6250 3550 50  0000 C CNN
F 2 "Pin_Headers:Pin_Header_Straight_1x04" H 6150 3550 50  0001 C CNN
F 3 "" H 6150 3550 50  0000 C CNN
	1    6150 3550
	1    0    0    -1  
$EndComp
Wire Wire Line
	5850 3400 5950 3400
Wire Wire Line
	5850 3200 5850 3400
$Comp
L +3.3V #PWR015
U 1 1 58E42686
P 5850 3200
F 0 "#PWR015" H 5850 3050 50  0001 C CNN
F 1 "+3.3V" H 5850 3340 50  0000 C CNN
F 2 "" H 5850 3200 50  0000 C CNN
F 3 "" H 5850 3200 50  0000 C CNN
	1    5850 3200
	1    0    0    -1  
$EndComp
$Comp
L GND #PWR016
U 1 1 58E42816
P 5850 3850
F 0 "#PWR016" H 5850 3600 50  0001 C CNN
F 1 "GND" H 5850 3700 50  0000 C CNN
F 2 "" H 5850 3850 50  0000 C CNN
F 3 "" H 5850 3850 50  0000 C CNN
	1    5850 3850
	1    0    0    -1  
$EndComp
Wire Wire Line
	5950 3500 5850 3500
Wire Wire Line
	5850 3500 5850 3850
Wire Wire Line
	5500 3600 5950 3600
Wire Wire Line
	5500 3700 5950 3700
Text Label 5500 3600 0    60   ~ 0
SCL
Text Label 5500 3700 0    60   ~ 0
SDA
Wire Notes Line
	6500 2950 5350 2950
Wire Notes Line
	5350 2950 5350 4150
Wire Notes Line
	5350 4150 6500 4150
Wire Notes Line
	6500 4150 6500 2950
Text Notes 5350 2950 0    60   ~ 0
Wyświetlacz OLED
Text Notes 5350 1350 0    60   ~ 0
Filtracja
Text Notes 6550 1350 0    60   ~ 0
USB
Text Notes 8150 1350 0    60   ~ 0
Stabilizator
Text Notes 6550 2950 0    60   ~ 0
Przyciski
Text Notes 8150 2950 0    60   ~ 0
Transceiver RFM73
$Comp
L +3.3V #PWR017
U 1 1 58E438BA
P 8950 4450
F 0 "#PWR017" H 8950 4300 50  0001 C CNN
F 1 "+3.3V" H 8950 4590 50  0000 C CNN
F 2 "" H 8950 4450 50  0000 C CNN
F 3 "" H 8950 4450 50  0000 C CNN
	1    8950 4450
	1    0    0    -1  
$EndComp
Wire Wire Line
	8950 4450 8950 4750
$Comp
L GND #PWR018
U 1 1 58E439E6
P 8950 5800
F 0 "#PWR018" H 8950 5550 50  0001 C CNN
F 1 "GND" H 8950 5650 50  0000 C CNN
F 2 "" H 8950 5800 50  0000 C CNN
F 3 "" H 8950 5800 50  0000 C CNN
	1    8950 5800
	1    0    0    -1  
$EndComp
Wire Wire Line
	8950 5550 8950 5800
$Comp
L C_Small C4
U 1 1 58E43BF9
P 8750 4600
F 0 "C4" H 8760 4670 50  0000 L CNN
F 1 "100n" H 8760 4520 50  0000 L CNN
F 2 "Capacitors_SMD:C_0805_HandSoldering" H 8750 4600 50  0001 C CNN
F 3 "" H 8750 4600 50  0000 C CNN
	1    8750 4600
	0    -1   -1   0   
$EndComp
$Comp
L GND #PWR019
U 1 1 58E43C52
P 8550 4600
F 0 "#PWR019" H 8550 4350 50  0001 C CNN
F 1 "GND" H 8550 4450 50  0000 C CNN
F 2 "" H 8550 4600 50  0000 C CNN
F 3 "" H 8550 4600 50  0000 C CNN
	1    8550 4600
	0    1    1    0   
$EndComp
Wire Wire Line
	8550 4600 8650 4600
Wire Wire Line
	8850 4600 8950 4600
Connection ~ 8950 4600
Wire Wire Line
	9350 4950 9500 4950
Wire Wire Line
	9350 5050 9500 5050
Text Label 9500 4950 0    60   ~ 0
SCL
Text Label 9500 5050 0    60   ~ 0
SDA
NoConn ~ 9350 5250
$Comp
L Battery BT1
U 1 1 58E442BF
P 9500 5550
F 0 "BT1" H 9600 5600 50  0000 L CNN
F 1 "Battery" H 9600 5500 50  0000 L CNN
F 2 "Connectors2:CR2032H" V 9500 5590 50  0001 C CNN
F 3 "" V 9500 5590 50  0000 C CNN
	1    9500 5550
	-1   0    0    -1  
$EndComp
Wire Wire Line
	9350 5350 9500 5350
Wire Wire Line
	9500 5350 9500 5400
Wire Wire Line
	8650 5750 9500 5750
Wire Wire Line
	9500 5750 9500 5700
Connection ~ 8950 5750
Wire Wire Line
	8350 4950 8550 4950
Wire Wire Line
	8350 5350 8550 5350
Wire Notes Line
	9750 4250 8150 4250
Wire Notes Line
	8150 4250 8150 6050
Wire Notes Line
	8150 6050 9750 6050
Wire Notes Line
	9750 6050 9750 4250
Text Notes 8150 4250 0    60   ~ 0
Zegar RTC
Wire Notes Line
	5300 1350 2100 1350
Wire Notes Line
	2100 1350 2100 4150
Wire Notes Line
	2100 4150 5300 4150
Wire Notes Line
	5300 4150 5300 1350
Text Notes 2100 1350 0    60   ~ 0
Mikrokontroler STM32F042F6
$Comp
L PWR_FLAG #FLG020
U 1 1 58E45F36
P 8650 5750
F 0 "#FLG020" H 8650 5845 50  0001 C CNN
F 1 "PWR_FLAG" H 8650 5930 50  0000 C CNN
F 2 "" H 8650 5750 50  0000 C CNN
F 3 "" H 8650 5750 50  0000 C CNN
	1    8650 5750
	-1   0    0    1   
$EndComp
Wire Wire Line
	5950 2250 5950 2200
Connection ~ 5950 2200
$Comp
L CRYSTAL_SMD X1
U 1 1 58E3F4A0
P 8350 5150
F 0 "X1" H 8350 5240 50  0000 C CNN
F 1 "32,876kHz" H 8380 5040 50  0000 L CNN
F 2 "misc:AB26TRQ" H 8350 5150 50  0001 C CNN
F 3 "" H 8350 5150 50  0000 C CNN
	1    8350 5150
	0    1    -1   0   
$EndComp
$Comp
L GND #PWR021
U 1 1 58E3F97D
P 8250 5850
F 0 "#PWR021" H 8250 5600 50  0001 C CNN
F 1 "GND" H 8250 5700 50  0000 C CNN
F 2 "" H 8250 5850 50  0000 C CNN
F 3 "" H 8250 5850 50  0000 C CNN
	1    8250 5850
	1    0    0    -1  
$EndComp
Wire Wire Line
	8250 5150 8200 5150
Wire Wire Line
	8200 5150 8200 5400
Wire Wire Line
	8200 5400 8250 5400
Wire Wire Line
	8250 5400 8250 5850
Wire Wire Line
	4500 2450 4700 2450
Wire Wire Line
	4700 2450 4700 2050
Wire Wire Line
	4500 2100 4500 2050
Wire Wire Line
	8250 5800 8500 5800
Wire Wire Line
	8400 5800 8400 5750
Connection ~ 8250 5800
Wire Wire Line
	8500 5800 8500 5600
Connection ~ 8400 5800
Wire Wire Line
	8500 5400 8500 4950
Connection ~ 8500 4950
Wire Wire Line
	8400 5350 8400 5550
Connection ~ 8400 5350
$Comp
L C_Small C7
U 1 1 58E6545F
P 8500 5500
F 0 "C7" H 8510 5570 50  0000 L CNN
F 1 "22P" H 8510 5420 50  0000 L CNN
F 2 "Capacitors_SMD:C_0805_HandSoldering" H 8500 5500 50  0001 C CNN
F 3 "" H 8500 5500 50  0000 C CNN
	1    8500 5500
	1    0    0    -1  
$EndComp
$Comp
L C_Small C6
U 1 1 58E655AC
P 8400 5650
F 0 "C6" H 8410 5720 50  0000 L CNN
F 1 "22P" H 8410 5570 50  0000 L CNN
F 2 "Capacitors_SMD:C_0805_HandSoldering" H 8400 5650 50  0001 C CNN
F 3 "" H 8400 5650 50  0000 C CNN
	1    8400 5650
	-1   0    0    1   
$EndComp
NoConn ~ 3300 2750
Wire Wire Line
	7700 1750 7800 1750
Wire Wire Line
	7800 1750 7800 2100
Connection ~ 7800 2100
Wire Wire Line
	7500 1750 7400 1750
Connection ~ 7400 1750
$Comp
L R_Small R3
U 1 1 58FA784F
P 2950 2750
F 0 "R3" H 2980 2770 50  0000 L CNN
F 1 "10k" H 2980 2710 50  0000 L CNN
F 2 "Resistors_SMD:R_0805_HandSoldering" H 2950 2750 50  0001 C CNN
F 3 "" H 2950 2750 50  0000 C CNN
	1    2950 2750
	0    -1   -1   0   
$EndComp
Wire Wire Line
	3150 2750 3050 2750
Connection ~ 3150 2350
Wire Wire Line
	2850 2750 2650 2750
Wire Wire Line
	2650 2750 2650 2800
$Comp
L GND #PWR022
U 1 1 58FA7CD9
P 2650 2800
F 0 "#PWR022" H 2650 2550 50  0001 C CNN
F 1 "GND" H 2650 2650 50  0000 C CNN
F 2 "" H 2650 2800 50  0000 C CNN
F 3 "" H 2650 2800 50  0000 C CNN
	1    2650 2800
	1    0    0    -1  
$EndComp
$Comp
L GND #PWR023
U 1 1 58FA8280
P 6950 2500
F 0 "#PWR023" H 6950 2250 50  0001 C CNN
F 1 "GND" H 6950 2350 50  0000 C CNN
F 2 "" H 6950 2500 50  0000 C CNN
F 3 "" H 6950 2500 50  0000 C CNN
	1    6950 2500
	1    0    0    -1  
$EndComp
$EndSCHEMATC
