\relax 
\providecommand\hyper@newdestlabel[2]{}
\providecommand\HyperFirstAtBeginDocument{\AtBeginDocument}
\HyperFirstAtBeginDocument{\ifx\hyper@anchor\@undefined
\global\let\oldcontentsline\contentsline
\gdef\contentsline#1#2#3#4{\oldcontentsline{#1}{#2}{#3}}
\global\let\oldnewlabel\newlabel
\gdef\newlabel#1#2{\newlabelxx{#1}#2}
\gdef\newlabelxx#1#2#3#4#5#6{\oldnewlabel{#1}{{#2}{#3}}}
\AtEndDocument{\ifx\hyper@anchor\@undefined
\let\contentsline\oldcontentsline
\let\newlabel\oldnewlabel
\fi}
\fi}
\global\let\hyper@last\relax 
\gdef\HyperFirstAtBeginDocument#1{#1}
\providecommand\HyField@AuxAddToFields[1]{}
\providecommand\HyField@AuxAddToCoFields[2]{}
\@writefile{toc}{\contentsline {section}{\numberline {1}Opis}{2}{section.1}}
\newlabel{sec:opis}{{1}{2}{Opis}{section.1}{}}
\@writefile{toc}{\contentsline {section}{\numberline {2}Efekt ko\IeC {\'n}cowy}{2}{section.2}}
\@writefile{toc}{\contentsline {subsection}{\numberline {2.1}Aplikacja}{2}{subsection.2.1}}
\@writefile{toc}{\contentsline {subsection}{\numberline {2.2}Urz\IeC {\k a}dzenia}{2}{subsection.2.2}}
\@writefile{toc}{\contentsline {subsection}{\numberline {2.3}Opis protoko\IeC {\l }u komunikacji}{3}{subsection.2.3}}
\@writefile{toc}{\contentsline {section}{\numberline {3}Post\IeC {\k e}p pracy}{4}{section.3}}
\@writefile{toc}{\contentsline {section}{\numberline {4}Pozosta\IeC {\l }o do zrobienia}{4}{section.4}}
\@writefile{toc}{\contentsline {section}{\numberline {5}Urz\IeC {\k a}dzenia komunikuj\IeC {\k a}ce si\IeC {\k e} oraz pomiarowe}{4}{section.5}}
\@writefile{lof}{\contentsline {figure}{\numberline {1}{\ignorespaces Schemat ideowy urz\IeC {\k a}dzenia Master}}{5}{figure.1}}
\@writefile{lof}{\contentsline {figure}{\numberline {2}{\ignorespaces Schemat ideowy urz\IeC {\k a}dzenia pomiarowego Slave}}{5}{figure.2}}
\@writefile{toc}{\contentsline {section}{\numberline {6}Szkic interfejsu graficznego}{6}{section.6}}
\@writefile{lof}{\contentsline {figure}{\numberline {3}{\ignorespaces Szkic interfejsu graficznego okna g\IeC {\l }\IeC {\'o}wnego}}{6}{figure.3}}
\@writefile{lof}{\contentsline {figure}{\numberline {4}{\ignorespaces Szkic interfejsu graficznego okna ustawie\IeC {\'n}}}{6}{figure.4}}
\@writefile{toc}{\contentsline {section}{\numberline {7}Diagram klas UML}{7}{section.7}}
\@writefile{lof}{\contentsline {figure}{\numberline {5}{\ignorespaces Diagram klas UML}}{7}{figure.5}}
\@writefile{toc}{\contentsline {section}{\numberline {8}Schemat blokowy}{8}{section.8}}
\@writefile{lof}{\contentsline {figure}{\numberline {6}{\ignorespaces Schemat blokowy}}{8}{figure.6}}
\@writefile{toc}{\contentsline {section}{\numberline {9}Harmonogram realizacji}{8}{section.9}}
\@writefile{toc}{\contentsline {section}{\numberline {10}Diagram Gantta}{9}{section.10}}
\@writefile{lof}{\contentsline {figure}{\numberline {7}{\ignorespaces Diagram Gantta}}{9}{figure.7}}
\@writefile{toc}{\contentsline {section}{\numberline {11}Kamienie milowe}{9}{section.11}}
